%!PS-Adobe-2.0 EPSF-2.0
%%Title: betas-vs-lambda.tex
%%Creator: gnuplot 5.2 patchlevel 6
%%CreationDate: Sun Feb 10 01:50:14 2019
%%DocumentFonts: 
%%BoundingBox: 50 50 302 258
%%EndComments
%%BeginProlog
/gnudict 256 dict def
gnudict begin
%
% The following true/false flags may be edited by hand if desired.
% The unit line width and grayscale image gamma correction may also be changed.
%
/Color true def
/Blacktext false def
/Solid false def
/Dashlength 1 def
/Landscape false def
/Level1 false def
/Level3 false def
/Rounded false def
/ClipToBoundingBox false def
/SuppressPDFMark false def
/TransparentPatterns false def
/gnulinewidth 5.000 def
/userlinewidth gnulinewidth def
/Gamma 1.0 def
/BackgroundColor {-1.000 -1.000 -1.000} def
%
/vshift -73 def
/dl1 {
  10.0 Dashlength userlinewidth gnulinewidth div mul mul mul
  Rounded { currentlinewidth 0.75 mul sub dup 0 le { pop 0.01 } if } if
} def
/dl2 {
  10.0 Dashlength userlinewidth gnulinewidth div mul mul mul
  Rounded { currentlinewidth 0.75 mul add } if
} def
/hpt_ 31.5 def
/vpt_ 31.5 def
/hpt hpt_ def
/vpt vpt_ def
/doclip {
  ClipToBoundingBox {
    newpath 50 50 moveto 302 50 lineto 302 258 lineto 50 258 lineto closepath
    clip
  } if
} def
%
% Gnuplot Prolog Version 5.2 (Dec 2017)
%
%/SuppressPDFMark true def
%
/M {moveto} bind def
/L {lineto} bind def
/R {rmoveto} bind def
/V {rlineto} bind def
/N {newpath moveto} bind def
/Z {closepath} bind def
/C {setrgbcolor} bind def
/f {rlineto fill} bind def
/g {setgray} bind def
/Gshow {show} def   % May be redefined later in the file to support UTF-8
/vpt2 vpt 2 mul def
/hpt2 hpt 2 mul def
/Lshow {currentpoint stroke M 0 vshift R 
	Blacktext {gsave 0 setgray textshow grestore} {textshow} ifelse} def
/Rshow {currentpoint stroke M dup stringwidth pop neg vshift R
	Blacktext {gsave 0 setgray textshow grestore} {textshow} ifelse} def
/Cshow {currentpoint stroke M dup stringwidth pop -2 div vshift R 
	Blacktext {gsave 0 setgray textshow grestore} {textshow} ifelse} def
/UP {dup vpt_ mul /vpt exch def hpt_ mul /hpt exch def
  /hpt2 hpt 2 mul def /vpt2 vpt 2 mul def} def
/DL {Color {setrgbcolor Solid {pop []} if 0 setdash}
 {pop pop pop 0 setgray Solid {pop []} if 0 setdash} ifelse} def
/BL {stroke userlinewidth 2 mul setlinewidth
	Rounded {1 setlinejoin 1 setlinecap} if} def
/AL {stroke userlinewidth 2 div setlinewidth
	Rounded {1 setlinejoin 1 setlinecap} if} def
/UL {dup gnulinewidth mul /userlinewidth exch def
	dup 1 lt {pop 1} if 10 mul /udl exch def} def
/PL {stroke userlinewidth setlinewidth
	Rounded {1 setlinejoin 1 setlinecap} if} def
3.8 setmiterlimit
% Classic Line colors (version 5.0)
/LCw {1 1 1} def
/LCb {0 0 0} def
/LCa {0 0 0} def
/LC0 {1 0 0} def
/LC1 {0 1 0} def
/LC2 {0 0 1} def
/LC3 {1 0 1} def
/LC4 {0 1 1} def
/LC5 {1 1 0} def
/LC6 {0 0 0} def
/LC7 {1 0.3 0} def
/LC8 {0.5 0.5 0.5} def
% Default dash patterns (version 5.0)
/LTB {BL [] LCb DL} def
/LTw {PL [] 1 setgray} def
/LTb {PL [] LCb DL} def
/LTa {AL [1 udl mul 2 udl mul] 0 setdash LCa setrgbcolor} def
/LT0 {PL [] LC0 DL} def
/LT1 {PL [2 dl1 3 dl2] LC1 DL} def
/LT2 {PL [1 dl1 1.5 dl2] LC2 DL} def
/LT3 {PL [6 dl1 2 dl2 1 dl1 2 dl2] LC3 DL} def
/LT4 {PL [1 dl1 2 dl2 6 dl1 2 dl2 1 dl1 2 dl2] LC4 DL} def
/LT5 {PL [4 dl1 2 dl2] LC5 DL} def
/LT6 {PL [1.5 dl1 1.5 dl2 1.5 dl1 1.5 dl2 1.5 dl1 6 dl2] LC6 DL} def
/LT7 {PL [3 dl1 3 dl2 1 dl1 3 dl2] LC7 DL} def
/LT8 {PL [2 dl1 2 dl2 2 dl1 6 dl2] LC8 DL} def
/SL {[] 0 setdash} def
/Pnt {stroke [] 0 setdash gsave 1 setlinecap M 0 0 V stroke grestore} def
/Dia {stroke [] 0 setdash 2 copy vpt add M
  hpt neg vpt neg V hpt vpt neg V
  hpt vpt V hpt neg vpt V closepath stroke
  Pnt} def
/Pls {stroke [] 0 setdash vpt sub M 0 vpt2 V
  currentpoint stroke M
  hpt neg vpt neg R hpt2 0 V stroke
 } def
/Box {stroke [] 0 setdash 2 copy exch hpt sub exch vpt add M
  0 vpt2 neg V hpt2 0 V 0 vpt2 V
  hpt2 neg 0 V closepath stroke
  Pnt} def
/Crs {stroke [] 0 setdash exch hpt sub exch vpt add M
  hpt2 vpt2 neg V currentpoint stroke M
  hpt2 neg 0 R hpt2 vpt2 V stroke} def
/TriU {stroke [] 0 setdash 2 copy vpt 1.12 mul add M
  hpt neg vpt -1.62 mul V
  hpt 2 mul 0 V
  hpt neg vpt 1.62 mul V closepath stroke
  Pnt} def
/Star {2 copy Pls Crs} def
/BoxF {stroke [] 0 setdash exch hpt sub exch vpt add M
  0 vpt2 neg V hpt2 0 V 0 vpt2 V
  hpt2 neg 0 V closepath fill} def
/TriUF {stroke [] 0 setdash vpt 1.12 mul add M
  hpt neg vpt -1.62 mul V
  hpt 2 mul 0 V
  hpt neg vpt 1.62 mul V closepath fill} def
/TriD {stroke [] 0 setdash 2 copy vpt 1.12 mul sub M
  hpt neg vpt 1.62 mul V
  hpt 2 mul 0 V
  hpt neg vpt -1.62 mul V closepath stroke
  Pnt} def
/TriDF {stroke [] 0 setdash vpt 1.12 mul sub M
  hpt neg vpt 1.62 mul V
  hpt 2 mul 0 V
  hpt neg vpt -1.62 mul V closepath fill} def
/DiaF {stroke [] 0 setdash vpt add M
  hpt neg vpt neg V hpt vpt neg V
  hpt vpt V hpt neg vpt V closepath fill} def
/Pent {stroke [] 0 setdash 2 copy gsave
  translate 0 hpt M 4 {72 rotate 0 hpt L} repeat
  closepath stroke grestore Pnt} def
/PentF {stroke [] 0 setdash gsave
  translate 0 hpt M 4 {72 rotate 0 hpt L} repeat
  closepath fill grestore} def
/Circle {stroke [] 0 setdash 2 copy
  hpt 0 360 arc stroke Pnt} def
/CircleF {stroke [] 0 setdash hpt 0 360 arc fill} def
/C0 {BL [] 0 setdash 2 copy moveto vpt 90 450 arc} bind def
/C1 {BL [] 0 setdash 2 copy moveto
	2 copy vpt 0 90 arc closepath fill
	vpt 0 360 arc closepath} bind def
/C2 {BL [] 0 setdash 2 copy moveto
	2 copy vpt 90 180 arc closepath fill
	vpt 0 360 arc closepath} bind def
/C3 {BL [] 0 setdash 2 copy moveto
	2 copy vpt 0 180 arc closepath fill
	vpt 0 360 arc closepath} bind def
/C4 {BL [] 0 setdash 2 copy moveto
	2 copy vpt 180 270 arc closepath fill
	vpt 0 360 arc closepath} bind def
/C5 {BL [] 0 setdash 2 copy moveto
	2 copy vpt 0 90 arc
	2 copy moveto
	2 copy vpt 180 270 arc closepath fill
	vpt 0 360 arc} bind def
/C6 {BL [] 0 setdash 2 copy moveto
	2 copy vpt 90 270 arc closepath fill
	vpt 0 360 arc closepath} bind def
/C7 {BL [] 0 setdash 2 copy moveto
	2 copy vpt 0 270 arc closepath fill
	vpt 0 360 arc closepath} bind def
/C8 {BL [] 0 setdash 2 copy moveto
	2 copy vpt 270 360 arc closepath fill
	vpt 0 360 arc closepath} bind def
/C9 {BL [] 0 setdash 2 copy moveto
	2 copy vpt 270 450 arc closepath fill
	vpt 0 360 arc closepath} bind def
/C10 {BL [] 0 setdash 2 copy 2 copy moveto vpt 270 360 arc closepath fill
	2 copy moveto
	2 copy vpt 90 180 arc closepath fill
	vpt 0 360 arc closepath} bind def
/C11 {BL [] 0 setdash 2 copy moveto
	2 copy vpt 0 180 arc closepath fill
	2 copy moveto
	2 copy vpt 270 360 arc closepath fill
	vpt 0 360 arc closepath} bind def
/C12 {BL [] 0 setdash 2 copy moveto
	2 copy vpt 180 360 arc closepath fill
	vpt 0 360 arc closepath} bind def
/C13 {BL [] 0 setdash 2 copy moveto
	2 copy vpt 0 90 arc closepath fill
	2 copy moveto
	2 copy vpt 180 360 arc closepath fill
	vpt 0 360 arc closepath} bind def
/C14 {BL [] 0 setdash 2 copy moveto
	2 copy vpt 90 360 arc closepath fill
	vpt 0 360 arc} bind def
/C15 {BL [] 0 setdash 2 copy vpt 0 360 arc closepath fill
	vpt 0 360 arc closepath} bind def
/Rec {newpath 4 2 roll moveto 1 index 0 rlineto 0 exch rlineto
	neg 0 rlineto closepath} bind def
/Square {dup Rec} bind def
/Bsquare {vpt sub exch vpt sub exch vpt2 Square} bind def
/S0 {BL [] 0 setdash 2 copy moveto 0 vpt rlineto BL Bsquare} bind def
/S1 {BL [] 0 setdash 2 copy vpt Square fill Bsquare} bind def
/S2 {BL [] 0 setdash 2 copy exch vpt sub exch vpt Square fill Bsquare} bind def
/S3 {BL [] 0 setdash 2 copy exch vpt sub exch vpt2 vpt Rec fill Bsquare} bind def
/S4 {BL [] 0 setdash 2 copy exch vpt sub exch vpt sub vpt Square fill Bsquare} bind def
/S5 {BL [] 0 setdash 2 copy 2 copy vpt Square fill
	exch vpt sub exch vpt sub vpt Square fill Bsquare} bind def
/S6 {BL [] 0 setdash 2 copy exch vpt sub exch vpt sub vpt vpt2 Rec fill Bsquare} bind def
/S7 {BL [] 0 setdash 2 copy exch vpt sub exch vpt sub vpt vpt2 Rec fill
	2 copy vpt Square fill Bsquare} bind def
/S8 {BL [] 0 setdash 2 copy vpt sub vpt Square fill Bsquare} bind def
/S9 {BL [] 0 setdash 2 copy vpt sub vpt vpt2 Rec fill Bsquare} bind def
/S10 {BL [] 0 setdash 2 copy vpt sub vpt Square fill 2 copy exch vpt sub exch vpt Square fill
	Bsquare} bind def
/S11 {BL [] 0 setdash 2 copy vpt sub vpt Square fill 2 copy exch vpt sub exch vpt2 vpt Rec fill
	Bsquare} bind def
/S12 {BL [] 0 setdash 2 copy exch vpt sub exch vpt sub vpt2 vpt Rec fill Bsquare} bind def
/S13 {BL [] 0 setdash 2 copy exch vpt sub exch vpt sub vpt2 vpt Rec fill
	2 copy vpt Square fill Bsquare} bind def
/S14 {BL [] 0 setdash 2 copy exch vpt sub exch vpt sub vpt2 vpt Rec fill
	2 copy exch vpt sub exch vpt Square fill Bsquare} bind def
/S15 {BL [] 0 setdash 2 copy Bsquare fill Bsquare} bind def
/D0 {gsave translate 45 rotate 0 0 S0 stroke grestore} bind def
/D1 {gsave translate 45 rotate 0 0 S1 stroke grestore} bind def
/D2 {gsave translate 45 rotate 0 0 S2 stroke grestore} bind def
/D3 {gsave translate 45 rotate 0 0 S3 stroke grestore} bind def
/D4 {gsave translate 45 rotate 0 0 S4 stroke grestore} bind def
/D5 {gsave translate 45 rotate 0 0 S5 stroke grestore} bind def
/D6 {gsave translate 45 rotate 0 0 S6 stroke grestore} bind def
/D7 {gsave translate 45 rotate 0 0 S7 stroke grestore} bind def
/D8 {gsave translate 45 rotate 0 0 S8 stroke grestore} bind def
/D9 {gsave translate 45 rotate 0 0 S9 stroke grestore} bind def
/D10 {gsave translate 45 rotate 0 0 S10 stroke grestore} bind def
/D11 {gsave translate 45 rotate 0 0 S11 stroke grestore} bind def
/D12 {gsave translate 45 rotate 0 0 S12 stroke grestore} bind def
/D13 {gsave translate 45 rotate 0 0 S13 stroke grestore} bind def
/D14 {gsave translate 45 rotate 0 0 S14 stroke grestore} bind def
/D15 {gsave translate 45 rotate 0 0 S15 stroke grestore} bind def
/DiaE {stroke [] 0 setdash vpt add M
  hpt neg vpt neg V hpt vpt neg V
  hpt vpt V hpt neg vpt V closepath stroke} def
/BoxE {stroke [] 0 setdash exch hpt sub exch vpt add M
  0 vpt2 neg V hpt2 0 V 0 vpt2 V
  hpt2 neg 0 V closepath stroke} def
/TriUE {stroke [] 0 setdash vpt 1.12 mul add M
  hpt neg vpt -1.62 mul V
  hpt 2 mul 0 V
  hpt neg vpt 1.62 mul V closepath stroke} def
/TriDE {stroke [] 0 setdash vpt 1.12 mul sub M
  hpt neg vpt 1.62 mul V
  hpt 2 mul 0 V
  hpt neg vpt -1.62 mul V closepath stroke} def
/PentE {stroke [] 0 setdash gsave
  translate 0 hpt M 4 {72 rotate 0 hpt L} repeat
  closepath stroke grestore} def
/CircE {stroke [] 0 setdash 
  hpt 0 360 arc stroke} def
/Opaque {gsave closepath 1 setgray fill grestore 0 setgray closepath} def
/DiaW {stroke [] 0 setdash vpt add M
  hpt neg vpt neg V hpt vpt neg V
  hpt vpt V hpt neg vpt V Opaque stroke} def
/BoxW {stroke [] 0 setdash exch hpt sub exch vpt add M
  0 vpt2 neg V hpt2 0 V 0 vpt2 V
  hpt2 neg 0 V Opaque stroke} def
/TriUW {stroke [] 0 setdash vpt 1.12 mul add M
  hpt neg vpt -1.62 mul V
  hpt 2 mul 0 V
  hpt neg vpt 1.62 mul V Opaque stroke} def
/TriDW {stroke [] 0 setdash vpt 1.12 mul sub M
  hpt neg vpt 1.62 mul V
  hpt 2 mul 0 V
  hpt neg vpt -1.62 mul V Opaque stroke} def
/PentW {stroke [] 0 setdash gsave
  translate 0 hpt M 4 {72 rotate 0 hpt L} repeat
  Opaque stroke grestore} def
/CircW {stroke [] 0 setdash 
  hpt 0 360 arc Opaque stroke} def
/BoxFill {gsave Rec 1 setgray fill grestore} def
/Density {
  /Fillden exch def
  currentrgbcolor
  /ColB exch def /ColG exch def /ColR exch def
  /ColR ColR Fillden mul Fillden sub 1 add def
  /ColG ColG Fillden mul Fillden sub 1 add def
  /ColB ColB Fillden mul Fillden sub 1 add def
  ColR ColG ColB setrgbcolor} def
/BoxColFill {gsave Rec PolyFill} def
/PolyFill {gsave Density fill grestore grestore} def
/h {rlineto rlineto rlineto closepath gsave fill grestore stroke} bind def
%
% PostScript Level 1 Pattern Fill routine for rectangles
% Usage: x y w h s a XX PatternFill
%	x,y = lower left corner of box to be filled
%	w,h = width and height of box
%	  a = angle in degrees between lines and x-axis
%	 XX = 0/1 for no/yes cross-hatch
%
/PatternFill {gsave /PFa [ 9 2 roll ] def
  PFa 0 get PFa 2 get 2 div add PFa 1 get PFa 3 get 2 div add translate
  PFa 2 get -2 div PFa 3 get -2 div PFa 2 get PFa 3 get Rec
  TransparentPatterns {} {gsave 1 setgray fill grestore} ifelse
  clip
  currentlinewidth 0.5 mul setlinewidth
  /PFs PFa 2 get dup mul PFa 3 get dup mul add sqrt def
  0 0 M PFa 5 get rotate PFs -2 div dup translate
  0 1 PFs PFa 4 get div 1 add floor cvi
	{PFa 4 get mul 0 M 0 PFs V} for
  0 PFa 6 get ne {
	0 1 PFs PFa 4 get div 1 add floor cvi
	{PFa 4 get mul 0 2 1 roll M PFs 0 V} for
 } if
  stroke grestore} def
%
/languagelevel where
 {pop languagelevel} {1} ifelse
dup 2 lt
	{/InterpretLevel1 true def
	 /InterpretLevel3 false def}
	{/InterpretLevel1 Level1 def
	 2 gt
	    {/InterpretLevel3 Level3 def}
	    {/InterpretLevel3 false def}
	 ifelse }
 ifelse
%
% PostScript level 2 pattern fill definitions
%
/Level2PatternFill {
/Tile8x8 {/PaintType 2 /PatternType 1 /TilingType 1 /BBox [0 0 8 8] /XStep 8 /YStep 8}
	bind def
/KeepColor {currentrgbcolor [/Pattern /DeviceRGB] setcolorspace} bind def
<< Tile8x8
 /PaintProc {0.5 setlinewidth pop 0 0 M 8 8 L 0 8 M 8 0 L stroke} 
>> matrix makepattern
/Pat1 exch def
<< Tile8x8
 /PaintProc {0.5 setlinewidth pop 0 0 M 8 8 L 0 8 M 8 0 L stroke
	0 4 M 4 8 L 8 4 L 4 0 L 0 4 L stroke}
>> matrix makepattern
/Pat2 exch def
<< Tile8x8
 /PaintProc {0.5 setlinewidth pop 0 0 M 0 8 L
	8 8 L 8 0 L 0 0 L fill}
>> matrix makepattern
/Pat3 exch def
<< Tile8x8
 /PaintProc {0.5 setlinewidth pop -4 8 M 8 -4 L
	0 12 M 12 0 L stroke}
>> matrix makepattern
/Pat4 exch def
<< Tile8x8
 /PaintProc {0.5 setlinewidth pop -4 0 M 8 12 L
	0 -4 M 12 8 L stroke}
>> matrix makepattern
/Pat5 exch def
<< Tile8x8
 /PaintProc {0.5 setlinewidth pop -2 8 M 4 -4 L
	0 12 M 8 -4 L 4 12 M 10 0 L stroke}
>> matrix makepattern
/Pat6 exch def
<< Tile8x8
 /PaintProc {0.5 setlinewidth pop -2 0 M 4 12 L
	0 -4 M 8 12 L 4 -4 M 10 8 L stroke}
>> matrix makepattern
/Pat7 exch def
<< Tile8x8
 /PaintProc {0.5 setlinewidth pop 8 -2 M -4 4 L
	12 0 M -4 8 L 12 4 M 0 10 L stroke}
>> matrix makepattern
/Pat8 exch def
<< Tile8x8
 /PaintProc {0.5 setlinewidth pop 0 -2 M 12 4 L
	-4 0 M 12 8 L -4 4 M 8 10 L stroke}
>> matrix makepattern
/Pat9 exch def
/Pattern1 {PatternBgnd KeepColor Pat1 setpattern} bind def
/Pattern2 {PatternBgnd KeepColor Pat2 setpattern} bind def
/Pattern3 {PatternBgnd KeepColor Pat3 setpattern} bind def
/Pattern4 {PatternBgnd KeepColor Landscape {Pat5} {Pat4} ifelse setpattern} bind def
/Pattern5 {PatternBgnd KeepColor Landscape {Pat4} {Pat5} ifelse setpattern} bind def
/Pattern6 {PatternBgnd KeepColor Landscape {Pat9} {Pat6} ifelse setpattern} bind def
/Pattern7 {PatternBgnd KeepColor Landscape {Pat8} {Pat7} ifelse setpattern} bind def
} def
%
%
%End of PostScript Level 2 code
%
/PatternBgnd {
  TransparentPatterns {} {gsave 1 setgray fill grestore} ifelse
} def
%
% Substitute for Level 2 pattern fill codes with
% grayscale if Level 2 support is not selected.
%
/Level1PatternFill {
/Pattern1 {0.250 Density} bind def
/Pattern2 {0.500 Density} bind def
/Pattern3 {0.750 Density} bind def
/Pattern4 {0.125 Density} bind def
/Pattern5 {0.375 Density} bind def
/Pattern6 {0.625 Density} bind def
/Pattern7 {0.875 Density} bind def
} def
%
% Now test for support of Level 2 code
%
Level1 {Level1PatternFill} {Level2PatternFill} ifelse
%
/Symbol-Oblique /Symbol findfont [1 0 .167 1 0 0] makefont
dup length dict begin {1 index /FID eq {pop pop} {def} ifelse} forall
currentdict end definefont pop
%
Level1 SuppressPDFMark or 
{} {
/SDict 10 dict def
systemdict /pdfmark known not {
  userdict /pdfmark systemdict /cleartomark get put
} if
SDict begin [
  /Title (betas-vs-lambda.tex)
  /Subject (gnuplot plot)
  /Creator (gnuplot 5.2 patchlevel 6)
%  /Producer (gnuplot)
%  /Keywords ()
  /CreationDate (Sun Feb 10 01:50:14 2019)
  /DOCINFO pdfmark
end
} ifelse
%
% Support for boxed text - Ethan A Merritt Sep 2016
%
/InitTextBox { userdict /TBy2 3 -1 roll put userdict /TBx2 3 -1 roll put
           userdict /TBy1 3 -1 roll put userdict /TBx1 3 -1 roll put
	   /Boxing true def } def
/ExtendTextBox { dup type /stringtype eq
    { Boxing { gsave dup false charpath pathbbox
      dup TBy2 gt {userdict /TBy2 3 -1 roll put} {pop} ifelse
      dup TBx2 gt {userdict /TBx2 3 -1 roll put} {pop} ifelse
      dup TBy1 lt {userdict /TBy1 3 -1 roll put} {pop} ifelse
      dup TBx1 lt {userdict /TBx1 3 -1 roll put} {pop} ifelse
      grestore } if }
    {} ifelse} def
/PopTextBox { newpath TBx1 TBxmargin sub TBy1 TBymargin sub M
               TBx1 TBxmargin sub TBy2 TBymargin add L
	       TBx2 TBxmargin add TBy2 TBymargin add L
	       TBx2 TBxmargin add TBy1 TBymargin sub L closepath } def
/DrawTextBox { PopTextBox stroke /Boxing false def} def
/FillTextBox { gsave PopTextBox fill grestore /Boxing false def} def
0 0 0 0 InitTextBox
/TBxmargin 20 def
/TBymargin 20 def
/Boxing false def
/textshow { ExtendTextBox Gshow } def
%
end
%%EndProlog
%%Page: 1 1
gnudict begin
gsave
doclip
50 50 translate
0.050 0.050 scale
0 setgray
newpath
1.000 UL
LTb
LCb setrgbcolor
[] 0 setdash
756 2295 M
63 0 V
3968 0 R
-63 0 V
stroke
LTb
756 2703 M
63 0 V
3968 0 R
-63 0 V
stroke
756 3111 M
63 0 V
3968 0 R
-63 0 V
stroke
756 3518 M
63 0 V
3968 0 R
-63 0 V
stroke
756 3926 M
63 0 V
3968 0 R
-63 0 V
stroke
756 2213 M
0 63 V
0 1732 R
0 -63 V
stroke
1151 2213 M
0 31 V
0 1764 R
0 -31 V
1255 2213 M
0 31 V
0 1764 R
0 -31 V
62 -1764 R
0 31 V
0 1764 R
0 -31 V
45 -1764 R
0 31 V
0 1764 R
0 -31 V
35 -1764 R
0 31 V
0 1764 R
0 -31 V
28 -1764 R
0 31 V
0 1764 R
0 -31 V
24 -1764 R
0 31 V
0 1764 R
0 -31 V
21 -1764 R
0 31 V
0 1764 R
0 -31 V
19 -1764 R
0 63 V
0 1732 R
0 -63 V
stroke
1884 2213 M
0 31 V
0 1764 R
0 -31 V
1988 2213 M
0 31 V
0 1764 R
0 -31 V
62 -1764 R
0 31 V
0 1764 R
0 -31 V
45 -1764 R
0 31 V
0 1764 R
0 -31 V
35 -1764 R
0 31 V
0 1764 R
0 -31 V
28 -1764 R
0 31 V
0 1764 R
0 -31 V
24 -1764 R
0 31 V
0 1764 R
0 -31 V
21 -1764 R
0 31 V
0 1764 R
0 -31 V
19 -1764 R
0 63 V
0 1732 R
0 -63 V
stroke
2617 2213 M
0 31 V
0 1764 R
0 -31 V
2721 2213 M
0 31 V
0 1764 R
0 -31 V
62 -1764 R
0 31 V
0 1764 R
0 -31 V
45 -1764 R
0 31 V
0 1764 R
0 -31 V
34 -1764 R
0 31 V
0 1764 R
0 -31 V
29 -1764 R
0 31 V
0 1764 R
0 -31 V
24 -1764 R
0 31 V
0 1764 R
0 -31 V
21 -1764 R
0 31 V
0 1764 R
0 -31 V
19 -1764 R
0 63 V
0 1732 R
0 -63 V
stroke
3350 2213 M
0 31 V
0 1764 R
0 -31 V
3454 2213 M
0 31 V
0 1764 R
0 -31 V
62 -1764 R
0 31 V
0 1764 R
0 -31 V
45 -1764 R
0 31 V
0 1764 R
0 -31 V
34 -1764 R
0 31 V
0 1764 R
0 -31 V
29 -1764 R
0 31 V
0 1764 R
0 -31 V
24 -1764 R
0 31 V
0 1764 R
0 -31 V
21 -1764 R
0 31 V
0 1764 R
0 -31 V
19 -1764 R
0 63 V
0 1732 R
0 -63 V
stroke
4083 2213 M
0 31 V
0 1764 R
0 -31 V
4187 2213 M
0 31 V
0 1764 R
0 -31 V
62 -1764 R
0 31 V
0 1764 R
0 -31 V
44 -1764 R
0 31 V
0 1764 R
0 -31 V
35 -1764 R
0 31 V
0 1764 R
0 -31 V
29 -1764 R
0 31 V
0 1764 R
0 -31 V
24 -1764 R
0 31 V
0 1764 R
0 -31 V
21 -1764 R
0 31 V
0 1764 R
0 -31 V
19 -1764 R
0 63 V
0 1732 R
0 -63 V
stroke
1.000 UL
LTb
756 4008 N
0 -1795 V
4031 0 V
0 1795 V
-4031 0 V
Z stroke
1.000 UP
1.000 UL
LTb
% Begin plot #1
3.000 UL
LTb
0.58 0.00 0.83 C
776 3111 M
21 0 V
20 0 V
20 0 V
20 0 V
21 0 V
20 0 V
20 0 V
20 0 V
21 0 V
20 0 V
20 0 V
20 0 V
21 0 V
20 0 V
20 0 V
20 0 V
21 0 V
20 0 V
20 0 V
20 0 V
21 0 V
20 0 V
20 0 V
20 0 V
21 0 V
20 0 V
20 0 V
20 0 V
21 0 V
20 0 V
20 0 V
20 0 V
21 0 V
20 0 V
20 0 V
20 0 V
21 0 V
20 0 V
20 0 V
21 0 V
20 0 V
20 0 V
20 0 V
21 0 V
20 0 V
20 0 V
20 0 V
21 0 V
20 0 V
20 0 V
20 0 V
21 0 V
20 0 V
20 0 V
20 0 V
21 0 V
20 0 V
20 0 V
20 0 V
21 0 V
20 0 V
20 0 V
20 0 V
21 0 V
20 0 V
20 0 V
20 0 V
21 0 V
20 0 V
20 0 V
20 0 V
21 0 V
20 0 V
20 0 V
20 0 V
21 0 V
20 0 V
20 0 V
21 0 V
20 0 V
20 0 V
20 0 V
21 0 V
20 0 V
20 0 V
20 0 V
21 0 V
20 0 V
20 0 V
20 0 V
21 0 V
20 0 V
20 0 V
20 0 V
21 0 V
20 0 V
20 0 V
20 0 V
21 0 V
20 0 V
20 0 V
20 0 V
21 0 V
20 0 V
20 0 V
20 0 V
21 0 V
20 0 V
20 0 V
20 0 V
21 0 V
20 0 V
20 0 V
20 0 V
21 0 V
20 0 V
20 0 V
20 0 V
21 0 V
20 0 V
20 0 V
21 0 V
20 0 V
20 0 V
20 0 V
21 0 V
20 0 V
20 0 V
20 0 V
21 0 V
20 0 V
20 0 V
20 0 V
21 0 V
20 0 V
20 0 V
20 0 V
21 0 V
20 0 V
20 0 V
20 0 V
21 0 V
20 0 V
20 0 V
20 0 V
21 0 V
20 0 V
20 0 V
20 0 V
21 0 V
20 0 V
20 0 V
20 0 V
21 0 V
20 0 V
20 0 V
20 0 V
21 0 V
20 0 V
20 0 V
21 0 V
20 0 V
20 0 V
20 0 V
21 0 V
20 0 V
20 0 V
20 0 V
21 0 V
20 0 V
20 0 V
20 0 V
21 0 V
20 0 V
20 0 V
20 0 V
21 0 V
20 0 V
20 0 V
20 0 V
21 0 V
20 0 V
20 0 V
20 0 V
21 0 V
20 0 V
20 0 V
20 0 V
21 0 V
20 0 V
20 0 V
20 0 V
21 0 V
20 0 V
20 0 V
20 0 V
21 0 V
stroke
LTw
% End plot #1
% Begin plot #2
3.000 UL
LTb
LCb setrgbcolor
[] 0 setdash
0.00 0.62 0.45 C
776 3221 M
21 0 V
20 0 V
20 0 V
20 0 V
21 0 V
20 0 V
20 0 V
20 0 V
21 0 V
20 0 V
20 0 V
20 0 V
21 0 V
20 0 V
20 0 V
20 0 V
21 0 V
20 0 V
20 0 V
20 0 V
21 0 V
20 0 V
20 0 V
20 0 V
21 0 V
20 0 V
20 0 V
20 0 V
21 0 V
20 0 V
20 0 V
20 0 V
21 0 V
20 0 V
20 0 V
20 0 V
21 0 V
20 0 V
20 0 V
21 0 V
20 0 V
20 0 V
20 0 V
21 0 V
20 -1 V
20 0 V
20 0 V
21 0 V
20 0 V
20 0 V
20 0 V
21 0 V
20 0 V
20 -1 V
20 0 V
21 0 V
20 0 V
20 -1 V
20 0 V
21 0 V
20 -1 V
20 0 V
20 -1 V
21 0 V
20 -1 V
20 -1 V
20 0 V
21 -1 V
20 -1 V
20 -1 V
20 -2 V
21 -1 V
20 -1 V
20 -2 V
20 -2 V
21 -1 V
20 -2 V
20 -2 V
21 -3 V
20 -2 V
20 -2 V
20 -3 V
21 -2 V
20 -3 V
20 -2 V
20 -3 V
21 -3 V
20 -2 V
20 -3 V
20 -2 V
21 -3 V
20 -2 V
20 -2 V
20 -3 V
21 -2 V
20 -1 V
20 -2 V
20 -2 V
21 -2 V
20 -1 V
20 -2 V
20 -1 V
21 -1 V
20 -1 V
20 -2 V
20 -1 V
21 -1 V
20 -1 V
20 -1 V
20 -1 V
21 -1 V
20 -1 V
20 0 V
20 -1 V
21 -1 V
20 -1 V
20 -1 V
20 -1 V
21 -1 V
20 -1 V
20 -1 V
21 -2 V
20 -1 V
20 -1 V
20 -1 V
21 -1 V
20 -1 V
20 -1 V
20 -1 V
21 -1 V
20 -1 V
20 -1 V
20 -1 V
21 -1 V
20 -1 V
20 0 V
20 -1 V
21 0 V
20 -1 V
20 0 V
20 -1 V
21 0 V
20 -1 V
20 0 V
20 0 V
21 -1 V
20 0 V
20 0 V
20 0 V
21 0 V
20 0 V
20 0 V
20 0 V
21 -1 V
20 0 V
20 0 V
20 0 V
21 0 V
20 0 V
20 0 V
21 1 V
20 0 V
20 0 V
20 0 V
21 0 V
20 0 V
20 0 V
20 0 V
21 0 V
20 0 V
20 0 V
20 1 V
21 0 V
20 0 V
20 0 V
20 0 V
21 0 V
20 0 V
20 0 V
20 0 V
21 1 V
20 0 V
20 0 V
20 0 V
21 0 V
20 0 V
20 0 V
20 0 V
21 1 V
20 0 V
20 0 V
20 0 V
21 0 V
20 0 V
20 0 V
20 0 V
21 0 V
stroke
LTw
% End plot #2
% Begin plot #3
3.000 UL
LTb
LCb setrgbcolor
[] 0 setdash
0.34 0.71 0.91 C
776 3201 M
21 0 V
20 0 V
20 0 V
20 0 V
21 0 V
20 0 V
20 0 V
20 0 V
21 0 V
20 0 V
20 0 V
20 0 V
21 0 V
20 0 V
20 0 V
20 0 V
21 0 V
20 0 V
20 0 V
20 0 V
21 0 V
20 0 V
20 0 V
20 0 V
21 0 V
20 0 V
20 0 V
20 0 V
21 0 V
20 0 V
20 0 V
20 0 V
21 0 V
20 0 V
20 0 V
20 0 V
21 0 V
20 0 V
20 0 V
21 0 V
20 0 V
20 0 V
20 0 V
21 0 V
20 0 V
20 0 V
20 -1 V
21 0 V
20 0 V
20 0 V
20 0 V
21 0 V
20 0 V
20 0 V
20 -1 V
21 0 V
20 0 V
20 0 V
20 -1 V
21 0 V
20 0 V
20 -1 V
20 0 V
21 -1 V
20 -1 V
20 0 V
20 -1 V
21 -1 V
20 -1 V
20 -1 V
20 -1 V
21 -1 V
20 -2 V
20 -1 V
20 -2 V
21 -1 V
20 -2 V
20 -2 V
21 -2 V
20 -2 V
20 -2 V
20 -3 V
21 -2 V
20 -2 V
20 -2 V
20 -3 V
21 -2 V
20 -2 V
20 -3 V
20 -2 V
21 -2 V
20 -2 V
20 -2 V
20 -1 V
21 -2 V
20 -2 V
20 -1 V
20 -1 V
21 -2 V
20 -1 V
20 -1 V
20 -1 V
21 -1 V
20 -1 V
20 -1 V
20 -1 V
21 0 V
20 -1 V
20 -1 V
20 0 V
21 -1 V
20 -1 V
20 0 V
20 -1 V
21 -1 V
20 0 V
20 -1 V
20 -1 V
21 0 V
20 -1 V
20 -1 V
21 0 V
20 -1 V
20 -1 V
20 -1 V
21 0 V
20 -1 V
20 0 V
20 -1 V
21 -1 V
20 0 V
20 -1 V
20 0 V
21 -1 V
20 0 V
20 -1 V
20 0 V
21 0 V
20 -1 V
20 0 V
20 0 V
21 0 V
20 -1 V
20 0 V
20 0 V
21 0 V
20 0 V
20 0 V
20 -1 V
21 0 V
20 0 V
20 0 V
20 0 V
21 0 V
20 0 V
20 0 V
20 -1 V
21 0 V
20 0 V
20 0 V
21 0 V
20 0 V
20 0 V
20 0 V
21 0 V
20 0 V
20 0 V
20 0 V
21 0 V
20 0 V
20 0 V
20 0 V
21 0 V
20 0 V
20 0 V
20 0 V
21 0 V
20 0 V
20 0 V
20 0 V
21 0 V
20 0 V
20 1 V
20 0 V
21 0 V
20 0 V
20 0 V
20 0 V
21 0 V
20 0 V
20 0 V
20 1 V
21 0 V
20 0 V
20 0 V
20 0 V
21 0 V
stroke
LTw
% End plot #3
% Begin plot #4
3.000 UL
LTb
LCb setrgbcolor
[] 0 setdash
0.90 0.62 0.00 C
776 2781 M
21 0 V
20 0 V
20 0 V
20 0 V
21 0 V
20 0 V
20 0 V
20 0 V
21 0 V
20 0 V
20 0 V
20 0 V
21 0 V
20 0 V
20 0 V
20 0 V
21 0 V
20 0 V
20 0 V
20 0 V
21 0 V
20 0 V
20 1 V
20 0 V
21 0 V
20 0 V
20 0 V
20 0 V
21 0 V
20 0 V
20 0 V
20 0 V
21 0 V
20 0 V
20 0 V
20 0 V
21 0 V
20 0 V
20 0 V
21 0 V
20 0 V
20 0 V
20 0 V
21 1 V
20 0 V
20 0 V
20 0 V
21 0 V
20 1 V
20 0 V
20 0 V
21 1 V
20 0 V
20 1 V
20 0 V
21 1 V
20 0 V
20 1 V
20 1 V
21 1 V
20 1 V
20 2 V
20 1 V
21 2 V
20 1 V
20 2 V
20 3 V
21 2 V
20 3 V
20 3 V
20 3 V
21 4 V
20 4 V
20 4 V
20 4 V
21 5 V
20 5 V
20 6 V
21 6 V
20 6 V
20 6 V
20 7 V
21 6 V
20 7 V
20 7 V
20 7 V
21 7 V
20 7 V
20 6 V
20 6 V
21 7 V
20 6 V
20 5 V
20 6 V
21 5 V
20 5 V
20 4 V
20 4 V
21 5 V
20 3 V
20 4 V
20 3 V
21 4 V
20 3 V
20 3 V
20 3 V
21 3 V
20 2 V
20 3 V
20 2 V
21 3 V
20 3 V
20 2 V
20 3 V
21 2 V
20 3 V
20 2 V
20 3 V
21 3 V
20 3 V
20 3 V
21 3 V
20 3 V
20 3 V
20 3 V
21 4 V
20 3 V
20 3 V
20 3 V
21 3 V
20 3 V
20 3 V
20 3 V
21 3 V
20 3 V
20 2 V
20 2 V
21 3 V
20 2 V
20 2 V
20 1 V
21 2 V
20 2 V
20 1 V
20 1 V
21 1 V
20 1 V
20 1 V
20 1 V
21 1 V
20 1 V
20 0 V
20 1 V
21 1 V
20 0 V
20 1 V
20 0 V
21 0 V
20 1 V
20 0 V
21 0 V
20 1 V
20 0 V
20 0 V
21 1 V
20 0 V
20 0 V
20 0 V
21 1 V
20 0 V
20 0 V
20 0 V
21 0 V
20 0 V
20 1 V
20 0 V
21 0 V
20 0 V
20 0 V
20 0 V
21 0 V
20 0 V
20 1 V
20 0 V
21 0 V
20 0 V
20 0 V
20 0 V
21 0 V
20 0 V
20 0 V
20 0 V
21 0 V
20 0 V
20 1 V
20 0 V
21 0 V
stroke
LTw
% End plot #4
% Begin plot #5
3.000 UL
LTb
LCb setrgbcolor
[] 0 setdash
0.94 0.89 0.26 C
776 2809 M
21 0 V
20 0 V
20 0 V
20 0 V
21 0 V
20 0 V
20 0 V
20 0 V
21 0 V
20 0 V
20 0 V
20 0 V
21 0 V
20 0 V
20 0 V
20 0 V
21 0 V
20 0 V
20 0 V
20 0 V
21 0 V
20 0 V
20 0 V
20 0 V
21 0 V
20 0 V
20 0 V
20 0 V
21 0 V
20 0 V
20 0 V
20 0 V
21 0 V
20 0 V
20 0 V
20 0 V
21 0 V
20 1 V
20 0 V
21 0 V
20 0 V
20 0 V
20 0 V
21 1 V
20 0 V
20 0 V
20 0 V
21 1 V
20 0 V
20 1 V
20 0 V
21 1 V
20 0 V
20 1 V
20 1 V
21 1 V
20 1 V
20 1 V
20 1 V
21 2 V
20 1 V
20 2 V
20 2 V
21 3 V
20 3 V
20 2 V
20 4 V
21 3 V
20 4 V
20 5 V
20 5 V
21 5 V
20 6 V
20 6 V
20 7 V
21 8 V
20 7 V
20 9 V
21 9 V
20 9 V
20 9 V
20 10 V
21 11 V
20 10 V
20 11 V
20 10 V
21 11 V
20 10 V
20 10 V
20 10 V
21 10 V
20 9 V
20 8 V
20 9 V
21 7 V
20 7 V
20 7 V
20 6 V
21 5 V
20 5 V
20 5 V
20 4 V
21 3 V
20 3 V
20 3 V
20 2 V
21 2 V
20 2 V
20 1 V
20 1 V
21 2 V
20 1 V
20 0 V
20 1 V
21 1 V
20 1 V
20 0 V
20 1 V
21 0 V
20 1 V
20 0 V
21 0 V
20 1 V
20 0 V
20 0 V
21 0 V
20 0 V
20 0 V
20 0 V
21 0 V
20 0 V
20 0 V
20 -1 V
21 0 V
20 -1 V
20 0 V
20 -1 V
21 0 V
20 -1 V
20 -1 V
20 0 V
21 -1 V
20 0 V
20 -1 V
20 0 V
21 -1 V
20 -1 V
20 0 V
20 -1 V
21 0 V
20 -1 V
20 0 V
20 0 V
21 -1 V
20 0 V
20 -1 V
20 0 V
21 -1 V
20 0 V
20 -1 V
21 0 V
20 0 V
20 -1 V
20 0 V
21 -1 V
20 0 V
20 -1 V
20 0 V
21 0 V
20 -1 V
20 0 V
20 0 V
21 -1 V
20 0 V
20 0 V
20 -1 V
21 0 V
20 0 V
20 0 V
20 0 V
21 0 V
20 -1 V
20 0 V
20 0 V
21 0 V
20 0 V
20 0 V
20 0 V
21 0 V
20 0 V
20 0 V
20 0 V
21 0 V
20 0 V
20 0 V
20 0 V
21 0 V
stroke
LTw
% End plot #5
% Begin plot #6
3.000 UL
LTb
LCb setrgbcolor
[] 0 setdash
0.00 0.45 0.70 C
776 2852 M
21 0 V
20 0 V
20 0 V
20 0 V
21 0 V
20 0 V
20 0 V
20 0 V
21 0 V
20 0 V
20 0 V
20 0 V
21 1 V
20 0 V
20 0 V
20 0 V
21 0 V
20 0 V
20 0 V
20 0 V
21 0 V
20 0 V
20 0 V
20 0 V
21 0 V
20 0 V
20 0 V
20 0 V
21 0 V
20 0 V
20 0 V
20 0 V
21 0 V
20 0 V
20 0 V
20 0 V
21 0 V
20 0 V
20 0 V
21 0 V
20 0 V
20 0 V
20 1 V
21 0 V
20 0 V
20 0 V
20 0 V
21 0 V
20 1 V
20 0 V
20 0 V
21 1 V
20 0 V
20 1 V
20 0 V
21 1 V
20 0 V
20 1 V
20 1 V
21 1 V
20 1 V
20 1 V
20 2 V
21 1 V
20 2 V
20 2 V
20 2 V
21 3 V
20 2 V
20 3 V
20 3 V
21 4 V
20 3 V
20 4 V
20 5 V
21 4 V
20 5 V
20 5 V
21 5 V
20 6 V
20 6 V
20 6 V
21 5 V
20 6 V
20 6 V
20 6 V
21 5 V
20 6 V
20 5 V
20 5 V
21 5 V
20 4 V
20 4 V
20 4 V
21 4 V
20 3 V
20 3 V
20 3 V
21 2 V
20 3 V
20 2 V
20 3 V
21 2 V
20 2 V
20 2 V
20 2 V
21 2 V
20 2 V
20 2 V
20 2 V
21 2 V
20 2 V
20 1 V
20 2 V
21 2 V
20 2 V
20 2 V
20 2 V
21 2 V
20 1 V
20 2 V
21 2 V
20 2 V
20 2 V
20 2 V
21 2 V
20 2 V
20 2 V
20 2 V
21 1 V
20 2 V
20 2 V
20 2 V
21 1 V
20 2 V
20 1 V
20 2 V
21 1 V
20 1 V
20 1 V
20 1 V
21 1 V
20 1 V
20 1 V
20 1 V
21 1 V
20 1 V
20 0 V
20 1 V
21 1 V
20 0 V
20 1 V
20 0 V
21 1 V
20 0 V
20 1 V
20 0 V
21 0 V
20 1 V
20 0 V
21 1 V
20 0 V
20 1 V
20 0 V
21 0 V
20 1 V
20 0 V
20 0 V
21 1 V
20 0 V
20 0 V
20 1 V
21 0 V
20 0 V
20 0 V
20 1 V
21 0 V
20 0 V
20 0 V
20 0 V
21 1 V
20 0 V
20 0 V
20 0 V
21 0 V
20 0 V
20 0 V
20 0 V
21 1 V
20 0 V
20 0 V
20 0 V
21 0 V
20 0 V
20 0 V
20 0 V
21 0 V
stroke
LTw
% End plot #6
% Begin plot #7
3.000 UL
LTb
LCb setrgbcolor
[] 0 setdash
0.90 0.12 0.06 C
776 3363 M
21 0 V
20 0 V
20 0 V
20 0 V
21 0 V
20 0 V
20 0 V
20 0 V
21 0 V
20 0 V
20 0 V
20 0 V
21 0 V
20 0 V
20 0 V
20 0 V
21 0 V
20 0 V
20 0 V
20 0 V
21 0 V
20 0 V
20 0 V
20 0 V
21 0 V
20 0 V
20 0 V
20 0 V
21 0 V
20 0 V
20 0 V
20 0 V
21 0 V
20 0 V
20 0 V
20 0 V
21 0 V
20 0 V
20 0 V
21 0 V
20 -1 V
20 0 V
20 0 V
21 0 V
20 0 V
20 0 V
20 -1 V
21 0 V
20 0 V
20 -1 V
20 0 V
21 -1 V
20 0 V
20 -1 V
20 0 V
21 -1 V
20 -1 V
20 -1 V
20 -1 V
21 -1 V
20 -2 V
20 -1 V
20 -2 V
21 -2 V
20 -2 V
20 -3 V
20 -2 V
21 -3 V
20 -4 V
20 -3 V
20 -4 V
21 -5 V
20 -4 V
20 -6 V
20 -5 V
21 -6 V
20 -6 V
20 -6 V
21 -7 V
20 -7 V
20 -8 V
20 -7 V
21 -7 V
20 -8 V
20 -7 V
20 -7 V
21 -7 V
20 -7 V
20 -6 V
20 -6 V
21 -5 V
20 -5 V
20 -4 V
20 -4 V
21 -3 V
20 -3 V
20 -3 V
20 -2 V
21 -2 V
20 -1 V
20 -2 V
20 -1 V
21 -1 V
20 -1 V
20 0 V
20 -1 V
21 0 V
20 -1 V
20 -1 V
20 0 V
21 -1 V
20 0 V
20 -1 V
20 -1 V
21 -1 V
20 0 V
20 -1 V
20 -2 V
21 -1 V
20 -1 V
20 -1 V
21 -2 V
20 -1 V
20 -2 V
20 -1 V
21 -2 V
20 -2 V
20 -2 V
20 -2 V
21 -1 V
20 -2 V
20 -2 V
20 -2 V
21 -2 V
20 -1 V
20 -2 V
20 -2 V
21 -1 V
20 -2 V
20 -1 V
20 -1 V
21 -1 V
20 -1 V
20 -1 V
20 -1 V
21 -1 V
20 -1 V
20 0 V
20 -1 V
21 0 V
20 -1 V
20 0 V
20 -1 V
21 0 V
20 0 V
20 0 V
20 -1 V
21 0 V
20 0 V
20 0 V
21 0 V
20 0 V
20 0 V
20 0 V
21 0 V
20 0 V
20 0 V
20 0 V
21 0 V
20 0 V
20 0 V
20 0 V
21 0 V
20 0 V
20 0 V
20 0 V
21 0 V
20 0 V
20 0 V
20 0 V
21 0 V
20 0 V
20 0 V
20 0 V
21 0 V
20 0 V
20 0 V
20 0 V
21 0 V
20 0 V
20 0 V
20 0 V
21 0 V
20 0 V
20 0 V
20 0 V
21 0 V
stroke
LTw
% End plot #7
% Begin plot #8
3.000 UL
LTb
LCb setrgbcolor
[] 0 setdash
0.00 0.00 0.00 C
776 3734 M
21 0 V
20 0 V
20 0 V
20 0 V
21 0 V
20 0 V
20 0 V
20 0 V
21 0 V
20 0 V
20 0 V
20 0 V
21 0 V
20 0 V
20 0 V
20 0 V
21 0 V
20 0 V
20 0 V
20 0 V
21 0 V
20 0 V
20 0 V
20 0 V
21 0 V
20 0 V
20 0 V
20 0 V
21 0 V
20 0 V
20 -1 V
20 0 V
21 0 V
20 0 V
20 0 V
20 0 V
21 0 V
20 0 V
20 -1 V
21 0 V
20 0 V
20 0 V
20 -1 V
21 0 V
20 0 V
20 -1 V
20 0 V
21 -1 V
20 0 V
20 -1 V
20 -1 V
21 -1 V
20 -1 V
20 -1 V
20 -2 V
21 -1 V
20 -2 V
20 -2 V
20 -2 V
21 -3 V
20 -3 V
20 -3 V
20 -3 V
21 -4 V
20 -5 V
20 -5 V
20 -5 V
21 -6 V
20 -7 V
20 -8 V
20 -8 V
21 -9 V
20 -10 V
20 -10 V
20 -12 V
21 -12 V
20 -14 V
20 -14 V
21 -15 V
20 -16 V
20 -16 V
20 -17 V
21 -18 V
20 -18 V
20 -18 V
20 -19 V
21 -18 V
20 -18 V
20 -19 V
20 -17 V
21 -18 V
20 -17 V
20 -16 V
20 -15 V
21 -15 V
20 -14 V
20 -14 V
20 -12 V
21 -12 V
20 -11 V
20 -10 V
20 -9 V
21 -9 V
20 -8 V
20 -7 V
20 -7 V
21 -6 V
20 -5 V
20 -5 V
20 -5 V
21 -4 V
20 -4 V
20 -3 V
20 -3 V
21 -3 V
20 -3 V
20 -2 V
20 -2 V
21 -2 V
20 -2 V
20 -1 V
21 -2 V
20 -1 V
20 -1 V
20 -1 V
21 -1 V
20 0 V
20 -1 V
20 -1 V
21 0 V
20 0 V
20 0 V
20 0 V
21 -1 V
20 0 V
20 1 V
20 0 V
21 0 V
20 0 V
20 0 V
20 0 V
21 0 V
20 0 V
20 1 V
20 0 V
21 0 V
20 0 V
20 0 V
20 0 V
21 0 V
20 0 V
20 0 V
20 0 V
21 0 V
20 0 V
20 0 V
20 0 V
21 0 V
20 0 V
20 0 V
21 0 V
20 0 V
20 0 V
20 -1 V
21 0 V
20 0 V
20 0 V
20 0 V
21 0 V
20 0 V
20 -1 V
20 0 V
21 0 V
20 0 V
20 0 V
20 0 V
21 0 V
20 -1 V
20 0 V
20 0 V
21 0 V
20 0 V
20 0 V
20 0 V
21 0 V
20 0 V
20 0 V
20 0 V
21 0 V
20 0 V
20 0 V
20 0 V
21 0 V
20 0 V
20 -1 V
20 0 V
21 0 V
stroke
LTw
% End plot #8
% Begin plot #9
3.000 UL
LTb
LCb setrgbcolor
[] 0 setdash
0.58 0.00 0.83 C
776 3612 M
21 0 V
20 0 V
20 0 V
20 0 V
21 0 V
20 0 V
20 0 V
20 0 V
21 0 V
20 0 V
20 0 V
20 0 V
21 0 V
20 0 V
20 0 V
20 0 V
21 0 V
20 0 V
20 0 V
20 0 V
21 0 V
20 0 V
20 0 V
20 0 V
21 0 V
20 0 V
20 0 V
20 0 V
21 0 V
20 0 V
20 0 V
20 -1 V
21 0 V
20 0 V
20 0 V
20 0 V
21 0 V
20 0 V
20 0 V
21 -1 V
20 0 V
20 0 V
20 0 V
21 -1 V
20 0 V
20 -1 V
20 0 V
21 -1 V
20 0 V
20 -1 V
20 -1 V
21 -1 V
20 -1 V
20 -1 V
20 -1 V
21 -2 V
20 -1 V
20 -2 V
20 -2 V
21 -3 V
20 -2 V
20 -3 V
20 -4 V
21 -4 V
20 -4 V
20 -5 V
20 -5 V
21 -6 V
20 -6 V
20 -7 V
20 -8 V
21 -9 V
20 -9 V
20 -10 V
20 -11 V
21 -12 V
20 -12 V
20 -14 V
21 -14 V
20 -15 V
20 -15 V
20 -16 V
21 -16 V
20 -17 V
20 -17 V
20 -17 V
21 -17 V
20 -17 V
20 -16 V
20 -16 V
21 -16 V
20 -14 V
20 -15 V
20 -13 V
21 -13 V
20 -12 V
20 -11 V
20 -10 V
21 -9 V
20 -9 V
20 -7 V
20 -7 V
21 -6 V
20 -5 V
20 -5 V
20 -4 V
21 -4 V
20 -3 V
20 -2 V
20 -2 V
21 -2 V
20 -1 V
20 -1 V
20 -1 V
21 -1 V
20 0 V
20 -1 V
20 0 V
21 0 V
20 0 V
20 1 V
21 0 V
20 0 V
20 1 V
20 0 V
21 1 V
20 0 V
20 1 V
20 0 V
21 1 V
20 1 V
20 0 V
20 1 V
21 1 V
20 1 V
20 0 V
20 1 V
21 1 V
20 0 V
20 1 V
20 1 V
21 0 V
20 1 V
20 0 V
20 0 V
21 1 V
20 0 V
20 1 V
20 0 V
21 0 V
20 0 V
20 1 V
20 0 V
21 0 V
20 0 V
20 0 V
20 0 V
21 0 V
20 0 V
20 0 V
21 1 V
20 0 V
20 0 V
20 0 V
21 0 V
20 0 V
20 0 V
20 0 V
21 0 V
20 0 V
20 -1 V
20 0 V
21 0 V
20 0 V
20 0 V
20 0 V
21 0 V
20 0 V
20 0 V
20 0 V
21 0 V
20 0 V
20 0 V
20 0 V
21 0 V
20 0 V
20 0 V
20 0 V
21 0 V
20 0 V
20 0 V
20 0 V
21 0 V
20 0 V
20 0 V
20 0 V
21 0 V
stroke
LTw
% End plot #9
% Begin plot #10
3.000 UL
LTb
LCb setrgbcolor
[] 0 setdash
0.00 0.62 0.45 C
776 3323 M
21 0 V
20 0 V
20 0 V
20 0 V
21 0 V
20 0 V
20 0 V
20 0 V
21 0 V
20 0 V
20 0 V
20 0 V
21 0 V
20 0 V
20 0 V
20 0 V
21 0 V
20 0 V
20 0 V
20 0 V
21 0 V
20 0 V
20 0 V
20 0 V
21 0 V
20 0 V
20 0 V
20 0 V
21 0 V
20 -1 V
20 0 V
20 0 V
21 0 V
20 0 V
20 0 V
20 0 V
21 0 V
20 0 V
20 0 V
21 0 V
20 0 V
20 0 V
20 -1 V
21 0 V
20 0 V
20 0 V
20 -1 V
21 0 V
20 0 V
20 -1 V
20 0 V
21 -1 V
20 0 V
20 -1 V
20 -1 V
21 -1 V
20 0 V
20 -2 V
20 -1 V
21 -1 V
20 -2 V
20 -1 V
20 -2 V
21 -2 V
20 -3 V
20 -2 V
20 -3 V
21 -3 V
20 -4 V
20 -4 V
20 -4 V
21 -4 V
20 -5 V
20 -6 V
20 -5 V
21 -6 V
20 -6 V
20 -7 V
21 -6 V
20 -7 V
20 -7 V
20 -7 V
21 -6 V
20 -7 V
20 -6 V
20 -6 V
21 -6 V
20 -5 V
20 -4 V
20 -4 V
21 -3 V
20 -3 V
20 -3 V
20 -2 V
21 -1 V
20 -1 V
20 -1 V
20 -1 V
21 0 V
20 -1 V
20 0 V
20 0 V
21 -1 V
20 0 V
20 0 V
20 -1 V
21 -1 V
20 0 V
20 -1 V
20 -1 V
21 -1 V
20 -1 V
20 -1 V
20 -2 V
21 -1 V
20 -1 V
20 -1 V
20 -1 V
21 -2 V
20 -1 V
20 -1 V
21 -2 V
20 -1 V
20 -1 V
20 -2 V
21 -1 V
20 -2 V
20 -1 V
20 -1 V
21 -2 V
20 -1 V
20 -1 V
20 -1 V
21 -2 V
20 -1 V
20 -1 V
20 -1 V
21 -1 V
20 -1 V
20 -1 V
20 -1 V
21 0 V
20 -1 V
20 -1 V
20 0 V
21 -1 V
20 0 V
20 0 V
20 -1 V
21 0 V
20 0 V
20 0 V
20 -1 V
21 0 V
20 0 V
20 0 V
20 0 V
21 0 V
20 0 V
20 0 V
21 0 V
20 0 V
20 1 V
20 0 V
21 0 V
20 0 V
20 0 V
20 0 V
21 0 V
20 0 V
20 0 V
20 1 V
21 0 V
20 0 V
20 0 V
20 0 V
21 0 V
20 0 V
20 0 V
20 0 V
21 0 V
20 0 V
20 0 V
20 0 V
21 0 V
20 0 V
20 0 V
20 0 V
21 0 V
20 0 V
20 1 V
20 0 V
21 0 V
20 0 V
20 0 V
20 0 V
21 0 V
stroke
LTw
% End plot #10
% Begin plot #11
3.000 UL
LTb
LCb setrgbcolor
[] 0 setdash
0.34 0.71 0.91 C
776 3245 M
21 0 V
20 0 V
20 0 V
20 0 V
21 0 V
20 0 V
20 0 V
20 0 V
21 0 V
20 0 V
20 0 V
20 0 V
21 0 V
20 0 V
20 0 V
20 0 V
21 0 V
20 0 V
20 0 V
20 0 V
21 0 V
20 0 V
20 0 V
20 0 V
21 0 V
20 0 V
20 0 V
20 0 V
21 0 V
20 0 V
20 0 V
20 0 V
21 0 V
20 0 V
20 0 V
20 0 V
21 0 V
20 0 V
20 0 V
21 0 V
20 0 V
20 0 V
20 0 V
21 1 V
20 0 V
20 0 V
20 0 V
21 0 V
20 0 V
20 0 V
20 1 V
21 0 V
20 0 V
20 0 V
20 1 V
21 0 V
20 1 V
20 0 V
20 1 V
21 0 V
20 1 V
20 1 V
20 1 V
21 1 V
20 1 V
20 1 V
20 2 V
21 1 V
20 2 V
20 2 V
20 2 V
21 2 V
20 2 V
20 2 V
20 3 V
21 3 V
20 2 V
20 3 V
21 3 V
20 3 V
20 2 V
20 3 V
21 2 V
20 3 V
20 2 V
20 1 V
21 1 V
20 1 V
20 0 V
20 -1 V
21 -1 V
20 -2 V
20 -2 V
20 -3 V
21 -3 V
20 -4 V
20 -4 V
20 -5 V
21 -5 V
20 -5 V
20 -5 V
20 -6 V
21 -5 V
20 -6 V
20 -5 V
20 -6 V
21 -5 V
20 -5 V
20 -5 V
20 -5 V
21 -5 V
20 -4 V
20 -5 V
20 -4 V
21 -4 V
20 -3 V
20 -4 V
20 -4 V
21 -3 V
20 -3 V
20 -4 V
21 -3 V
20 -3 V
20 -3 V
20 -3 V
21 -3 V
20 -2 V
20 -3 V
20 -3 V
21 -3 V
20 -2 V
20 -3 V
20 -2 V
21 -2 V
20 -2 V
20 -2 V
20 -2 V
21 -2 V
20 -1 V
20 -2 V
20 -1 V
21 -2 V
20 -1 V
20 -1 V
20 -1 V
21 -1 V
20 -1 V
20 0 V
20 -1 V
21 -1 V
20 0 V
20 -1 V
20 0 V
21 0 V
20 -1 V
20 0 V
20 0 V
21 -1 V
20 0 V
20 0 V
21 0 V
20 -1 V
20 0 V
20 0 V
21 0 V
20 0 V
20 0 V
20 0 V
21 0 V
20 -1 V
20 0 V
20 0 V
21 0 V
20 0 V
20 0 V
20 0 V
21 0 V
20 0 V
20 0 V
20 0 V
21 0 V
20 0 V
20 0 V
20 0 V
21 0 V
20 0 V
20 -1 V
20 0 V
21 0 V
20 0 V
20 0 V
20 0 V
21 0 V
20 0 V
20 0 V
20 0 V
21 0 V
stroke
LTw
% End plot #11
% Begin plot #12
3.000 UL
LTb
LCb setrgbcolor
[] 0 setdash
0.90 0.62 0.00 C
776 2339 M
21 0 V
20 0 V
20 0 V
20 0 V
21 0 V
20 0 V
20 0 V
20 0 V
21 0 V
20 0 V
20 0 V
20 0 V
21 0 V
20 0 V
20 0 V
20 0 V
21 0 V
20 0 V
20 0 V
20 0 V
21 0 V
20 0 V
20 0 V
20 0 V
21 0 V
20 0 V
20 0 V
20 0 V
21 0 V
20 0 V
20 0 V
20 0 V
21 0 V
20 0 V
20 1 V
20 0 V
21 0 V
20 0 V
20 0 V
21 0 V
20 0 V
20 1 V
20 0 V
21 0 V
20 0 V
20 1 V
20 0 V
21 1 V
20 0 V
20 1 V
20 1 V
21 0 V
20 1 V
20 1 V
20 1 V
21 1 V
20 2 V
20 1 V
20 2 V
21 2 V
20 3 V
20 2 V
20 3 V
21 3 V
20 4 V
20 4 V
20 4 V
21 5 V
20 6 V
20 6 V
20 7 V
21 7 V
20 8 V
20 9 V
20 10 V
21 10 V
20 11 V
20 12 V
21 13 V
20 14 V
20 15 V
20 15 V
21 16 V
20 16 V
20 17 V
20 18 V
21 18 V
20 18 V
20 19 V
20 19 V
21 20 V
20 19 V
20 20 V
20 19 V
21 20 V
20 19 V
20 19 V
20 20 V
21 19 V
20 18 V
20 19 V
20 17 V
21 18 V
20 17 V
20 16 V
20 15 V
21 15 V
20 14 V
20 13 V
20 13 V
21 11 V
20 11 V
20 9 V
20 9 V
21 8 V
20 7 V
20 6 V
20 6 V
21 5 V
20 4 V
20 4 V
21 3 V
20 3 V
20 2 V
20 2 V
21 2 V
20 1 V
20 1 V
20 1 V
21 0 V
20 1 V
20 0 V
20 0 V
21 0 V
20 0 V
20 0 V
20 0 V
21 0 V
20 0 V
20 0 V
20 0 V
21 0 V
20 0 V
20 0 V
20 0 V
21 0 V
20 0 V
20 0 V
20 0 V
21 0 V
20 -1 V
20 0 V
20 0 V
21 0 V
20 0 V
20 0 V
20 0 V
21 0 V
20 0 V
20 0 V
21 0 V
20 0 V
20 0 V
20 0 V
21 0 V
20 0 V
20 0 V
20 0 V
21 0 V
20 -1 V
20 0 V
20 0 V
21 0 V
20 0 V
20 0 V
20 0 V
21 0 V
20 0 V
20 0 V
20 0 V
21 0 V
20 -1 V
20 0 V
20 0 V
21 0 V
20 0 V
20 0 V
20 0 V
21 0 V
20 0 V
20 0 V
20 0 V
21 0 V
20 0 V
20 0 V
20 0 V
21 0 V
stroke
LTw
% End plot #12
% Begin plot #13
3.000 UL
LTb
LCb setrgbcolor
[] 0 setdash
0.94 0.89 0.26 C
776 3058 M
21 0 V
20 0 V
20 0 V
20 0 V
21 0 V
20 0 V
20 0 V
20 0 V
21 0 V
20 0 V
20 0 V
20 0 V
21 0 V
20 0 V
20 0 V
20 0 V
21 0 V
20 0 V
20 0 V
20 0 V
21 0 V
20 0 V
20 0 V
20 0 V
21 0 V
20 0 V
20 0 V
20 0 V
21 0 V
20 0 V
20 0 V
20 0 V
21 0 V
20 0 V
20 1 V
20 0 V
21 0 V
20 0 V
20 0 V
21 0 V
20 0 V
20 1 V
20 0 V
21 0 V
20 0 V
20 1 V
20 0 V
21 1 V
20 0 V
20 1 V
20 0 V
21 1 V
20 1 V
20 1 V
20 1 V
21 1 V
20 2 V
20 1 V
20 2 V
21 2 V
20 2 V
20 2 V
20 3 V
21 3 V
20 4 V
20 3 V
20 5 V
21 4 V
20 5 V
20 6 V
20 6 V
21 7 V
20 7 V
20 8 V
20 9 V
21 9 V
20 9 V
20 10 V
21 11 V
20 11 V
20 11 V
20 11 V
21 12 V
20 11 V
20 11 V
20 10 V
21 11 V
20 9 V
20 8 V
20 8 V
21 7 V
20 5 V
20 4 V
20 3 V
21 2 V
20 0 V
20 -1 V
20 -3 V
21 -4 V
20 -5 V
20 -6 V
20 -6 V
21 -8 V
20 -9 V
20 -8 V
20 -10 V
21 -9 V
20 -10 V
20 -9 V
20 -10 V
21 -9 V
20 -9 V
20 -8 V
20 -8 V
21 -8 V
20 -7 V
20 -7 V
20 -6 V
21 -6 V
20 -5 V
20 -5 V
21 -4 V
20 -4 V
20 -4 V
20 -3 V
21 -3 V
20 -3 V
20 -3 V
20 -2 V
21 -2 V
20 -1 V
20 -2 V
20 -1 V
21 -1 V
20 -1 V
20 -1 V
20 0 V
21 -1 V
20 0 V
20 -1 V
20 0 V
21 0 V
20 0 V
20 0 V
20 -1 V
21 0 V
20 0 V
20 0 V
20 0 V
21 0 V
20 0 V
20 0 V
20 0 V
21 0 V
20 0 V
20 1 V
20 0 V
21 0 V
20 0 V
20 0 V
21 0 V
20 0 V
20 0 V
20 0 V
21 0 V
20 1 V
20 0 V
20 0 V
21 0 V
20 0 V
20 0 V
20 0 V
21 0 V
20 0 V
20 0 V
20 1 V
21 0 V
20 0 V
20 0 V
20 0 V
21 0 V
20 0 V
20 0 V
20 0 V
21 0 V
20 0 V
20 0 V
20 0 V
21 0 V
20 0 V
20 0 V
20 0 V
21 0 V
20 0 V
20 0 V
20 0 V
21 0 V
stroke
LTw
% End plot #13
% Begin plot #14
3.000 UL
LTb
LCb setrgbcolor
[] 0 setdash
0.00 0.45 0.70 C
776 2429 M
21 0 V
20 0 V
20 0 V
20 0 V
21 0 V
20 0 V
20 0 V
20 0 V
21 0 V
20 0 V
20 0 V
20 0 V
21 0 V
20 0 V
20 0 V
20 0 V
21 0 V
20 0 V
20 0 V
20 0 V
21 0 V
20 0 V
20 0 V
20 0 V
21 0 V
20 0 V
20 0 V
20 0 V
21 0 V
20 0 V
20 0 V
20 0 V
21 0 V
20 0 V
20 0 V
20 0 V
21 0 V
20 1 V
20 0 V
21 0 V
20 0 V
20 0 V
20 0 V
21 1 V
20 0 V
20 0 V
20 1 V
21 0 V
20 1 V
20 0 V
20 1 V
21 1 V
20 0 V
20 1 V
20 1 V
21 1 V
20 2 V
20 1 V
20 2 V
21 2 V
20 2 V
20 2 V
20 3 V
21 3 V
20 3 V
20 4 V
20 4 V
21 4 V
20 6 V
20 5 V
20 6 V
21 7 V
20 8 V
20 8 V
20 8 V
21 10 V
20 10 V
20 11 V
21 12 V
20 12 V
20 13 V
20 13 V
21 15 V
20 14 V
20 15 V
20 16 V
21 16 V
20 16 V
20 16 V
20 16 V
21 17 V
20 16 V
20 17 V
20 16 V
21 16 V
20 17 V
20 16 V
20 15 V
21 16 V
20 15 V
20 15 V
20 14 V
21 14 V
20 14 V
20 13 V
20 12 V
21 12 V
20 12 V
20 10 V
20 10 V
21 10 V
20 8 V
20 8 V
20 8 V
21 7 V
20 6 V
20 5 V
20 5 V
21 5 V
20 4 V
20 4 V
21 3 V
20 3 V
20 2 V
20 3 V
21 2 V
20 1 V
20 2 V
20 1 V
21 1 V
20 2 V
20 0 V
20 1 V
21 1 V
20 1 V
20 0 V
20 1 V
21 1 V
20 0 V
20 0 V
20 1 V
21 0 V
20 1 V
20 0 V
20 0 V
21 0 V
20 1 V
20 0 V
20 0 V
21 0 V
20 0 V
20 1 V
20 0 V
21 0 V
20 0 V
20 0 V
20 0 V
21 0 V
20 0 V
20 1 V
21 0 V
20 0 V
20 0 V
20 0 V
21 0 V
20 0 V
20 0 V
20 0 V
21 0 V
20 0 V
20 0 V
20 0 V
21 0 V
20 0 V
20 0 V
20 0 V
21 1 V
20 0 V
20 0 V
20 0 V
21 0 V
20 0 V
20 0 V
20 0 V
21 0 V
20 0 V
20 0 V
20 0 V
21 0 V
20 0 V
20 0 V
20 0 V
21 0 V
20 0 V
20 0 V
20 -1 V
21 0 V
stroke
LTw
% End plot #14
% Begin plot #15
3.000 UL
LTb
LCb setrgbcolor
[] 0 setdash
0.90 0.12 0.06 C
776 3180 M
21 0 V
20 0 V
20 0 V
20 0 V
21 0 V
20 0 V
20 0 V
20 0 V
21 0 V
20 0 V
20 0 V
20 0 V
21 0 V
20 0 V
20 0 V
20 0 V
21 0 V
20 0 V
20 0 V
20 0 V
21 0 V
20 0 V
20 0 V
20 0 V
21 0 V
20 0 V
20 0 V
20 0 V
21 0 V
20 0 V
20 0 V
20 0 V
21 0 V
20 0 V
20 0 V
20 0 V
21 0 V
20 0 V
20 0 V
21 0 V
20 1 V
20 0 V
20 0 V
21 0 V
20 0 V
20 0 V
20 0 V
21 1 V
20 0 V
20 0 V
20 0 V
21 1 V
20 0 V
20 1 V
20 0 V
21 1 V
20 0 V
20 1 V
20 1 V
21 1 V
20 1 V
20 1 V
20 1 V
21 1 V
20 2 V
20 1 V
20 2 V
21 2 V
20 2 V
20 3 V
20 2 V
21 3 V
20 3 V
20 3 V
20 4 V
21 3 V
20 3 V
20 4 V
21 3 V
20 4 V
20 3 V
20 3 V
21 3 V
20 2 V
20 2 V
20 2 V
21 1 V
20 0 V
20 0 V
20 -1 V
21 -2 V
20 -2 V
20 -3 V
20 -3 V
21 -4 V
20 -4 V
20 -4 V
20 -5 V
21 -4 V
20 -5 V
20 -5 V
20 -4 V
21 -5 V
20 -4 V
20 -4 V
20 -4 V
21 -4 V
20 -4 V
20 -3 V
20 -3 V
21 -3 V
20 -3 V
20 -3 V
20 -2 V
21 -2 V
20 -3 V
20 -2 V
20 -2 V
21 -2 V
20 -2 V
20 -1 V
21 -2 V
20 -2 V
20 -2 V
20 -1 V
21 -2 V
20 -2 V
20 -1 V
20 -2 V
21 -1 V
20 -2 V
20 -1 V
20 -2 V
21 -1 V
20 -1 V
20 -2 V
20 -1 V
21 -1 V
20 -1 V
20 -1 V
20 -1 V
21 0 V
20 -1 V
20 -1 V
20 -1 V
21 0 V
20 -1 V
20 0 V
20 -1 V
21 0 V
20 0 V
20 -1 V
20 0 V
21 0 V
20 -1 V
20 0 V
20 0 V
21 0 V
20 -1 V
20 0 V
21 0 V
20 0 V
20 0 V
20 0 V
21 -1 V
20 0 V
20 0 V
20 0 V
21 0 V
20 0 V
20 0 V
20 0 V
21 -1 V
20 0 V
20 0 V
20 0 V
21 0 V
20 0 V
20 0 V
20 0 V
21 0 V
20 0 V
20 0 V
20 0 V
21 0 V
20 -1 V
20 0 V
20 0 V
21 0 V
20 0 V
20 0 V
20 0 V
21 0 V
20 0 V
20 0 V
20 0 V
21 0 V
stroke
LTw
% End plot #15
% Begin plot #16
3.000 UL
LTb
LCb setrgbcolor
[] 0 setdash
0.00 0.00 0.00 C
776 2950 M
21 0 V
20 0 V
20 0 V
20 0 V
21 0 V
20 0 V
20 0 V
20 0 V
21 0 V
20 0 V
20 0 V
20 0 V
21 0 V
20 0 V
20 0 V
20 0 V
21 0 V
20 0 V
20 0 V
20 0 V
21 0 V
20 0 V
20 0 V
20 0 V
21 0 V
20 0 V
20 0 V
20 0 V
21 0 V
20 0 V
20 0 V
20 0 V
21 0 V
20 0 V
20 0 V
20 0 V
21 0 V
20 0 V
20 0 V
21 0 V
20 0 V
20 0 V
20 0 V
21 -1 V
20 0 V
20 0 V
20 0 V
21 0 V
20 0 V
20 0 V
20 0 V
21 0 V
20 0 V
20 0 V
20 0 V
21 0 V
20 0 V
20 0 V
20 0 V
21 0 V
20 0 V
20 0 V
20 -1 V
21 0 V
20 0 V
20 0 V
20 0 V
21 0 V
20 -1 V
20 0 V
20 0 V
21 0 V
20 0 V
20 -1 V
20 0 V
21 0 V
20 0 V
20 0 V
21 0 V
20 0 V
20 0 V
20 0 V
21 1 V
20 1 V
20 0 V
20 1 V
21 2 V
20 1 V
20 2 V
20 2 V
21 2 V
20 3 V
20 3 V
20 3 V
21 3 V
20 4 V
20 4 V
20 4 V
21 4 V
20 4 V
20 4 V
20 4 V
21 5 V
20 4 V
20 4 V
20 4 V
21 4 V
20 4 V
20 4 V
20 3 V
21 4 V
20 3 V
20 3 V
20 3 V
21 3 V
20 3 V
20 3 V
20 2 V
21 3 V
20 3 V
20 2 V
21 3 V
20 2 V
20 2 V
20 3 V
21 2 V
20 3 V
20 2 V
20 2 V
21 2 V
20 3 V
20 2 V
20 2 V
21 2 V
20 2 V
20 2 V
20 1 V
21 2 V
20 1 V
20 2 V
20 1 V
21 1 V
20 1 V
20 1 V
20 1 V
21 1 V
20 1 V
20 0 V
20 1 V
21 0 V
20 1 V
20 0 V
20 0 V
21 1 V
20 0 V
20 0 V
20 0 V
21 0 V
20 0 V
20 0 V
21 0 V
20 0 V
20 0 V
20 0 V
21 0 V
20 0 V
20 0 V
20 0 V
21 0 V
20 0 V
20 0 V
20 0 V
21 0 V
20 0 V
20 0 V
20 0 V
21 -1 V
20 0 V
20 0 V
20 0 V
21 0 V
20 0 V
20 0 V
20 0 V
21 0 V
20 0 V
20 0 V
20 0 V
21 0 V
20 0 V
20 0 V
20 0 V
21 0 V
20 0 V
20 -1 V
20 0 V
21 0 V
stroke
LTw
% End plot #16
% Begin plot #17
3.000 UL
LTb
LCb setrgbcolor
[] 0 setdash
0.58 0.00 0.83 C
776 3426 M
21 0 V
20 0 V
20 0 V
20 0 V
21 0 V
20 0 V
20 0 V
20 0 V
21 0 V
20 0 V
20 0 V
20 0 V
21 0 V
20 0 V
20 0 V
20 0 V
21 0 V
20 0 V
20 0 V
20 0 V
21 0 V
20 0 V
20 0 V
20 0 V
21 0 V
20 0 V
20 0 V
20 0 V
21 0 V
20 0 V
20 0 V
20 0 V
21 0 V
20 0 V
20 0 V
20 0 V
21 0 V
20 0 V
20 0 V
21 0 V
20 0 V
20 0 V
20 0 V
21 0 V
20 0 V
20 0 V
20 -1 V
21 0 V
20 0 V
20 0 V
20 0 V
21 -1 V
20 0 V
20 0 V
20 0 V
21 -1 V
20 0 V
20 -1 V
20 0 V
21 -1 V
20 -1 V
20 -1 V
20 0 V
21 -1 V
20 -2 V
20 -1 V
20 -1 V
21 -2 V
20 -2 V
20 -2 V
20 -2 V
21 -2 V
20 -3 V
20 -3 V
20 -3 V
21 -3 V
20 -4 V
20 -4 V
21 -5 V
20 -4 V
20 -5 V
20 -6 V
21 -5 V
20 -6 V
20 -7 V
20 -6 V
21 -7 V
20 -8 V
20 -7 V
20 -8 V
21 -8 V
20 -8 V
20 -9 V
20 -9 V
21 -9 V
20 -9 V
20 -9 V
20 -10 V
21 -9 V
20 -10 V
20 -9 V
20 -9 V
21 -10 V
20 -8 V
20 -9 V
20 -8 V
21 -8 V
20 -8 V
20 -7 V
20 -6 V
21 -6 V
20 -5 V
20 -5 V
20 -4 V
21 -4 V
20 -3 V
20 -3 V
20 -2 V
21 -2 V
20 -2 V
20 -1 V
21 -1 V
20 0 V
20 0 V
20 0 V
21 0 V
20 0 V
20 0 V
20 1 V
21 0 V
20 1 V
20 0 V
20 1 V
21 1 V
20 0 V
20 1 V
20 1 V
21 0 V
20 1 V
20 0 V
20 1 V
21 0 V
20 1 V
20 0 V
20 0 V
21 1 V
20 0 V
20 0 V
20 1 V
21 0 V
20 0 V
20 0 V
20 0 V
21 0 V
20 1 V
20 0 V
20 0 V
21 0 V
20 0 V
20 0 V
21 0 V
20 0 V
20 0 V
20 0 V
21 0 V
20 0 V
20 0 V
20 0 V
21 0 V
20 0 V
20 0 V
20 0 V
21 0 V
20 0 V
20 0 V
20 0 V
21 0 V
20 0 V
20 0 V
20 0 V
21 0 V
20 0 V
20 0 V
20 0 V
21 -1 V
20 0 V
20 0 V
20 0 V
21 0 V
20 0 V
20 0 V
20 0 V
21 0 V
20 0 V
20 0 V
20 0 V
21 0 V
stroke
LTw
% End plot #17
% Begin plot #18
3.000 UL
LTb
LCb setrgbcolor
[] 0 setdash
0.00 0.62 0.45 C
776 3175 M
21 0 V
20 0 V
20 0 V
20 0 V
21 0 V
20 0 V
20 0 V
20 0 V
21 0 V
20 0 V
20 0 V
20 0 V
21 0 V
20 0 V
20 0 V
20 0 V
21 0 V
20 0 V
20 0 V
20 0 V
21 0 V
20 0 V
20 0 V
20 0 V
21 0 V
20 0 V
20 0 V
20 0 V
21 0 V
20 0 V
20 0 V
20 0 V
21 0 V
20 0 V
20 0 V
20 0 V
21 0 V
20 0 V
20 0 V
21 0 V
20 0 V
20 0 V
20 0 V
21 -1 V
20 0 V
20 0 V
20 0 V
21 0 V
20 0 V
20 0 V
20 -1 V
21 0 V
20 0 V
20 0 V
20 -1 V
21 0 V
20 0 V
20 -1 V
20 0 V
21 -1 V
20 -1 V
20 0 V
20 -1 V
21 -1 V
20 -1 V
20 -1 V
20 -1 V
21 -2 V
20 -1 V
20 -2 V
20 -2 V
21 -2 V
20 -2 V
20 -2 V
20 -3 V
21 -3 V
20 -2 V
20 -3 V
21 -4 V
20 -3 V
20 -3 V
20 -3 V
21 -4 V
20 -3 V
20 -3 V
20 -3 V
21 -3 V
20 -3 V
20 -3 V
20 -2 V
21 -2 V
20 -1 V
20 -1 V
20 -1 V
21 -1 V
20 0 V
20 0 V
20 1 V
21 1 V
20 1 V
20 1 V
20 2 V
21 1 V
20 2 V
20 2 V
20 2 V
21 1 V
20 2 V
20 2 V
20 1 V
21 1 V
20 1 V
20 1 V
20 0 V
21 1 V
20 0 V
20 0 V
20 0 V
21 0 V
20 0 V
20 -1 V
21 0 V
20 0 V
20 -1 V
20 0 V
21 -1 V
20 0 V
20 -1 V
20 0 V
21 -1 V
20 0 V
20 -1 V
20 0 V
21 -1 V
20 0 V
20 -1 V
20 0 V
21 -1 V
20 0 V
20 0 V
20 -1 V
21 0 V
20 0 V
20 -1 V
20 0 V
21 0 V
20 0 V
20 -1 V
20 0 V
21 0 V
20 0 V
20 0 V
20 0 V
21 0 V
20 0 V
20 0 V
20 0 V
21 0 V
20 0 V
20 0 V
21 0 V
20 0 V
20 1 V
20 0 V
21 0 V
20 0 V
20 0 V
20 0 V
21 1 V
20 0 V
20 0 V
20 0 V
21 0 V
20 0 V
20 0 V
20 1 V
21 0 V
20 0 V
20 0 V
20 0 V
21 0 V
20 0 V
20 0 V
20 0 V
21 0 V
20 0 V
20 0 V
20 0 V
21 0 V
20 0 V
20 0 V
20 0 V
21 0 V
20 0 V
20 0 V
20 0 V
21 0 V
stroke
LTw
% End plot #18
% Begin plot #19
3.000 UL
LTb
LCb setrgbcolor
[] 0 setdash
0.34 0.71 0.91 C
776 3064 M
21 0 V
20 0 V
20 0 V
20 0 V
21 0 V
20 0 V
20 0 V
20 0 V
21 0 V
20 0 V
20 0 V
20 0 V
21 0 V
20 0 V
20 0 V
20 0 V
21 0 V
20 0 V
20 0 V
20 0 V
21 -1 V
20 0 V
20 0 V
20 0 V
21 0 V
20 0 V
20 0 V
20 0 V
21 0 V
20 0 V
20 0 V
20 0 V
21 0 V
20 0 V
20 0 V
20 0 V
21 0 V
20 0 V
20 0 V
21 0 V
20 0 V
20 0 V
20 0 V
21 0 V
20 0 V
20 0 V
20 0 V
21 -1 V
20 0 V
20 0 V
20 0 V
21 0 V
20 -1 V
20 0 V
20 0 V
21 -1 V
20 0 V
20 -1 V
20 0 V
21 -1 V
20 0 V
20 -1 V
20 -1 V
21 -1 V
20 -1 V
20 -1 V
20 -1 V
21 -2 V
20 -1 V
20 -2 V
20 -2 V
21 -2 V
20 -2 V
20 -3 V
20 -2 V
21 -3 V
20 -3 V
20 -3 V
21 -4 V
20 -3 V
20 -3 V
20 -4 V
21 -3 V
20 -4 V
20 -3 V
20 -3 V
21 -3 V
20 -3 V
20 -2 V
20 -3 V
21 -1 V
20 -2 V
20 -1 V
20 0 V
21 0 V
20 0 V
20 1 V
20 1 V
21 2 V
20 3 V
20 2 V
20 4 V
21 3 V
20 4 V
20 4 V
20 5 V
21 4 V
20 5 V
20 5 V
20 5 V
21 5 V
20 5 V
20 4 V
20 5 V
21 5 V
20 4 V
20 4 V
20 5 V
21 3 V
20 4 V
20 4 V
21 3 V
20 3 V
20 2 V
20 3 V
21 2 V
20 2 V
20 2 V
20 1 V
21 2 V
20 1 V
20 1 V
20 1 V
21 0 V
20 1 V
20 0 V
20 1 V
21 0 V
20 0 V
20 0 V
20 0 V
21 0 V
20 1 V
20 0 V
20 0 V
21 0 V
20 0 V
20 -1 V
20 0 V
21 0 V
20 1 V
20 0 V
20 0 V
21 0 V
20 0 V
20 0 V
20 0 V
21 0 V
20 0 V
20 0 V
21 0 V
20 1 V
20 0 V
20 0 V
21 0 V
20 0 V
20 1 V
20 0 V
21 0 V
20 0 V
20 0 V
20 1 V
21 0 V
20 0 V
20 0 V
20 0 V
21 0 V
20 0 V
20 1 V
20 0 V
21 0 V
20 0 V
20 0 V
20 0 V
21 0 V
20 0 V
20 0 V
20 0 V
21 0 V
20 0 V
20 0 V
20 0 V
21 0 V
20 0 V
20 0 V
20 0 V
21 0 V
stroke
LTw
% End plot #19
% Begin plot #20
3.000 UL
LTb
LCb setrgbcolor
[] 0 setdash
0.90 0.62 0.00 C
776 3452 M
21 0 V
20 0 V
20 0 V
20 0 V
21 0 V
20 0 V
20 0 V
20 0 V
21 0 V
20 0 V
20 0 V
20 0 V
21 0 V
20 0 V
20 0 V
20 0 V
21 0 V
20 0 V
20 0 V
20 0 V
21 0 V
20 0 V
20 -1 V
20 0 V
21 0 V
20 0 V
20 0 V
20 0 V
21 0 V
20 0 V
20 0 V
20 0 V
21 0 V
20 0 V
20 0 V
20 0 V
21 0 V
20 0 V
20 0 V
21 0 V
20 0 V
20 0 V
20 0 V
21 0 V
20 0 V
20 0 V
20 0 V
21 -1 V
20 0 V
20 0 V
20 0 V
21 0 V
20 0 V
20 -1 V
20 0 V
21 0 V
20 -1 V
20 0 V
20 -1 V
21 0 V
20 -1 V
20 -1 V
20 0 V
21 -1 V
20 -1 V
20 -1 V
20 -2 V
21 -1 V
20 -2 V
20 -1 V
20 -2 V
21 -2 V
20 -3 V
20 -2 V
20 -3 V
21 -3 V
20 -3 V
20 -4 V
21 -3 V
20 -4 V
20 -5 V
20 -4 V
21 -5 V
20 -5 V
20 -5 V
20 -6 V
21 -6 V
20 -6 V
20 -6 V
20 -7 V
21 -7 V
20 -6 V
20 -8 V
20 -7 V
21 -8 V
20 -7 V
20 -8 V
20 -8 V
21 -9 V
20 -8 V
20 -8 V
20 -9 V
21 -8 V
20 -8 V
20 -9 V
20 -8 V
21 -8 V
20 -7 V
20 -8 V
20 -7 V
21 -7 V
20 -6 V
20 -6 V
20 -6 V
21 -6 V
20 -5 V
20 -5 V
20 -4 V
21 -4 V
20 -4 V
20 -3 V
21 -3 V
20 -3 V
20 -2 V
20 -3 V
21 -2 V
20 -2 V
20 -1 V
20 -2 V
21 -1 V
20 -1 V
20 -1 V
20 -1 V
21 -1 V
20 -1 V
20 -1 V
20 0 V
21 -1 V
20 0 V
20 -1 V
20 0 V
21 0 V
20 -1 V
20 0 V
20 0 V
21 0 V
20 0 V
20 0 V
20 -1 V
21 0 V
20 0 V
20 0 V
20 0 V
21 0 V
20 0 V
20 0 V
20 0 V
21 0 V
20 0 V
20 0 V
21 0 V
20 0 V
20 0 V
20 0 V
21 0 V
20 0 V
20 0 V
20 0 V
21 0 V
20 0 V
20 0 V
20 0 V
21 0 V
20 0 V
20 0 V
20 0 V
21 0 V
20 0 V
20 0 V
20 0 V
21 0 V
20 0 V
20 0 V
20 0 V
21 0 V
20 0 V
20 0 V
20 0 V
21 0 V
20 0 V
20 0 V
20 0 V
21 0 V
20 0 V
20 0 V
20 0 V
21 0 V
stroke
LTw
% End plot #20
% Begin plot #21
3.000 UL
LTb
LCb setrgbcolor
[] 0 setdash
0.94 0.89 0.26 C
776 3004 M
21 0 V
20 0 V
20 0 V
20 0 V
21 0 V
20 0 V
20 0 V
20 0 V
21 0 V
20 0 V
20 0 V
20 0 V
21 0 V
20 0 V
20 0 V
20 0 V
21 0 V
20 0 V
20 0 V
20 0 V
21 0 V
20 0 V
20 0 V
20 0 V
21 0 V
20 0 V
20 0 V
20 0 V
21 0 V
20 0 V
20 0 V
20 0 V
21 0 V
20 0 V
20 0 V
20 0 V
21 0 V
20 0 V
20 0 V
21 0 V
20 0 V
20 0 V
20 0 V
21 0 V
20 0 V
20 0 V
20 -1 V
21 0 V
20 0 V
20 0 V
20 0 V
21 0 V
20 0 V
20 0 V
20 0 V
21 0 V
20 0 V
20 -1 V
20 0 V
21 0 V
20 0 V
20 -1 V
20 0 V
21 0 V
20 -1 V
20 0 V
20 0 V
21 -1 V
20 0 V
20 -1 V
20 0 V
21 -1 V
20 -1 V
20 0 V
20 -1 V
21 -1 V
20 0 V
20 -1 V
21 0 V
20 -1 V
20 0 V
20 0 V
21 0 V
20 0 V
20 0 V
20 1 V
21 1 V
20 1 V
20 2 V
20 1 V
21 2 V
20 3 V
20 2 V
20 3 V
21 3 V
20 3 V
20 3 V
20 4 V
21 3 V
20 4 V
20 3 V
20 4 V
21 3 V
20 4 V
20 3 V
20 3 V
21 3 V
20 3 V
20 3 V
20 3 V
21 2 V
20 3 V
20 2 V
20 3 V
21 2 V
20 2 V
20 2 V
20 2 V
21 2 V
20 2 V
20 2 V
21 2 V
20 2 V
20 1 V
20 2 V
21 2 V
20 2 V
20 1 V
20 2 V
21 1 V
20 2 V
20 1 V
20 2 V
21 1 V
20 1 V
20 2 V
20 1 V
21 1 V
20 1 V
20 1 V
20 1 V
21 1 V
20 0 V
20 1 V
20 0 V
21 1 V
20 0 V
20 1 V
20 0 V
21 0 V
20 0 V
20 1 V
20 0 V
21 0 V
20 0 V
20 0 V
20 -1 V
21 0 V
20 0 V
20 0 V
21 0 V
20 0 V
20 -1 V
20 0 V
21 0 V
20 -1 V
20 0 V
20 0 V
21 0 V
20 -1 V
20 0 V
20 0 V
21 0 V
20 -1 V
20 0 V
20 0 V
21 0 V
20 -1 V
20 0 V
20 0 V
21 0 V
20 0 V
20 0 V
20 -1 V
21 0 V
20 0 V
20 0 V
20 0 V
21 0 V
20 0 V
20 0 V
20 0 V
21 0 V
20 0 V
20 -1 V
20 0 V
21 0 V
stroke
LTw
% End plot #21
2.000 UL
LTb
LCb setrgbcolor
[] 0 setdash
1.000 UL
LTb
756 4008 N
0 -1795 V
4031 0 V
0 1795 V
-4031 0 V
Z stroke
1.000 UP
1.000 UL
LTb
1.000 UL
LTb
756 597 M
63 0 V
3968 0 R
-63 0 V
stroke
756 956 M
63 0 V
3968 0 R
-63 0 V
stroke
756 1315 M
63 0 V
3968 0 R
-63 0 V
stroke
756 1674 M
63 0 V
3968 0 R
-63 0 V
stroke
756 2033 M
63 0 V
3968 0 R
-63 0 V
stroke
756 417 M
0 63 V
0 1732 R
0 -63 V
stroke
1151 417 M
0 31 V
0 1764 R
0 -31 V
1255 417 M
0 31 V
0 1764 R
0 -31 V
1317 417 M
0 31 V
0 1764 R
0 -31 V
1362 417 M
0 31 V
0 1764 R
0 -31 V
1397 417 M
0 31 V
0 1764 R
0 -31 V
1425 417 M
0 31 V
0 1764 R
0 -31 V
1449 417 M
0 31 V
0 1764 R
0 -31 V
1470 417 M
0 31 V
0 1764 R
0 -31 V
1489 417 M
0 63 V
0 1732 R
0 -63 V
stroke
1884 417 M
0 31 V
0 1764 R
0 -31 V
1988 417 M
0 31 V
0 1764 R
0 -31 V
2050 417 M
0 31 V
0 1764 R
0 -31 V
2095 417 M
0 31 V
0 1764 R
0 -31 V
2130 417 M
0 31 V
0 1764 R
0 -31 V
2158 417 M
0 31 V
0 1764 R
0 -31 V
2182 417 M
0 31 V
0 1764 R
0 -31 V
2203 417 M
0 31 V
0 1764 R
0 -31 V
2222 417 M
0 63 V
0 1732 R
0 -63 V
stroke
2617 417 M
0 31 V
0 1764 R
0 -31 V
2721 417 M
0 31 V
0 1764 R
0 -31 V
2783 417 M
0 31 V
0 1764 R
0 -31 V
2828 417 M
0 31 V
0 1764 R
0 -31 V
2862 417 M
0 31 V
0 1764 R
0 -31 V
2891 417 M
0 31 V
0 1764 R
0 -31 V
2915 417 M
0 31 V
0 1764 R
0 -31 V
2936 417 M
0 31 V
0 1764 R
0 -31 V
2955 417 M
0 63 V
0 1732 R
0 -63 V
stroke
3350 417 M
0 31 V
0 1764 R
0 -31 V
3454 417 M
0 31 V
0 1764 R
0 -31 V
3516 417 M
0 31 V
0 1764 R
0 -31 V
3561 417 M
0 31 V
0 1764 R
0 -31 V
3595 417 M
0 31 V
0 1764 R
0 -31 V
3624 417 M
0 31 V
0 1764 R
0 -31 V
3648 417 M
0 31 V
0 1764 R
0 -31 V
3669 417 M
0 31 V
0 1764 R
0 -31 V
3688 417 M
0 63 V
0 1732 R
0 -63 V
stroke
4083 417 M
0 31 V
0 1764 R
0 -31 V
4187 417 M
0 31 V
0 1764 R
0 -31 V
4249 417 M
0 31 V
0 1764 R
0 -31 V
4293 417 M
0 31 V
0 1764 R
0 -31 V
4328 417 M
0 31 V
0 1764 R
0 -31 V
4357 417 M
0 31 V
0 1764 R
0 -31 V
4381 417 M
0 31 V
0 1764 R
0 -31 V
4402 417 M
0 31 V
0 1764 R
0 -31 V
4421 417 M
0 63 V
0 1732 R
0 -63 V
stroke
1.000 UL
LTb
756 2212 N
756 417 L
4031 0 V
0 1795 V
-4031 0 V
Z stroke
1.000 UP
1.000 UL
LTb
% Begin plot #1
3.000 UL
LTb
0.58 0.00 0.83 C
756 1315 M
20 0 V
21 0 V
20 0 V
20 0 V
20 0 V
21 0 V
20 0 V
20 0 V
20 0 V
21 0 V
20 0 V
20 0 V
20 0 V
21 0 V
20 0 V
20 0 V
20 0 V
21 0 V
20 0 V
20 0 V
20 0 V
21 0 V
20 0 V
20 0 V
20 0 V
21 0 V
20 0 V
20 0 V
20 0 V
21 0 V
20 0 V
20 0 V
20 0 V
21 0 V
20 0 V
20 0 V
20 0 V
21 0 V
20 0 V
20 0 V
21 0 V
20 0 V
20 0 V
20 0 V
21 0 V
20 0 V
20 0 V
20 0 V
21 0 V
20 0 V
20 0 V
20 0 V
21 0 V
20 0 V
20 0 V
20 0 V
21 0 V
20 0 V
20 0 V
20 0 V
21 0 V
20 0 V
20 0 V
20 0 V
21 0 V
20 0 V
20 0 V
20 0 V
21 0 V
20 0 V
20 0 V
20 0 V
21 0 V
20 0 V
20 0 V
20 0 V
21 0 V
20 0 V
20 0 V
21 0 V
20 0 V
20 0 V
20 0 V
21 0 V
20 0 V
20 0 V
20 0 V
21 0 V
20 0 V
20 0 V
20 0 V
21 0 V
20 0 V
20 0 V
20 0 V
21 0 V
20 0 V
20 0 V
20 0 V
21 0 V
20 0 V
20 0 V
20 0 V
21 0 V
20 0 V
20 0 V
20 0 V
21 0 V
40 0 V
20 0 V
21 0 V
20 0 V
20 0 V
20 0 V
21 0 V
20 0 V
20 0 V
20 0 V
21 0 V
20 0 V
20 0 V
21 0 V
20 0 V
20 0 V
20 0 V
21 0 V
20 0 V
20 0 V
20 0 V
21 0 V
20 0 V
20 0 V
20 0 V
21 0 V
20 0 V
20 0 V
20 0 V
21 0 V
20 0 V
20 0 V
20 0 V
21 0 V
20 0 V
20 0 V
20 0 V
21 0 V
20 0 V
20 0 V
20 0 V
21 0 V
20 0 V
20 0 V
20 0 V
21 0 V
20 0 V
20 0 V
20 0 V
41 0 V
20 0 V
21 0 V
20 0 V
20 0 V
20 0 V
21 0 V
20 0 V
20 0 V
20 0 V
21 0 V
20 0 V
20 0 V
20 0 V
21 0 V
20 0 V
20 0 V
20 0 V
21 0 V
20 0 V
20 0 V
20 0 V
21 0 V
20 0 V
20 0 V
20 0 V
21 0 V
20 0 V
20 0 V
20 0 V
21 0 V
20 0 V
20 0 V
20 0 V
21 0 V
20 0 V
20 0 V
20 0 V
21 0 V
20 0 V
stroke
LTw
% End plot #1
% Begin plot #2
3.000 UL
LTb
LCb setrgbcolor
[] 0 setdash
0.00 0.62 0.45 C
756 1166 M
20 0 V
21 0 V
20 0 V
20 0 V
20 0 V
21 0 V
20 0 V
20 0 V
20 0 V
21 0 V
20 0 V
20 0 V
20 0 V
21 0 V
20 0 V
20 0 V
20 0 V
21 0 V
20 0 V
20 0 V
20 0 V
21 0 V
20 0 V
20 0 V
20 0 V
21 0 V
20 0 V
20 0 V
20 0 V
21 0 V
20 0 V
20 0 V
20 0 V
21 0 V
20 0 V
20 0 V
20 0 V
21 0 V
20 0 V
20 0 V
21 0 V
20 0 V
20 0 V
20 0 V
21 0 V
20 0 V
20 0 V
20 0 V
21 0 V
20 0 V
20 0 V
20 0 V
21 0 V
20 0 V
20 0 V
20 0 V
21 0 V
20 0 V
20 0 V
20 0 V
21 0 V
20 0 V
20 0 V
20 0 V
21 0 V
20 0 V
20 0 V
20 0 V
21 0 V
20 0 V
20 0 V
20 1 V
21 0 V
20 0 V
20 0 V
20 0 V
21 0 V
20 1 V
20 0 V
21 0 V
20 1 V
20 0 V
20 0 V
21 1 V
20 0 V
20 1 V
20 1 V
21 1 V
20 0 V
20 1 V
20 1 V
21 1 V
20 2 V
20 2 V
20 3 V
21 2 V
20 2 V
20 1 V
20 3 V
21 2 V
20 3 V
20 3 V
20 3 V
21 3 V
20 3 V
20 3 V
20 4 V
21 4 V
40 2 V
20 0 V
21 0 V
20 -1 V
20 -2 V
20 -4 V
21 -5 V
20 -6 V
20 -4 V
20 -3 V
21 -4 V
20 -2 V
20 -3 V
21 0 V
20 -2 V
20 -4 V
20 -1 V
21 6 V
20 6 V
20 9 V
20 8 V
21 4 V
20 -2 V
20 1 V
20 4 V
21 6 V
20 7 V
20 7 V
20 7 V
21 3 V
20 1 V
20 2 V
20 2 V
21 2 V
20 3 V
20 3 V
20 3 V
21 4 V
20 4 V
20 5 V
20 5 V
21 7 V
20 6 V
20 8 V
20 8 V
21 6 V
20 0 V
20 0 V
20 0 V
41 0 V
20 0 V
21 0 V
20 0 V
20 0 V
20 0 V
21 0 V
20 0 V
20 0 V
20 0 V
21 0 V
20 0 V
20 0 V
20 0 V
21 0 V
20 0 V
20 0 V
20 0 V
21 0 V
20 0 V
20 0 V
20 0 V
21 0 V
20 0 V
20 0 V
20 0 V
21 0 V
20 0 V
20 0 V
20 0 V
21 0 V
20 0 V
20 0 V
20 0 V
21 0 V
20 0 V
20 0 V
20 0 V
21 0 V
20 0 V
stroke
LTw
% End plot #2
% Begin plot #3
3.000 UL
LTb
LCb setrgbcolor
[] 0 setdash
0.34 0.71 0.91 C
756 1339 M
20 0 V
21 0 V
20 0 V
20 0 V
20 0 V
21 0 V
20 0 V
20 0 V
20 0 V
21 0 V
20 0 V
20 0 V
20 0 V
21 0 V
20 0 V
20 0 V
20 0 V
21 0 V
20 0 V
20 0 V
20 0 V
21 0 V
20 0 V
20 0 V
20 0 V
21 0 V
20 0 V
20 0 V
20 0 V
21 0 V
20 0 V
20 0 V
20 0 V
21 0 V
20 0 V
20 0 V
20 0 V
21 0 V
20 0 V
20 0 V
21 0 V
20 0 V
20 0 V
20 0 V
21 0 V
20 0 V
20 0 V
20 0 V
21 0 V
20 0 V
20 0 V
20 0 V
21 0 V
20 0 V
20 0 V
20 0 V
21 0 V
20 0 V
20 0 V
20 0 V
21 0 V
20 0 V
20 0 V
20 0 V
21 0 V
20 0 V
20 0 V
20 0 V
21 0 V
20 0 V
20 0 V
20 0 V
21 0 V
20 0 V
20 0 V
20 0 V
21 0 V
20 0 V
20 0 V
21 0 V
20 0 V
20 -1 V
20 0 V
21 0 V
20 0 V
20 0 V
20 0 V
21 0 V
20 0 V
20 -1 V
20 0 V
21 -1 V
20 -1 V
20 0 V
20 -1 V
21 -1 V
20 -1 V
20 -1 V
20 -2 V
21 -2 V
20 -3 V
20 0 V
20 0 V
21 0 V
20 -1 V
20 -2 V
20 -2 V
21 -3 V
40 -1 V
20 0 V
21 0 V
20 0 V
20 0 V
20 0 V
21 0 V
20 0 V
20 0 V
20 0 V
21 0 V
20 0 V
20 0 V
21 0 V
20 0 V
20 0 V
20 0 V
21 -4 V
20 -11 V
20 -11 V
20 -14 V
21 -20 V
20 -24 V
20 -21 V
20 -1 V
21 5 V
20 6 V
20 6 V
20 5 V
21 3 V
20 3 V
20 3 V
20 4 V
21 4 V
20 5 V
20 5 V
20 6 V
21 7 V
20 8 V
20 9 V
20 10 V
21 12 V
20 5 V
20 0 V
20 0 V
21 0 V
20 0 V
20 0 V
20 0 V
41 0 V
20 0 V
21 0 V
20 0 V
20 0 V
20 0 V
21 0 V
20 0 V
20 0 V
20 0 V
21 0 V
20 0 V
20 0 V
20 0 V
21 0 V
20 0 V
20 0 V
20 0 V
21 0 V
20 0 V
20 0 V
20 0 V
21 0 V
20 0 V
20 0 V
20 0 V
21 0 V
20 0 V
20 0 V
20 0 V
21 0 V
20 0 V
20 0 V
20 0 V
21 0 V
20 0 V
20 0 V
20 0 V
21 0 V
20 0 V
stroke
LTw
% End plot #3
% Begin plot #4
3.000 UL
LTb
LCb setrgbcolor
[] 0 setdash
0.90 0.62 0.00 C
756 961 M
20 0 V
21 0 V
20 0 V
20 0 V
20 0 V
21 0 V
20 0 V
20 0 V
20 0 V
21 0 V
20 0 V
20 0 V
20 0 V
21 0 V
20 0 V
20 0 V
20 0 V
21 0 V
20 0 V
20 0 V
20 0 V
21 0 V
20 0 V
20 0 V
20 0 V
21 0 V
20 0 V
20 0 V
20 0 V
21 0 V
20 0 V
20 0 V
20 0 V
21 0 V
20 0 V
20 0 V
20 0 V
21 0 V
20 0 V
20 0 V
21 0 V
20 0 V
20 0 V
20 0 V
21 0 V
20 0 V
20 0 V
20 0 V
21 0 V
20 0 V
20 0 V
20 0 V
21 0 V
20 0 V
20 0 V
20 0 V
21 0 V
20 0 V
20 0 V
20 0 V
21 0 V
20 0 V
20 0 V
20 0 V
21 0 V
20 0 V
20 0 V
20 0 V
21 0 V
20 0 V
20 0 V
20 0 V
21 0 V
20 -1 V
20 0 V
20 0 V
21 0 V
20 0 V
20 0 V
21 -1 V
20 0 V
20 0 V
20 0 V
21 -1 V
20 0 V
20 -1 V
20 0 V
21 -1 V
20 0 V
20 -1 V
20 0 V
21 0 V
20 -1 V
20 0 V
20 0 V
21 -1 V
20 1 V
20 2 V
20 1 V
21 2 V
20 2 V
20 5 V
20 6 V
21 7 V
20 11 V
20 12 V
20 13 V
21 15 V
40 26 V
20 8 V
21 8 V
20 9 V
20 12 V
20 16 V
21 18 V
20 20 V
20 25 V
20 26 V
21 20 V
20 16 V
20 18 V
21 14 V
20 16 V
20 19 V
20 14 V
21 -3 V
20 -2 V
20 -4 V
20 -4 V
21 1 V
20 7 V
20 5 V
20 0 V
21 0 V
20 0 V
20 0 V
20 0 V
21 0 V
20 0 V
20 0 V
20 0 V
21 0 V
20 0 V
20 0 V
20 0 V
21 0 V
20 0 V
20 0 V
20 0 V
21 0 V
20 0 V
20 0 V
20 0 V
21 0 V
20 0 V
20 0 V
20 0 V
41 0 V
20 0 V
21 0 V
20 0 V
20 0 V
20 0 V
21 0 V
20 0 V
20 0 V
20 0 V
21 0 V
20 0 V
20 0 V
20 0 V
21 0 V
20 0 V
20 0 V
20 0 V
21 0 V
20 0 V
20 0 V
20 0 V
21 0 V
20 0 V
20 0 V
20 0 V
21 0 V
20 0 V
20 0 V
20 0 V
21 0 V
20 0 V
20 0 V
20 0 V
21 0 V
20 0 V
20 0 V
20 0 V
21 0 V
20 0 V
stroke
LTw
% End plot #4
% Begin plot #5
3.000 UL
LTb
LCb setrgbcolor
[] 0 setdash
0.94 0.89 0.26 C
756 1820 M
20 0 V
21 0 V
20 0 V
20 0 V
20 0 V
21 0 V
20 0 V
20 0 V
20 0 V
21 0 V
20 0 V
20 0 V
20 0 V
21 0 V
20 0 V
20 0 V
20 0 V
21 0 V
20 0 V
20 0 V
20 0 V
21 0 V
20 0 V
20 0 V
20 0 V
21 0 V
20 0 V
20 0 V
20 0 V
21 0 V
20 0 V
20 0 V
20 0 V
21 0 V
20 0 V
20 0 V
20 0 V
21 0 V
20 0 V
20 0 V
21 0 V
20 0 V
20 0 V
20 0 V
21 0 V
20 0 V
20 0 V
20 0 V
21 0 V
20 0 V
20 0 V
20 0 V
21 0 V
20 0 V
20 0 V
20 0 V
21 0 V
20 -1 V
20 0 V
20 0 V
21 0 V
20 0 V
20 0 V
20 0 V
21 0 V
20 0 V
20 -1 V
20 0 V
21 0 V
20 0 V
20 -1 V
20 0 V
21 0 V
20 -1 V
20 0 V
20 -1 V
21 0 V
20 -1 V
20 -1 V
21 -1 V
20 -1 V
20 -1 V
20 -2 V
21 -1 V
20 -2 V
20 -2 V
20 -3 V
21 -2 V
20 -3 V
20 -3 V
20 -3 V
21 -3 V
20 -6 V
20 -6 V
20 -6 V
21 -7 V
20 -6 V
20 -5 V
20 -6 V
21 -7 V
20 -11 V
20 -14 V
20 -14 V
21 -12 V
20 -14 V
20 -16 V
20 -20 V
21 -20 V
40 -30 V
20 -7 V
21 -9 V
20 -7 V
20 -9 V
20 -10 V
21 -14 V
20 -13 V
20 -16 V
20 -17 V
21 -14 V
20 -11 V
20 -13 V
21 -21 V
20 -17 V
20 -14 V
20 -13 V
21 -8 V
20 -14 V
20 -20 V
20 -13 V
21 -11 V
20 0 V
20 0 V
20 0 V
21 0 V
20 0 V
20 0 V
20 0 V
21 0 V
20 0 V
20 0 V
20 0 V
21 0 V
20 0 V
20 0 V
20 0 V
21 0 V
20 0 V
20 0 V
20 0 V
21 0 V
20 0 V
20 0 V
20 0 V
21 0 V
20 0 V
20 0 V
20 0 V
41 0 V
20 0 V
21 0 V
20 0 V
20 0 V
20 0 V
21 0 V
20 0 V
20 0 V
20 0 V
21 0 V
20 0 V
20 0 V
20 0 V
21 0 V
20 0 V
20 0 V
20 0 V
21 0 V
20 0 V
20 0 V
20 0 V
21 0 V
20 0 V
20 0 V
20 0 V
21 0 V
20 0 V
20 0 V
20 0 V
21 0 V
20 0 V
20 0 V
20 0 V
21 0 V
20 0 V
20 0 V
20 0 V
21 0 V
20 0 V
stroke
LTw
% End plot #5
% Begin plot #6
3.000 UL
LTb
LCb setrgbcolor
[] 0 setdash
0.00 0.45 0.70 C
756 614 M
20 0 V
21 0 V
20 0 V
20 0 V
20 0 V
21 0 V
20 0 V
20 0 V
20 0 V
21 0 V
20 0 V
20 0 V
20 0 V
21 0 V
20 0 V
20 0 V
20 0 V
21 0 V
20 0 V
20 0 V
20 0 V
21 0 V
20 0 V
20 0 V
20 0 V
21 0 V
20 0 V
20 0 V
20 0 V
21 0 V
20 0 V
20 0 V
20 0 V
21 0 V
20 0 V
20 0 V
20 0 V
21 0 V
20 0 V
20 0 V
21 0 V
20 0 V
20 0 V
20 0 V
21 0 V
20 0 V
20 0 V
20 0 V
21 0 V
20 0 V
20 0 V
20 0 V
21 0 V
20 0 V
20 0 V
20 0 V
21 0 V
20 0 V
20 1 V
20 0 V
21 0 V
20 0 V
20 0 V
20 0 V
21 0 V
20 0 V
20 0 V
20 1 V
21 0 V
20 0 V
20 0 V
20 1 V
21 0 V
20 1 V
20 0 V
20 1 V
21 0 V
20 1 V
20 1 V
21 1 V
20 1 V
20 1 V
20 2 V
21 1 V
20 2 V
20 2 V
20 2 V
21 3 V
20 3 V
20 3 V
20 4 V
21 5 V
20 5 V
20 6 V
20 8 V
21 7 V
20 8 V
20 8 V
20 9 V
21 11 V
20 14 V
20 14 V
20 14 V
21 13 V
20 18 V
20 21 V
20 23 V
21 24 V
40 23 V
20 11 V
21 13 V
20 12 V
20 14 V
20 15 V
21 17 V
20 7 V
20 10 V
20 10 V
21 11 V
20 11 V
20 13 V
21 15 V
20 12 V
20 10 V
20 10 V
21 13 V
20 27 V
20 28 V
20 33 V
21 40 V
20 46 V
20 38 V
20 6 V
21 -1 V
20 -1 V
20 -2 V
20 -1 V
21 -1 V
20 -1 V
20 -2 V
20 -2 V
21 -2 V
20 -2 V
20 -2 V
20 -3 V
21 -3 V
20 -4 V
20 -4 V
20 -4 V
21 -5 V
20 1 V
20 7 V
20 7 V
21 9 V
20 9 V
20 11 V
20 12 V
41 0 V
20 0 V
21 0 V
20 0 V
20 0 V
20 0 V
21 0 V
20 0 V
20 0 V
20 0 V
21 0 V
20 0 V
20 0 V
20 0 V
21 0 V
20 0 V
20 0 V
20 0 V
21 0 V
20 0 V
20 0 V
20 0 V
21 0 V
20 0 V
20 0 V
20 0 V
21 0 V
20 0 V
20 0 V
20 0 V
21 0 V
20 0 V
20 0 V
20 0 V
21 0 V
20 0 V
20 0 V
20 0 V
21 0 V
20 0 V
stroke
LTw
% End plot #6
% Begin plot #7
3.000 UL
LTb
LCb setrgbcolor
[] 0 setdash
0.90 0.12 0.06 C
756 1530 M
20 0 V
21 0 V
20 0 V
20 0 V
20 0 V
21 0 V
20 0 V
20 0 V
20 0 V
21 0 V
20 0 V
20 0 V
20 0 V
21 0 V
20 0 V
20 0 V
20 0 V
21 0 V
20 0 V
20 0 V
20 0 V
21 0 V
20 0 V
20 0 V
20 0 V
21 0 V
20 0 V
20 0 V
20 0 V
21 0 V
20 0 V
20 0 V
20 0 V
21 0 V
20 0 V
20 0 V
20 0 V
21 0 V
20 0 V
20 0 V
21 0 V
20 0 V
20 0 V
20 0 V
21 0 V
20 0 V
20 0 V
20 0 V
21 0 V
20 0 V
20 0 V
20 0 V
21 0 V
20 0 V
20 0 V
20 0 V
21 0 V
20 0 V
20 -1 V
20 0 V
21 0 V
20 0 V
20 0 V
20 0 V
21 0 V
20 0 V
20 0 V
20 0 V
21 0 V
20 0 V
20 0 V
20 0 V
21 0 V
20 0 V
20 0 V
20 0 V
21 0 V
20 0 V
20 -1 V
21 0 V
20 0 V
20 0 V
20 0 V
21 -1 V
20 0 V
20 0 V
20 -1 V
21 0 V
20 -1 V
20 -1 V
20 -2 V
21 -2 V
20 -2 V
20 -2 V
20 -2 V
21 -4 V
20 -4 V
20 -5 V
20 -7 V
21 -6 V
20 -8 V
20 -9 V
20 -11 V
21 -15 V
20 -18 V
20 -21 V
20 -23 V
21 -26 V
40 -42 V
20 0 V
21 0 V
20 0 V
20 0 V
20 0 V
21 0 V
20 0 V
20 0 V
20 0 V
21 0 V
20 0 V
20 0 V
21 0 V
20 0 V
20 0 V
20 0 V
21 0 V
20 0 V
20 0 V
20 0 V
21 0 V
20 0 V
20 0 V
20 0 V
21 0 V
20 0 V
20 0 V
20 0 V
21 0 V
20 0 V
20 0 V
20 0 V
21 0 V
20 0 V
20 0 V
20 0 V
21 0 V
20 0 V
20 0 V
20 0 V
21 0 V
20 0 V
20 0 V
20 0 V
21 0 V
20 0 V
20 0 V
20 0 V
41 0 V
20 0 V
21 0 V
20 0 V
20 0 V
20 0 V
21 0 V
20 0 V
20 0 V
20 0 V
21 0 V
20 0 V
20 0 V
20 0 V
21 0 V
20 0 V
20 0 V
20 0 V
21 0 V
20 0 V
20 0 V
20 0 V
21 0 V
20 0 V
20 0 V
20 0 V
21 0 V
20 0 V
20 0 V
20 0 V
21 0 V
20 0 V
20 0 V
20 0 V
21 0 V
20 0 V
20 0 V
20 0 V
21 0 V
20 0 V
stroke
LTw
% End plot #7
% Begin plot #8
3.000 UL
LTb
LCb setrgbcolor
[] 0 setdash
0.00 0.00 0.00 C
756 1338 M
20 0 V
21 0 V
20 0 V
20 0 V
20 0 V
21 0 V
20 0 V
20 0 V
20 0 V
21 0 V
20 0 V
20 0 V
20 0 V
21 0 V
20 0 V
20 0 V
20 0 V
21 0 V
20 0 V
20 0 V
20 0 V
21 0 V
20 0 V
20 0 V
20 0 V
21 0 V
20 0 V
20 0 V
20 0 V
21 0 V
20 0 V
20 0 V
20 0 V
21 0 V
20 0 V
20 0 V
20 0 V
21 0 V
20 0 V
20 0 V
21 0 V
20 0 V
20 0 V
20 0 V
21 0 V
20 0 V
20 0 V
20 0 V
21 0 V
20 0 V
20 0 V
20 0 V
21 0 V
20 0 V
20 0 V
20 0 V
21 0 V
20 0 V
20 0 V
20 0 V
21 0 V
20 0 V
20 0 V
20 0 V
21 0 V
20 0 V
20 -1 V
20 0 V
21 0 V
20 0 V
20 0 V
20 -1 V
21 0 V
20 0 V
20 -1 V
20 0 V
21 0 V
20 -1 V
20 -1 V
21 0 V
20 -1 V
20 -1 V
20 -1 V
21 -1 V
20 -1 V
20 -1 V
20 -2 V
21 -2 V
20 -1 V
20 -2 V
20 -2 V
21 -2 V
20 -2 V
20 -1 V
20 -1 V
21 0 V
20 2 V
20 1 V
20 0 V
21 0 V
20 0 V
20 0 V
20 0 V
21 0 V
20 3 V
20 4 V
20 5 V
21 9 V
40 20 V
20 -13 V
21 -12 V
20 -11 V
20 -5 V
20 0 V
21 0 V
20 0 V
20 0 V
20 0 V
21 0 V
20 0 V
20 0 V
21 0 V
20 0 V
20 0 V
20 0 V
21 0 V
20 0 V
20 0 V
20 0 V
21 7 V
20 -7 V
20 0 V
20 0 V
21 0 V
20 0 V
20 0 V
20 0 V
21 0 V
20 0 V
20 0 V
20 0 V
21 0 V
20 0 V
20 0 V
20 0 V
21 0 V
20 0 V
20 0 V
20 0 V
21 0 V
20 0 V
20 0 V
20 0 V
21 0 V
20 0 V
20 0 V
20 0 V
41 0 V
20 0 V
21 0 V
20 0 V
20 0 V
20 0 V
21 0 V
20 0 V
20 0 V
20 0 V
21 0 V
20 0 V
20 0 V
20 0 V
21 0 V
20 0 V
20 0 V
20 0 V
21 0 V
20 0 V
20 0 V
20 0 V
21 0 V
20 0 V
20 0 V
20 0 V
21 0 V
20 0 V
20 0 V
20 0 V
21 0 V
20 0 V
20 0 V
20 0 V
21 0 V
20 0 V
20 0 V
20 0 V
21 0 V
20 0 V
stroke
LTw
% End plot #8
% Begin plot #9
3.000 UL
LTb
LCb setrgbcolor
[] 0 setdash
0.58 0.00 0.83 C
756 1200 M
20 0 V
21 0 V
20 0 V
20 0 V
20 0 V
21 0 V
20 0 V
20 0 V
20 0 V
21 0 V
20 0 V
20 0 V
20 0 V
21 0 V
20 0 V
20 0 V
20 0 V
21 0 V
20 0 V
20 0 V
20 0 V
21 0 V
20 0 V
20 0 V
20 0 V
21 0 V
20 0 V
20 0 V
20 0 V
21 0 V
20 0 V
20 0 V
20 0 V
21 0 V
20 0 V
20 0 V
20 0 V
21 0 V
20 0 V
20 0 V
21 0 V
20 0 V
20 0 V
20 0 V
21 0 V
20 0 V
20 0 V
20 0 V
21 0 V
20 0 V
20 0 V
20 0 V
21 0 V
20 0 V
20 1 V
20 0 V
21 0 V
20 0 V
20 0 V
20 0 V
21 0 V
20 0 V
20 0 V
20 1 V
21 0 V
20 0 V
20 0 V
20 1 V
21 0 V
20 0 V
20 1 V
20 0 V
21 1 V
20 1 V
20 0 V
20 1 V
21 1 V
20 1 V
20 2 V
21 1 V
20 2 V
20 2 V
20 2 V
21 2 V
20 3 V
20 3 V
20 3 V
21 4 V
20 4 V
20 4 V
20 5 V
21 5 V
20 5 V
20 4 V
20 5 V
21 5 V
20 3 V
20 4 V
20 5 V
21 5 V
20 9 V
20 6 V
20 5 V
21 1 V
20 -1 V
20 0 V
20 3 V
21 4 V
40 1 V
20 0 V
21 0 V
20 0 V
20 0 V
20 0 V
21 0 V
20 0 V
20 0 V
20 0 V
21 0 V
20 0 V
20 0 V
21 0 V
20 0 V
20 0 V
20 0 V
21 0 V
20 0 V
20 0 V
20 0 V
21 0 V
20 0 V
20 0 V
20 0 V
21 0 V
20 0 V
20 0 V
20 0 V
21 0 V
20 0 V
20 0 V
20 0 V
21 0 V
20 0 V
20 0 V
20 0 V
21 0 V
20 0 V
20 0 V
20 0 V
21 0 V
20 0 V
20 0 V
20 0 V
21 0 V
20 0 V
20 0 V
20 0 V
41 0 V
20 0 V
21 0 V
20 0 V
20 0 V
20 0 V
21 0 V
20 0 V
20 0 V
20 0 V
21 0 V
20 0 V
20 0 V
20 0 V
21 0 V
20 0 V
20 0 V
20 0 V
21 0 V
20 0 V
20 0 V
20 0 V
21 0 V
20 0 V
20 0 V
20 0 V
21 0 V
20 0 V
20 0 V
20 0 V
21 0 V
20 0 V
20 0 V
20 0 V
21 0 V
20 0 V
20 0 V
20 0 V
21 0 V
20 0 V
stroke
LTw
% End plot #9
% Begin plot #10
3.000 UL
LTb
LCb setrgbcolor
[] 0 setdash
0.00 0.62 0.45 C
756 1588 M
20 0 V
21 0 V
20 0 V
20 0 V
20 0 V
21 0 V
20 0 V
20 0 V
20 0 V
21 0 V
20 0 V
20 0 V
20 0 V
21 0 V
20 0 V
20 0 V
20 0 V
21 0 V
20 0 V
20 0 V
20 0 V
21 0 V
20 0 V
20 0 V
20 0 V
21 0 V
20 0 V
20 0 V
20 0 V
21 0 V
20 0 V
20 0 V
20 0 V
21 0 V
20 0 V
20 0 V
20 0 V
21 0 V
20 0 V
20 0 V
21 0 V
20 0 V
20 0 V
20 0 V
21 0 V
20 0 V
20 0 V
20 0 V
21 0 V
20 0 V
20 0 V
20 0 V
21 0 V
20 0 V
20 0 V
20 0 V
21 -1 V
20 0 V
20 0 V
20 0 V
21 0 V
20 0 V
20 0 V
20 0 V
21 -1 V
20 0 V
20 0 V
20 0 V
21 -1 V
20 0 V
20 -1 V
20 0 V
21 -1 V
20 0 V
20 -1 V
20 -1 V
21 -1 V
20 -1 V
20 -1 V
21 -2 V
20 -1 V
20 -2 V
20 -2 V
21 -3 V
20 -2 V
20 -3 V
20 -3 V
21 -4 V
20 -4 V
20 -5 V
20 -5 V
21 -6 V
20 -7 V
20 -7 V
20 -8 V
21 -9 V
20 -9 V
20 -10 V
20 -12 V
21 -12 V
20 -14 V
20 -18 V
20 -18 V
21 -15 V
20 -17 V
20 -22 V
20 -25 V
21 -18 V
40 0 V
20 0 V
21 0 V
20 0 V
20 0 V
20 0 V
21 0 V
20 0 V
20 0 V
20 0 V
21 0 V
20 0 V
20 0 V
21 0 V
20 0 V
20 0 V
20 0 V
21 0 V
20 0 V
20 0 V
20 0 V
21 0 V
20 0 V
20 0 V
20 0 V
21 0 V
20 0 V
20 0 V
20 0 V
21 0 V
20 0 V
20 0 V
20 0 V
21 0 V
20 0 V
20 0 V
20 0 V
21 0 V
20 0 V
20 0 V
20 0 V
21 0 V
20 0 V
20 0 V
20 0 V
21 0 V
20 0 V
20 0 V
20 0 V
41 0 V
20 0 V
21 0 V
20 0 V
20 0 V
20 0 V
21 0 V
20 0 V
20 0 V
20 0 V
21 0 V
20 0 V
20 0 V
20 0 V
21 0 V
20 0 V
20 0 V
20 0 V
21 0 V
20 0 V
20 0 V
20 0 V
21 0 V
20 0 V
20 0 V
20 0 V
21 0 V
20 0 V
20 0 V
20 0 V
21 0 V
20 0 V
20 0 V
20 0 V
21 0 V
20 0 V
20 0 V
20 0 V
21 0 V
20 0 V
stroke
LTw
% End plot #10
% Begin plot #11
3.000 UL
LTb
LCb setrgbcolor
[] 0 setdash
0.34 0.71 0.91 C
756 1521 M
20 0 V
21 0 V
20 0 V
20 0 V
20 0 V
21 0 V
20 0 V
20 0 V
20 0 V
21 0 V
20 0 V
20 0 V
20 0 V
21 0 V
20 0 V
20 0 V
20 0 V
21 0 V
20 0 V
20 0 V
20 0 V
21 0 V
20 0 V
20 0 V
20 0 V
21 0 V
20 0 V
20 0 V
20 0 V
21 0 V
20 0 V
20 0 V
20 0 V
21 0 V
20 0 V
20 0 V
20 0 V
21 0 V
20 0 V
20 0 V
21 0 V
20 0 V
20 0 V
20 0 V
21 0 V
20 0 V
20 0 V
20 0 V
21 0 V
20 0 V
20 0 V
20 0 V
21 0 V
20 0 V
20 0 V
20 0 V
21 0 V
20 0 V
20 0 V
20 0 V
21 0 V
20 0 V
20 0 V
20 0 V
21 0 V
20 0 V
20 0 V
20 0 V
21 0 V
20 0 V
20 0 V
20 0 V
21 0 V
20 0 V
20 0 V
20 0 V
21 0 V
20 0 V
20 0 V
21 0 V
20 0 V
20 0 V
20 0 V
21 0 V
20 0 V
20 1 V
20 0 V
21 0 V
20 0 V
20 0 V
20 0 V
21 0 V
20 -1 V
20 -1 V
20 -1 V
21 -2 V
20 -1 V
20 -2 V
20 -1 V
21 -2 V
20 -3 V
20 -3 V
20 -2 V
21 -2 V
20 -4 V
20 -4 V
20 -5 V
21 -5 V
40 14 V
20 -7 V
21 -7 V
20 -6 V
20 -8 V
20 -10 V
21 -11 V
20 -14 V
20 -40 V
20 -56 V
21 -23 V
20 0 V
20 0 V
21 0 V
20 0 V
20 0 V
20 0 V
21 0 V
20 0 V
20 0 V
20 0 V
21 0 V
20 0 V
20 0 V
20 0 V
21 0 V
20 0 V
20 0 V
20 0 V
21 0 V
20 0 V
20 0 V
20 0 V
21 0 V
20 0 V
20 0 V
20 0 V
21 0 V
20 0 V
20 0 V
20 0 V
21 0 V
20 0 V
20 0 V
20 0 V
21 0 V
20 0 V
20 0 V
20 0 V
41 0 V
20 0 V
21 0 V
20 0 V
20 0 V
20 0 V
21 0 V
20 0 V
20 0 V
20 0 V
21 0 V
20 0 V
20 0 V
20 0 V
21 0 V
20 0 V
20 0 V
20 0 V
21 0 V
20 0 V
20 0 V
20 0 V
21 0 V
20 0 V
20 0 V
20 0 V
21 0 V
20 0 V
20 0 V
20 0 V
21 0 V
20 0 V
20 0 V
20 0 V
21 0 V
20 0 V
20 0 V
20 0 V
21 0 V
20 0 V
stroke
LTw
% End plot #11
% Begin plot #12
3.000 UL
LTb
LCb setrgbcolor
[] 0 setdash
0.90 0.62 0.00 C
756 1158 M
20 0 V
21 0 V
20 0 V
20 0 V
20 0 V
21 0 V
20 0 V
20 0 V
20 0 V
21 0 V
20 0 V
20 0 V
20 0 V
21 0 V
20 0 V
20 0 V
20 0 V
21 0 V
20 0 V
20 0 V
20 0 V
21 0 V
20 0 V
20 0 V
20 0 V
21 0 V
20 0 V
20 0 V
20 0 V
21 0 V
20 0 V
20 0 V
20 0 V
21 0 V
20 0 V
20 0 V
20 0 V
21 0 V
20 0 V
20 0 V
21 0 V
20 0 V
20 0 V
20 0 V
21 0 V
20 0 V
20 0 V
20 0 V
21 0 V
20 0 V
20 1 V
20 0 V
21 0 V
20 0 V
20 0 V
20 0 V
21 0 V
20 0 V
20 1 V
20 0 V
21 0 V
20 0 V
20 0 V
20 1 V
21 0 V
20 1 V
20 0 V
20 1 V
21 0 V
20 1 V
20 1 V
20 1 V
21 1 V
20 1 V
20 2 V
20 1 V
21 2 V
20 2 V
20 2 V
21 3 V
20 3 V
20 3 V
20 4 V
21 4 V
20 5 V
20 6 V
20 7 V
21 7 V
20 8 V
20 10 V
20 10 V
21 12 V
20 13 V
20 12 V
20 14 V
21 13 V
20 3 V
20 1 V
20 0 V
21 0 V
20 0 V
20 0 V
20 0 V
21 0 V
20 6 V
20 8 V
20 10 V
21 5 V
40 -4 V
20 13 V
21 12 V
20 9 V
20 4 V
20 -3 V
21 -6 V
20 -8 V
20 7 V
20 11 V
21 -6 V
20 -26 V
20 -32 V
21 0 V
20 0 V
20 0 V
20 0 V
21 0 V
20 26 V
20 43 V
20 5 V
21 -4 V
20 -4 V
20 -10 V
20 -5 V
21 -10 V
20 -25 V
20 -16 V
20 0 V
21 0 V
20 0 V
20 0 V
20 0 V
21 0 V
20 0 V
20 0 V
20 0 V
21 0 V
20 0 V
20 0 V
20 0 V
21 0 V
20 0 V
20 0 V
20 0 V
21 0 V
20 0 V
20 0 V
20 0 V
41 0 V
20 0 V
21 0 V
20 0 V
20 0 V
20 0 V
21 0 V
20 0 V
20 0 V
20 0 V
21 0 V
20 0 V
20 0 V
20 0 V
21 0 V
20 0 V
20 0 V
20 0 V
21 0 V
20 0 V
20 0 V
20 0 V
21 0 V
20 0 V
20 0 V
20 0 V
21 0 V
20 0 V
20 0 V
20 0 V
21 0 V
20 0 V
20 0 V
20 0 V
21 0 V
20 0 V
20 0 V
20 0 V
21 0 V
20 0 V
stroke
LTw
% End plot #12
% Begin plot #13
3.000 UL
LTb
LCb setrgbcolor
[] 0 setdash
0.94 0.89 0.26 C
756 1209 M
20 0 V
21 0 V
20 0 V
20 0 V
20 0 V
21 0 V
20 0 V
20 0 V
20 0 V
21 0 V
20 0 V
20 0 V
20 0 V
21 0 V
20 0 V
20 0 V
20 0 V
21 0 V
20 0 V
20 0 V
20 0 V
21 0 V
20 0 V
20 0 V
20 0 V
21 0 V
20 0 V
20 0 V
20 0 V
21 0 V
20 0 V
20 0 V
20 0 V
21 0 V
20 0 V
20 0 V
20 0 V
21 -1 V
20 0 V
20 0 V
21 0 V
20 0 V
20 0 V
20 0 V
21 0 V
20 0 V
20 0 V
20 0 V
21 0 V
20 0 V
20 0 V
20 0 V
21 0 V
20 0 V
20 0 V
20 0 V
21 0 V
20 0 V
20 0 V
20 0 V
21 0 V
20 0 V
20 0 V
20 -1 V
21 0 V
20 0 V
20 0 V
20 0 V
21 -1 V
20 0 V
20 0 V
20 -1 V
21 0 V
20 -1 V
20 0 V
20 -1 V
21 -1 V
20 0 V
20 -1 V
21 -2 V
20 -1 V
20 -1 V
20 -2 V
21 -2 V
20 -2 V
20 -2 V
20 -3 V
21 -3 V
20 -3 V
20 -3 V
20 -4 V
21 -4 V
20 -3 V
20 -3 V
20 -2 V
21 0 V
20 13 V
20 17 V
20 20 V
21 22 V
20 21 V
20 22 V
20 25 V
21 14 V
20 0 V
20 0 V
20 0 V
21 0 V
40 0 V
20 0 V
21 0 V
20 0 V
20 0 V
20 0 V
21 0 V
20 0 V
20 0 V
20 0 V
21 0 V
20 0 V
20 0 V
21 0 V
20 0 V
20 0 V
20 0 V
21 0 V
20 0 V
20 0 V
20 0 V
21 0 V
20 0 V
20 0 V
20 0 V
21 0 V
20 0 V
20 0 V
20 0 V
21 0 V
20 0 V
20 0 V
20 0 V
21 0 V
20 0 V
20 0 V
20 0 V
21 0 V
20 0 V
20 0 V
20 0 V
21 0 V
20 0 V
20 0 V
20 0 V
21 0 V
20 0 V
20 0 V
20 0 V
41 0 V
20 0 V
21 0 V
20 0 V
20 0 V
20 0 V
21 0 V
20 0 V
20 0 V
20 0 V
21 0 V
20 0 V
20 0 V
20 0 V
21 0 V
20 0 V
20 0 V
20 0 V
21 0 V
20 0 V
20 0 V
20 0 V
21 0 V
20 0 V
20 0 V
20 0 V
21 0 V
20 0 V
20 0 V
20 0 V
21 0 V
20 0 V
20 0 V
20 0 V
21 0 V
20 0 V
20 0 V
20 0 V
21 0 V
20 0 V
stroke
LTw
% End plot #13
% Begin plot #14
3.000 UL
LTb
LCb setrgbcolor
[] 0 setdash
0.00 0.45 0.70 C
756 1199 M
20 0 V
21 0 V
20 0 V
20 0 V
20 0 V
21 0 V
20 0 V
20 0 V
20 0 V
21 0 V
20 0 V
20 0 V
20 0 V
21 0 V
20 0 V
20 0 V
20 0 V
21 0 V
20 0 V
20 0 V
20 0 V
21 0 V
20 0 V
20 0 V
20 0 V
21 0 V
20 0 V
20 0 V
20 0 V
21 0 V
20 0 V
20 0 V
20 0 V
21 0 V
20 0 V
20 0 V
20 0 V
21 0 V
20 0 V
20 0 V
21 0 V
20 0 V
20 0 V
20 0 V
21 0 V
20 0 V
20 0 V
20 0 V
21 0 V
20 0 V
20 0 V
20 0 V
21 0 V
20 0 V
20 0 V
20 0 V
21 0 V
20 0 V
20 0 V
20 0 V
21 0 V
20 0 V
20 0 V
20 0 V
21 0 V
20 0 V
20 1 V
20 0 V
21 0 V
20 0 V
20 0 V
20 0 V
21 1 V
20 0 V
20 0 V
20 1 V
21 0 V
20 1 V
20 0 V
21 1 V
20 1 V
20 1 V
20 1 V
21 1 V
20 1 V
20 2 V
20 1 V
21 2 V
20 1 V
20 0 V
20 -2 V
21 -2 V
20 -2 V
20 -3 V
20 -3 V
21 -4 V
20 -8 V
20 -9 V
20 -11 V
21 -11 V
20 -5 V
20 1 V
20 3 V
21 11 V
20 17 V
20 17 V
20 17 V
21 12 V
40 17 V
20 12 V
21 11 V
20 7 V
20 5 V
20 4 V
21 13 V
20 13 V
20 0 V
20 0 V
21 0 V
20 0 V
20 0 V
21 0 V
20 0 V
20 0 V
20 0 V
21 0 V
20 0 V
20 0 V
20 0 V
21 0 V
20 0 V
20 0 V
20 0 V
21 0 V
20 0 V
20 0 V
20 0 V
21 0 V
20 0 V
20 0 V
20 0 V
21 0 V
20 0 V
20 0 V
20 0 V
21 0 V
20 0 V
20 0 V
20 0 V
21 0 V
20 0 V
20 0 V
20 0 V
21 0 V
20 0 V
20 0 V
20 0 V
41 0 V
20 0 V
21 0 V
20 0 V
20 0 V
20 0 V
21 0 V
20 0 V
20 0 V
20 0 V
21 0 V
20 0 V
20 0 V
20 0 V
21 0 V
20 0 V
20 0 V
20 0 V
21 0 V
20 0 V
20 0 V
20 0 V
21 0 V
20 0 V
20 0 V
20 0 V
21 0 V
20 0 V
20 0 V
20 0 V
21 0 V
20 0 V
20 0 V
20 0 V
21 0 V
20 0 V
20 0 V
20 0 V
21 0 V
20 0 V
stroke
LTw
% End plot #14
% Begin plot #15
3.000 UL
LTb
LCb setrgbcolor
[] 0 setdash
0.90 0.12 0.06 C
756 1610 M
20 0 V
21 0 V
20 0 V
20 0 V
20 0 V
21 0 V
20 0 V
20 0 V
20 0 V
21 0 V
20 0 V
20 0 V
20 0 V
21 0 V
20 0 V
20 0 V
20 0 V
21 0 V
20 0 V
20 0 V
20 0 V
21 0 V
20 0 V
20 0 V
20 0 V
21 0 V
20 0 V
20 0 V
20 0 V
21 0 V
20 0 V
20 0 V
20 0 V
21 0 V
20 0 V
20 0 V
20 0 V
21 0 V
20 0 V
20 0 V
21 0 V
20 0 V
20 0 V
20 0 V
21 0 V
20 0 V
20 0 V
20 0 V
21 0 V
20 0 V
20 0 V
20 0 V
21 0 V
20 0 V
20 0 V
20 0 V
21 0 V
20 0 V
20 -1 V
20 0 V
21 0 V
20 0 V
20 0 V
20 0 V
21 0 V
20 0 V
20 0 V
20 0 V
21 0 V
20 0 V
20 0 V
20 -1 V
21 0 V
20 0 V
20 0 V
20 0 V
21 -1 V
20 0 V
20 0 V
21 -1 V
20 0 V
20 -1 V
20 0 V
21 -1 V
20 -1 V
20 -1 V
20 0 V
21 -1 V
20 -1 V
20 0 V
20 0 V
21 1 V
20 0 V
20 1 V
20 1 V
21 1 V
20 1 V
20 1 V
20 2 V
21 3 V
20 1 V
20 -3 V
20 -4 V
21 -9 V
20 -8 V
20 -8 V
20 -8 V
21 -13 V
40 -50 V
20 -27 V
21 -30 V
20 -31 V
20 -32 V
20 -36 V
21 -38 V
20 0 V
20 0 V
20 0 V
21 0 V
20 0 V
20 0 V
21 0 V
20 0 V
20 0 V
20 0 V
21 0 V
20 0 V
20 0 V
20 0 V
21 0 V
20 0 V
20 0 V
20 0 V
21 0 V
20 0 V
20 0 V
20 0 V
21 0 V
20 0 V
20 0 V
20 0 V
21 0 V
20 0 V
20 0 V
20 0 V
21 0 V
20 0 V
20 0 V
20 0 V
21 0 V
20 0 V
20 0 V
20 0 V
21 0 V
20 0 V
20 0 V
20 0 V
41 0 V
20 0 V
21 0 V
20 0 V
20 0 V
20 0 V
21 0 V
20 0 V
20 0 V
20 0 V
21 0 V
20 0 V
20 0 V
20 0 V
21 0 V
20 0 V
20 0 V
20 0 V
21 0 V
20 0 V
20 0 V
20 0 V
21 0 V
20 0 V
20 0 V
20 0 V
21 0 V
20 0 V
20 0 V
20 0 V
21 0 V
20 0 V
20 0 V
20 0 V
21 0 V
20 0 V
20 0 V
20 0 V
21 0 V
20 0 V
stroke
LTw
% End plot #15
% Begin plot #16
3.000 UL
LTb
LCb setrgbcolor
[] 0 setdash
0.00 0.00 0.00 C
756 1198 M
20 0 V
21 0 V
20 0 V
20 0 V
20 0 V
21 0 V
20 0 V
20 0 V
20 0 V
21 0 V
20 0 V
20 0 V
20 0 V
21 0 V
20 0 V
20 0 V
20 0 V
21 0 V
20 0 V
20 0 V
20 0 V
21 0 V
20 0 V
20 0 V
20 0 V
21 0 V
20 0 V
20 0 V
20 0 V
21 0 V
20 0 V
20 0 V
20 0 V
21 0 V
20 0 V
20 0 V
20 0 V
21 0 V
20 0 V
20 0 V
21 0 V
20 0 V
20 0 V
20 0 V
21 0 V
20 0 V
20 0 V
20 0 V
21 0 V
20 0 V
20 0 V
20 0 V
21 0 V
20 0 V
20 0 V
20 0 V
21 0 V
20 0 V
20 0 V
20 0 V
21 0 V
20 0 V
20 0 V
20 0 V
21 0 V
20 0 V
20 0 V
20 0 V
21 0 V
20 1 V
20 0 V
20 0 V
21 0 V
20 0 V
20 0 V
20 0 V
21 0 V
20 0 V
20 0 V
21 0 V
20 0 V
20 1 V
20 0 V
21 0 V
20 0 V
20 0 V
20 1 V
21 0 V
20 0 V
20 1 V
20 1 V
21 1 V
20 1 V
20 2 V
20 1 V
21 3 V
20 4 V
20 5 V
20 6 V
21 6 V
20 7 V
20 6 V
20 7 V
21 9 V
20 10 V
20 12 V
20 12 V
21 16 V
40 4 V
20 0 V
21 0 V
20 0 V
20 0 V
20 0 V
21 0 V
20 0 V
20 21 V
20 37 V
21 11 V
20 -10 V
20 -11 V
21 -9 V
20 -12 V
20 -16 V
20 -11 V
21 0 V
20 0 V
20 0 V
20 0 V
21 0 V
20 0 V
20 0 V
20 0 V
21 0 V
20 0 V
20 0 V
20 0 V
21 0 V
20 0 V
20 0 V
20 0 V
21 0 V
20 0 V
20 0 V
20 0 V
21 0 V
20 0 V
20 0 V
20 0 V
21 0 V
20 0 V
20 0 V
20 0 V
21 0 V
20 0 V
20 0 V
20 0 V
41 0 V
20 0 V
21 0 V
20 0 V
20 0 V
20 0 V
21 0 V
20 0 V
20 0 V
20 0 V
21 0 V
20 0 V
20 0 V
20 0 V
21 0 V
20 0 V
20 0 V
20 0 V
21 0 V
20 0 V
20 0 V
20 0 V
21 0 V
20 0 V
20 0 V
20 0 V
21 0 V
20 0 V
20 0 V
20 0 V
21 0 V
20 0 V
20 0 V
20 0 V
21 0 V
20 0 V
20 0 V
20 0 V
21 0 V
20 0 V
stroke
LTw
% End plot #16
% Begin plot #17
3.000 UL
LTb
LCb setrgbcolor
[] 0 setdash
0.58 0.00 0.83 C
756 1357 M
20 0 V
21 0 V
20 0 V
20 0 V
20 0 V
21 0 V
20 0 V
20 0 V
20 0 V
21 0 V
20 0 V
20 0 V
20 0 V
21 0 V
20 0 V
20 0 V
20 0 V
21 0 V
20 0 V
20 0 V
20 0 V
21 0 V
20 0 V
20 0 V
20 0 V
21 0 V
20 0 V
20 0 V
20 0 V
21 0 V
20 0 V
20 0 V
20 0 V
21 0 V
20 0 V
20 0 V
20 0 V
21 0 V
20 0 V
20 0 V
21 0 V
20 0 V
20 0 V
20 0 V
21 0 V
20 -1 V
20 0 V
20 0 V
21 0 V
20 0 V
20 0 V
20 0 V
21 0 V
20 0 V
20 0 V
20 0 V
21 0 V
20 0 V
20 0 V
20 0 V
21 0 V
20 0 V
20 0 V
20 -1 V
21 0 V
20 0 V
20 0 V
20 0 V
21 -1 V
20 0 V
20 0 V
20 -1 V
21 0 V
20 0 V
20 -1 V
20 -1 V
21 0 V
20 -1 V
20 -1 V
21 -1 V
20 -1 V
20 -2 V
20 -1 V
21 -2 V
20 -2 V
20 -2 V
20 -3 V
21 -3 V
20 -3 V
20 -5 V
20 -5 V
21 -4 V
20 0 V
20 0 V
20 0 V
21 0 V
20 0 V
20 0 V
20 0 V
21 0 V
20 0 V
20 0 V
20 0 V
21 0 V
20 0 V
20 0 V
20 0 V
21 0 V
40 0 V
20 0 V
21 0 V
20 0 V
20 0 V
20 0 V
21 5 V
20 11 V
20 -6 V
20 -10 V
21 0 V
20 16 V
20 22 V
21 -7 V
20 2 V
20 9 V
20 8 V
21 2 V
20 -20 V
20 -32 V
20 0 V
21 0 V
20 0 V
20 0 V
20 0 V
21 0 V
20 13 V
20 3 V
20 -14 V
21 -2 V
20 0 V
20 0 V
20 0 V
21 0 V
20 0 V
20 0 V
20 0 V
21 0 V
20 0 V
20 0 V
20 0 V
21 0 V
20 0 V
20 0 V
20 0 V
21 0 V
20 0 V
20 0 V
20 0 V
41 0 V
20 0 V
21 0 V
20 0 V
20 0 V
20 0 V
21 0 V
20 0 V
20 0 V
20 0 V
21 0 V
20 0 V
20 0 V
20 0 V
21 0 V
20 0 V
20 0 V
20 0 V
21 0 V
20 0 V
20 0 V
20 0 V
21 0 V
20 0 V
20 0 V
20 0 V
21 0 V
20 0 V
20 0 V
20 0 V
21 0 V
20 0 V
20 0 V
20 0 V
21 0 V
20 0 V
20 0 V
20 0 V
21 0 V
20 0 V
stroke
LTw
% End plot #17
% Begin plot #18
3.000 UL
LTb
LCb setrgbcolor
[] 0 setdash
0.00 0.62 0.45 C
756 1512 M
20 0 V
21 0 V
20 0 V
20 0 V
20 0 V
21 0 V
20 0 V
20 0 V
20 0 V
21 0 V
20 0 V
20 0 V
20 0 V
21 0 V
20 0 V
20 0 V
20 0 V
21 0 V
20 0 V
20 0 V
20 0 V
21 0 V
20 0 V
20 0 V
20 0 V
21 0 V
20 0 V
20 0 V
20 0 V
21 0 V
20 0 V
20 0 V
20 0 V
21 0 V
20 0 V
20 0 V
20 0 V
21 0 V
20 0 V
20 0 V
21 0 V
20 0 V
20 0 V
20 0 V
21 0 V
20 0 V
20 0 V
20 0 V
21 0 V
20 0 V
20 0 V
20 0 V
21 -1 V
20 0 V
20 0 V
20 0 V
21 0 V
20 0 V
20 0 V
20 0 V
21 0 V
20 0 V
20 -1 V
20 0 V
21 0 V
20 0 V
20 -1 V
20 0 V
21 0 V
20 -1 V
20 0 V
20 -1 V
21 0 V
20 -1 V
20 -1 V
20 -1 V
21 -1 V
20 -1 V
20 -1 V
21 -2 V
20 -2 V
20 -2 V
20 -2 V
21 -3 V
20 -3 V
20 -3 V
20 -4 V
21 -5 V
20 -4 V
20 -4 V
20 -5 V
21 -6 V
20 -13 V
20 -16 V
20 -18 V
21 -20 V
20 -15 V
20 -15 V
20 -17 V
21 -21 V
20 -6 V
20 0 V
20 0 V
21 0 V
20 0 V
20 0 V
20 0 V
21 0 V
40 0 V
20 0 V
21 0 V
20 0 V
20 0 V
20 0 V
21 0 V
20 0 V
20 0 V
20 0 V
21 0 V
20 0 V
20 0 V
21 0 V
20 0 V
20 0 V
20 0 V
21 0 V
20 0 V
20 0 V
20 0 V
21 0 V
20 0 V
20 0 V
20 0 V
21 0 V
20 0 V
20 0 V
20 0 V
21 0 V
20 0 V
20 0 V
20 0 V
21 0 V
20 0 V
20 0 V
20 0 V
21 0 V
20 0 V
20 0 V
20 0 V
21 0 V
20 0 V
20 0 V
20 0 V
21 0 V
20 0 V
20 0 V
20 0 V
41 0 V
20 0 V
21 0 V
20 0 V
20 0 V
20 0 V
21 0 V
20 0 V
20 0 V
20 0 V
21 0 V
20 0 V
20 0 V
20 0 V
21 0 V
20 0 V
20 0 V
20 0 V
21 0 V
20 0 V
20 0 V
20 0 V
21 0 V
20 0 V
20 0 V
20 0 V
21 0 V
20 0 V
20 0 V
20 0 V
21 0 V
20 0 V
20 0 V
20 0 V
21 0 V
20 0 V
20 0 V
20 0 V
21 0 V
20 0 V
stroke
LTw
% End plot #18
% Begin plot #19
3.000 UL
LTb
LCb setrgbcolor
[] 0 setdash
0.34 0.71 0.91 C
756 1157 M
20 0 V
21 0 V
20 0 V
20 0 V
20 0 V
21 0 V
20 0 V
20 0 V
20 0 V
21 0 V
20 0 V
20 0 V
20 0 V
21 0 V
20 0 V
20 0 V
20 0 V
21 0 V
20 0 V
20 0 V
20 0 V
21 0 V
20 0 V
20 0 V
20 0 V
21 0 V
20 0 V
20 0 V
20 0 V
21 0 V
20 0 V
20 0 V
20 0 V
21 0 V
20 0 V
20 0 V
20 0 V
21 0 V
20 0 V
20 0 V
21 0 V
20 0 V
20 0 V
20 0 V
21 0 V
20 0 V
20 0 V
20 0 V
21 0 V
20 0 V
20 0 V
20 0 V
21 0 V
20 0 V
20 0 V
20 1 V
21 0 V
20 0 V
20 0 V
20 0 V
21 0 V
20 1 V
20 0 V
20 0 V
21 0 V
20 1 V
20 0 V
20 1 V
21 0 V
20 1 V
20 1 V
20 0 V
21 1 V
20 1 V
20 2 V
20 1 V
21 2 V
20 1 V
20 2 V
21 3 V
20 2 V
20 3 V
20 3 V
21 4 V
20 5 V
20 5 V
20 5 V
21 7 V
20 6 V
20 6 V
20 6 V
21 7 V
20 9 V
20 11 V
20 12 V
21 14 V
20 6 V
20 6 V
20 6 V
21 8 V
20 -9 V
20 -17 V
20 -22 V
21 -15 V
20 -11 V
20 -13 V
20 -15 V
21 -10 V
40 -7 V
20 -4 V
21 -3 V
20 2 V
20 5 V
20 6 V
21 1 V
20 -2 V
20 13 V
20 13 V
21 18 V
20 20 V
20 22 V
21 25 V
20 11 V
20 0 V
20 0 V
21 0 V
20 0 V
20 0 V
20 0 V
21 0 V
20 0 V
20 0 V
20 0 V
21 0 V
20 0 V
20 0 V
20 0 V
21 0 V
20 0 V
20 0 V
20 0 V
21 0 V
20 0 V
20 0 V
20 0 V
21 0 V
20 0 V
20 0 V
20 0 V
21 0 V
20 0 V
20 0 V
20 0 V
21 0 V
20 0 V
20 0 V
20 0 V
41 0 V
20 0 V
21 0 V
20 0 V
20 0 V
20 0 V
21 0 V
20 0 V
20 0 V
20 0 V
21 0 V
20 0 V
20 0 V
20 0 V
21 0 V
20 0 V
20 0 V
20 0 V
21 0 V
20 0 V
20 0 V
20 0 V
21 0 V
20 0 V
20 0 V
20 0 V
21 0 V
20 0 V
20 0 V
20 0 V
21 0 V
20 0 V
20 0 V
20 0 V
21 0 V
20 0 V
20 0 V
20 0 V
21 0 V
20 0 V
stroke
LTw
% End plot #19
% Begin plot #20
3.000 UL
LTb
LCb setrgbcolor
[] 0 setdash
0.90 0.62 0.00 C
756 1370 M
20 0 V
21 0 V
20 0 V
20 0 V
20 0 V
21 0 V
20 0 V
20 0 V
20 0 V
21 0 V
20 0 V
20 0 V
20 0 V
21 0 V
20 0 V
20 0 V
20 0 V
21 0 V
20 0 V
20 0 V
20 0 V
21 0 V
20 0 V
20 0 V
20 0 V
21 0 V
20 0 V
20 0 V
20 0 V
21 0 V
20 0 V
20 0 V
20 0 V
21 0 V
20 0 V
20 0 V
20 0 V
21 0 V
20 0 V
20 0 V
21 0 V
20 0 V
20 0 V
20 0 V
21 0 V
20 0 V
20 0 V
20 0 V
21 0 V
20 0 V
20 0 V
20 0 V
21 -1 V
20 0 V
20 0 V
20 0 V
21 0 V
20 0 V
20 0 V
20 0 V
21 0 V
20 -1 V
20 0 V
20 0 V
21 0 V
20 -1 V
20 0 V
20 0 V
21 -1 V
20 0 V
20 -1 V
20 -1 V
21 0 V
20 -1 V
20 -1 V
20 -2 V
21 -1 V
20 -1 V
20 -2 V
21 -2 V
20 -2 V
20 -2 V
20 -3 V
21 -3 V
20 -4 V
20 -4 V
20 -5 V
21 -5 V
20 -4 V
20 -3 V
20 -3 V
21 -1 V
20 0 V
20 0 V
20 0 V
21 0 V
20 0 V
20 0 V
20 0 V
21 0 V
20 0 V
20 0 V
20 0 V
21 0 V
20 0 V
20 0 V
20 0 V
21 0 V
40 0 V
20 0 V
21 0 V
20 0 V
20 0 V
20 0 V
21 0 V
20 0 V
20 0 V
20 0 V
21 0 V
20 0 V
20 0 V
21 0 V
20 0 V
20 0 V
20 0 V
21 0 V
20 0 V
20 0 V
20 0 V
21 0 V
20 4 V
20 3 V
20 -7 V
21 0 V
20 0 V
20 0 V
20 0 V
21 0 V
20 0 V
20 0 V
20 0 V
21 0 V
20 0 V
20 0 V
20 0 V
21 0 V
20 0 V
20 0 V
20 0 V
21 0 V
20 0 V
20 0 V
20 0 V
21 0 V
20 0 V
20 0 V
20 0 V
41 0 V
20 0 V
21 0 V
20 0 V
20 0 V
20 0 V
21 0 V
20 0 V
20 0 V
20 0 V
21 0 V
20 0 V
20 0 V
20 0 V
21 0 V
20 0 V
20 0 V
20 0 V
21 0 V
20 0 V
20 0 V
20 0 V
21 0 V
20 0 V
20 0 V
20 0 V
21 0 V
20 0 V
20 0 V
20 0 V
21 0 V
20 0 V
20 0 V
20 0 V
21 0 V
20 0 V
20 0 V
20 0 V
21 0 V
20 0 V
stroke
LTw
% End plot #20
% Begin plot #21
3.000 UL
LTb
LCb setrgbcolor
[] 0 setdash
0.94 0.89 0.26 C
756 1264 M
20 0 V
21 0 V
20 0 V
20 0 V
20 0 V
21 0 V
20 0 V
20 0 V
20 0 V
21 0 V
20 0 V
20 0 V
20 0 V
21 0 V
20 0 V
20 0 V
20 0 V
21 0 V
20 0 V
20 0 V
20 0 V
21 0 V
20 0 V
20 0 V
20 0 V
21 0 V
20 0 V
20 0 V
20 0 V
21 0 V
20 0 V
20 0 V
20 0 V
21 0 V
20 0 V
20 0 V
20 0 V
21 0 V
20 0 V
20 0 V
21 0 V
20 0 V
20 0 V
20 0 V
21 0 V
20 0 V
20 0 V
20 0 V
21 0 V
20 0 V
20 0 V
20 0 V
21 0 V
20 1 V
20 0 V
20 0 V
21 0 V
20 0 V
20 0 V
20 0 V
21 0 V
20 0 V
20 0 V
20 0 V
21 1 V
20 0 V
20 0 V
20 0 V
21 0 V
20 1 V
20 0 V
20 0 V
21 1 V
20 0 V
20 1 V
20 1 V
21 0 V
20 1 V
20 1 V
21 1 V
20 1 V
20 2 V
20 1 V
21 2 V
20 2 V
20 2 V
20 3 V
21 2 V
20 3 V
20 2 V
20 2 V
21 2 V
20 1 V
20 1 V
20 2 V
21 2 V
20 2 V
20 3 V
20 3 V
21 2 V
20 2 V
20 8 V
20 11 V
21 10 V
20 9 V
20 10 V
20 12 V
21 12 V
40 29 V
20 17 V
21 18 V
20 18 V
20 19 V
20 23 V
21 22 V
20 -9 V
20 -8 V
20 -9 V
21 -10 V
20 -11 V
20 -12 V
21 -15 V
20 -9 V
20 -6 V
20 -7 V
21 -7 V
20 -14 V
20 -16 V
20 -17 V
21 -21 V
20 -26 V
20 -21 V
20 0 V
21 0 V
20 0 V
20 0 V
20 0 V
21 0 V
20 0 V
20 0 V
20 0 V
21 0 V
20 0 V
20 0 V
20 0 V
21 0 V
20 0 V
20 0 V
20 0 V
21 0 V
20 0 V
20 0 V
20 0 V
21 0 V
20 0 V
20 0 V
20 0 V
41 0 V
20 0 V
21 0 V
20 0 V
20 0 V
20 0 V
21 0 V
20 0 V
20 0 V
20 0 V
21 0 V
20 0 V
20 0 V
20 0 V
21 0 V
20 0 V
20 0 V
20 0 V
21 0 V
20 0 V
20 0 V
20 0 V
21 0 V
20 0 V
20 0 V
20 0 V
21 0 V
20 0 V
20 0 V
20 0 V
21 0 V
20 0 V
20 0 V
20 0 V
21 0 V
20 0 V
20 0 V
20 0 V
21 0 V
20 0 V
stroke
LTw
% End plot #21
2.000 UL
LTb
LCb setrgbcolor
[] 0 setdash
1.000 UL
LTb
756 2212 N
756 417 L
4031 0 V
0 1795 V
-4031 0 V
Z stroke
1.000 UP
1.000 UL
LTb
stroke
grestore
end
showpage
%%Trailer
