# Number of points:  300000
# Noise:  0.1
#
# -- OLS simple --
#
#
# Max order	R2	MSE
1	0.6405582005787696	0.03313975424552603
2	0.7097917886782008	0.02675656759654553
3	0.8090382165333304	0.017606262222598357
4	0.8489416730030048	0.013927250090227127
5	0.8701538486865943	0.01197153350328874
