# Number of points:  90000
# Noise:  0.1
#
# -- OLS with cross validation --
# Nsplits =  3
#
# Max order	R2	MSE
1	0.6411733720808339	0.03315333273433744
2	0.7103618587567174	0.026760055785996027
3	0.8092307974069852	0.017625716047158946
4	0.8484210981423878	0.014004719657294794
5	0.8699167405157717	0.012018368985281717
