# Number of points:  80000
# Noise:  0.1
#
# -- OLS with cross validation --
# Nsplits =  3
#
# Max order	R2	MSE
1	0.6395195131018444	0.03314066089417427
2	0.7093835395715254	0.02671773007195291
3	0.80890919401925	0.01756794352289547
4	0.8482503333173431	0.013950900376489704
5	0.8691213541601241	0.01203216686883079
