# Number of points:  350000
# Noise:  0.1
#
# -- OLS simple --
#
#
# Max order	R2	MSE
1	0.6426868500204872	0.033042256487764356
2	0.7102750738050345	0.02679208790043562
3	0.8096155017599638	0.017605658852752237
4	0.8494917629989998	0.013918132514276114
5	0.8705469262593498	0.011971072617711631
