1	0.6469784255543373	0.03164170896692147
2	0.7082458179627582	0.026159615512744996
3	0.8076232282716695	0.017237355035981405
4	0.8462541226597698	0.013768031016919896
5	0.868189290624477	0.011807238383650193
