1	0.6447259182747034	0.03416530194814405
2	0.7150742684464086	0.0274001796135841
3	0.8156040091120998	0.017732632440053818
4	0.8529974205315585	0.014136656100285791
5	0.8751100725548261	0.01201016989678803
