# Number of points:  12000
# Noise:  0.1
#
# -- OLS with cross validation --
# Nsplits =  3
#
# Max order	R2	MSE
1	0.6449115031705879	0.032806047083087375
2	0.7103451990703104	0.026755936905917228
3	0.8084603145286181	0.017692209485476985
4	0.8463556104057938	0.014190489004591689
5	0.8682605930352008	0.012167179016291595
