# Number of points:  140000
# Noise:  0.1
#
# -- OLS with cross validation --
# Nsplits =  3
#
# Max order	R2	MSE
1	0.6419719530672255	0.03302270236834969
2	0.7098703750130276	0.026760188395176836
3	0.8079915319213127	0.017709827322188128
4	0.8486462487836627	0.013960035088154915
5	0.8700996583852842	0.011981415877772452
