# Number of points:  400000
# Noise:  0.1
#
# -- OLS simple --
#
#
# Max order	R2	MSE
1	0.6424527617068405	0.033095882891793535
2	0.7105924326456554	0.02678862519784001
3	0.80977177041799	0.017608222172303286
4	0.8494726768708944	0.013933360755569158
5	0.870573640535678	0.011980178217543025
