# Number of points:  160000
# Noise:  0.1
#
# -- OLS with cross validation --
# Nsplits =  3
#
# Max order	R2	MSE
1	0.6403992523962313	0.033154580796699064
2	0.708290311540051	0.026895375272191536
3	0.8080561386040036	0.017697122342722083
4	0.8485216520531339	0.013966297237890973
5	0.8697372665019593	0.012010167218527759
