# Number of points:  100000
# Noise:  0.1
#
# -- OLS with cross validation --
# Nsplits =  11
#
# Max order	R2	MSE
1	0.6422421871214702	0.03293755844841393
2	0.709063193396108	0.02678330308460528
3	0.8090007049649443	0.01758342199253901
4	0.8491806922208954	0.013884157817519192
5	0.8702168681711927	0.011947547672391345
6	0.879796377734326	0.011065513078424592
7	0.8857944482982071	0.010512871020171812
