1	0.6467347705405254	0.03194647804300389
2	0.7095744362185915	0.026242053310652203
3	0.8058476893923706	0.01754226069620161
4	0.8532215541375964	0.013238877643933089
5	0.8742458333609152	0.01134284808565915
6	0.8824807758711785	0.010606115383570161
7	0.8890138473081147	0.010006758694945297
