%!PS-Adobe-2.0 EPSF-2.0
%%Title: df-nn.tex
%%Creator: gnuplot 5.2 patchlevel 6
%%CreationDate: Mon Feb 11 20:10:16 2019
%%DocumentFonts: 
%%BoundingBox: 50 50 482 446
%%EndComments
%%BeginProlog
/gnudict 256 dict def
gnudict begin
%
% The following true/false flags may be edited by hand if desired.
% The unit line width and grayscale image gamma correction may also be changed.
%
/Color true def
/Blacktext false def
/Solid false def
/Dashlength 1 def
/Landscape false def
/Level1 false def
/Level3 false def
/Rounded false def
/ClipToBoundingBox false def
/SuppressPDFMark false def
/TransparentPatterns false def
/gnulinewidth 5.000 def
/userlinewidth gnulinewidth def
/Gamma 1.0 def
/BackgroundColor {-1.000 -1.000 -1.000} def
%
/vshift -73 def
/dl1 {
  10.0 Dashlength userlinewidth gnulinewidth div mul mul mul
  Rounded { currentlinewidth 0.75 mul sub dup 0 le { pop 0.01 } if } if
} def
/dl2 {
  10.0 Dashlength userlinewidth gnulinewidth div mul mul mul
  Rounded { currentlinewidth 0.75 mul add } if
} def
/hpt_ 31.5 def
/vpt_ 31.5 def
/hpt hpt_ def
/vpt vpt_ def
/doclip {
  ClipToBoundingBox {
    newpath 50 50 moveto 482 50 lineto 482 446 lineto 50 446 lineto closepath
    clip
  } if
} def
%
% Gnuplot Prolog Version 5.2 (Dec 2017)
%
%/SuppressPDFMark true def
%
/M {moveto} bind def
/L {lineto} bind def
/R {rmoveto} bind def
/V {rlineto} bind def
/N {newpath moveto} bind def
/Z {closepath} bind def
/C {setrgbcolor} bind def
/f {rlineto fill} bind def
/g {setgray} bind def
/Gshow {show} def   % May be redefined later in the file to support UTF-8
/vpt2 vpt 2 mul def
/hpt2 hpt 2 mul def
/Lshow {currentpoint stroke M 0 vshift R 
	Blacktext {gsave 0 setgray textshow grestore} {textshow} ifelse} def
/Rshow {currentpoint stroke M dup stringwidth pop neg vshift R
	Blacktext {gsave 0 setgray textshow grestore} {textshow} ifelse} def
/Cshow {currentpoint stroke M dup stringwidth pop -2 div vshift R 
	Blacktext {gsave 0 setgray textshow grestore} {textshow} ifelse} def
/UP {dup vpt_ mul /vpt exch def hpt_ mul /hpt exch def
  /hpt2 hpt 2 mul def /vpt2 vpt 2 mul def} def
/DL {Color {setrgbcolor Solid {pop []} if 0 setdash}
 {pop pop pop 0 setgray Solid {pop []} if 0 setdash} ifelse} def
/BL {stroke userlinewidth 2 mul setlinewidth
	Rounded {1 setlinejoin 1 setlinecap} if} def
/AL {stroke userlinewidth 2 div setlinewidth
	Rounded {1 setlinejoin 1 setlinecap} if} def
/UL {dup gnulinewidth mul /userlinewidth exch def
	dup 1 lt {pop 1} if 10 mul /udl exch def} def
/PL {stroke userlinewidth setlinewidth
	Rounded {1 setlinejoin 1 setlinecap} if} def
3.8 setmiterlimit
% Classic Line colors (version 5.0)
/LCw {1 1 1} def
/LCb {0 0 0} def
/LCa {0 0 0} def
/LC0 {1 0 0} def
/LC1 {0 1 0} def
/LC2 {0 0 1} def
/LC3 {1 0 1} def
/LC4 {0 1 1} def
/LC5 {1 1 0} def
/LC6 {0 0 0} def
/LC7 {1 0.3 0} def
/LC8 {0.5 0.5 0.5} def
% Default dash patterns (version 5.0)
/LTB {BL [] LCb DL} def
/LTw {PL [] 1 setgray} def
/LTb {PL [] LCb DL} def
/LTa {AL [1 udl mul 2 udl mul] 0 setdash LCa setrgbcolor} def
/LT0 {PL [] LC0 DL} def
/LT1 {PL [2 dl1 3 dl2] LC1 DL} def
/LT2 {PL [1 dl1 1.5 dl2] LC2 DL} def
/LT3 {PL [6 dl1 2 dl2 1 dl1 2 dl2] LC3 DL} def
/LT4 {PL [1 dl1 2 dl2 6 dl1 2 dl2 1 dl1 2 dl2] LC4 DL} def
/LT5 {PL [4 dl1 2 dl2] LC5 DL} def
/LT6 {PL [1.5 dl1 1.5 dl2 1.5 dl1 1.5 dl2 1.5 dl1 6 dl2] LC6 DL} def
/LT7 {PL [3 dl1 3 dl2 1 dl1 3 dl2] LC7 DL} def
/LT8 {PL [2 dl1 2 dl2 2 dl1 6 dl2] LC8 DL} def
/SL {[] 0 setdash} def
/Pnt {stroke [] 0 setdash gsave 1 setlinecap M 0 0 V stroke grestore} def
/Dia {stroke [] 0 setdash 2 copy vpt add M
  hpt neg vpt neg V hpt vpt neg V
  hpt vpt V hpt neg vpt V closepath stroke
  Pnt} def
/Pls {stroke [] 0 setdash vpt sub M 0 vpt2 V
  currentpoint stroke M
  hpt neg vpt neg R hpt2 0 V stroke
 } def
/Box {stroke [] 0 setdash 2 copy exch hpt sub exch vpt add M
  0 vpt2 neg V hpt2 0 V 0 vpt2 V
  hpt2 neg 0 V closepath stroke
  Pnt} def
/Crs {stroke [] 0 setdash exch hpt sub exch vpt add M
  hpt2 vpt2 neg V currentpoint stroke M
  hpt2 neg 0 R hpt2 vpt2 V stroke} def
/TriU {stroke [] 0 setdash 2 copy vpt 1.12 mul add M
  hpt neg vpt -1.62 mul V
  hpt 2 mul 0 V
  hpt neg vpt 1.62 mul V closepath stroke
  Pnt} def
/Star {2 copy Pls Crs} def
/BoxF {stroke [] 0 setdash exch hpt sub exch vpt add M
  0 vpt2 neg V hpt2 0 V 0 vpt2 V
  hpt2 neg 0 V closepath fill} def
/TriUF {stroke [] 0 setdash vpt 1.12 mul add M
  hpt neg vpt -1.62 mul V
  hpt 2 mul 0 V
  hpt neg vpt 1.62 mul V closepath fill} def
/TriD {stroke [] 0 setdash 2 copy vpt 1.12 mul sub M
  hpt neg vpt 1.62 mul V
  hpt 2 mul 0 V
  hpt neg vpt -1.62 mul V closepath stroke
  Pnt} def
/TriDF {stroke [] 0 setdash vpt 1.12 mul sub M
  hpt neg vpt 1.62 mul V
  hpt 2 mul 0 V
  hpt neg vpt -1.62 mul V closepath fill} def
/DiaF {stroke [] 0 setdash vpt add M
  hpt neg vpt neg V hpt vpt neg V
  hpt vpt V hpt neg vpt V closepath fill} def
/Pent {stroke [] 0 setdash 2 copy gsave
  translate 0 hpt M 4 {72 rotate 0 hpt L} repeat
  closepath stroke grestore Pnt} def
/PentF {stroke [] 0 setdash gsave
  translate 0 hpt M 4 {72 rotate 0 hpt L} repeat
  closepath fill grestore} def
/Circle {stroke [] 0 setdash 2 copy
  hpt 0 360 arc stroke Pnt} def
/CircleF {stroke [] 0 setdash hpt 0 360 arc fill} def
/C0 {BL [] 0 setdash 2 copy moveto vpt 90 450 arc} bind def
/C1 {BL [] 0 setdash 2 copy moveto
	2 copy vpt 0 90 arc closepath fill
	vpt 0 360 arc closepath} bind def
/C2 {BL [] 0 setdash 2 copy moveto
	2 copy vpt 90 180 arc closepath fill
	vpt 0 360 arc closepath} bind def
/C3 {BL [] 0 setdash 2 copy moveto
	2 copy vpt 0 180 arc closepath fill
	vpt 0 360 arc closepath} bind def
/C4 {BL [] 0 setdash 2 copy moveto
	2 copy vpt 180 270 arc closepath fill
	vpt 0 360 arc closepath} bind def
/C5 {BL [] 0 setdash 2 copy moveto
	2 copy vpt 0 90 arc
	2 copy moveto
	2 copy vpt 180 270 arc closepath fill
	vpt 0 360 arc} bind def
/C6 {BL [] 0 setdash 2 copy moveto
	2 copy vpt 90 270 arc closepath fill
	vpt 0 360 arc closepath} bind def
/C7 {BL [] 0 setdash 2 copy moveto
	2 copy vpt 0 270 arc closepath fill
	vpt 0 360 arc closepath} bind def
/C8 {BL [] 0 setdash 2 copy moveto
	2 copy vpt 270 360 arc closepath fill
	vpt 0 360 arc closepath} bind def
/C9 {BL [] 0 setdash 2 copy moveto
	2 copy vpt 270 450 arc closepath fill
	vpt 0 360 arc closepath} bind def
/C10 {BL [] 0 setdash 2 copy 2 copy moveto vpt 270 360 arc closepath fill
	2 copy moveto
	2 copy vpt 90 180 arc closepath fill
	vpt 0 360 arc closepath} bind def
/C11 {BL [] 0 setdash 2 copy moveto
	2 copy vpt 0 180 arc closepath fill
	2 copy moveto
	2 copy vpt 270 360 arc closepath fill
	vpt 0 360 arc closepath} bind def
/C12 {BL [] 0 setdash 2 copy moveto
	2 copy vpt 180 360 arc closepath fill
	vpt 0 360 arc closepath} bind def
/C13 {BL [] 0 setdash 2 copy moveto
	2 copy vpt 0 90 arc closepath fill
	2 copy moveto
	2 copy vpt 180 360 arc closepath fill
	vpt 0 360 arc closepath} bind def
/C14 {BL [] 0 setdash 2 copy moveto
	2 copy vpt 90 360 arc closepath fill
	vpt 0 360 arc} bind def
/C15 {BL [] 0 setdash 2 copy vpt 0 360 arc closepath fill
	vpt 0 360 arc closepath} bind def
/Rec {newpath 4 2 roll moveto 1 index 0 rlineto 0 exch rlineto
	neg 0 rlineto closepath} bind def
/Square {dup Rec} bind def
/Bsquare {vpt sub exch vpt sub exch vpt2 Square} bind def
/S0 {BL [] 0 setdash 2 copy moveto 0 vpt rlineto BL Bsquare} bind def
/S1 {BL [] 0 setdash 2 copy vpt Square fill Bsquare} bind def
/S2 {BL [] 0 setdash 2 copy exch vpt sub exch vpt Square fill Bsquare} bind def
/S3 {BL [] 0 setdash 2 copy exch vpt sub exch vpt2 vpt Rec fill Bsquare} bind def
/S4 {BL [] 0 setdash 2 copy exch vpt sub exch vpt sub vpt Square fill Bsquare} bind def
/S5 {BL [] 0 setdash 2 copy 2 copy vpt Square fill
	exch vpt sub exch vpt sub vpt Square fill Bsquare} bind def
/S6 {BL [] 0 setdash 2 copy exch vpt sub exch vpt sub vpt vpt2 Rec fill Bsquare} bind def
/S7 {BL [] 0 setdash 2 copy exch vpt sub exch vpt sub vpt vpt2 Rec fill
	2 copy vpt Square fill Bsquare} bind def
/S8 {BL [] 0 setdash 2 copy vpt sub vpt Square fill Bsquare} bind def
/S9 {BL [] 0 setdash 2 copy vpt sub vpt vpt2 Rec fill Bsquare} bind def
/S10 {BL [] 0 setdash 2 copy vpt sub vpt Square fill 2 copy exch vpt sub exch vpt Square fill
	Bsquare} bind def
/S11 {BL [] 0 setdash 2 copy vpt sub vpt Square fill 2 copy exch vpt sub exch vpt2 vpt Rec fill
	Bsquare} bind def
/S12 {BL [] 0 setdash 2 copy exch vpt sub exch vpt sub vpt2 vpt Rec fill Bsquare} bind def
/S13 {BL [] 0 setdash 2 copy exch vpt sub exch vpt sub vpt2 vpt Rec fill
	2 copy vpt Square fill Bsquare} bind def
/S14 {BL [] 0 setdash 2 copy exch vpt sub exch vpt sub vpt2 vpt Rec fill
	2 copy exch vpt sub exch vpt Square fill Bsquare} bind def
/S15 {BL [] 0 setdash 2 copy Bsquare fill Bsquare} bind def
/D0 {gsave translate 45 rotate 0 0 S0 stroke grestore} bind def
/D1 {gsave translate 45 rotate 0 0 S1 stroke grestore} bind def
/D2 {gsave translate 45 rotate 0 0 S2 stroke grestore} bind def
/D3 {gsave translate 45 rotate 0 0 S3 stroke grestore} bind def
/D4 {gsave translate 45 rotate 0 0 S4 stroke grestore} bind def
/D5 {gsave translate 45 rotate 0 0 S5 stroke grestore} bind def
/D6 {gsave translate 45 rotate 0 0 S6 stroke grestore} bind def
/D7 {gsave translate 45 rotate 0 0 S7 stroke grestore} bind def
/D8 {gsave translate 45 rotate 0 0 S8 stroke grestore} bind def
/D9 {gsave translate 45 rotate 0 0 S9 stroke grestore} bind def
/D10 {gsave translate 45 rotate 0 0 S10 stroke grestore} bind def
/D11 {gsave translate 45 rotate 0 0 S11 stroke grestore} bind def
/D12 {gsave translate 45 rotate 0 0 S12 stroke grestore} bind def
/D13 {gsave translate 45 rotate 0 0 S13 stroke grestore} bind def
/D14 {gsave translate 45 rotate 0 0 S14 stroke grestore} bind def
/D15 {gsave translate 45 rotate 0 0 S15 stroke grestore} bind def
/DiaE {stroke [] 0 setdash vpt add M
  hpt neg vpt neg V hpt vpt neg V
  hpt vpt V hpt neg vpt V closepath stroke} def
/BoxE {stroke [] 0 setdash exch hpt sub exch vpt add M
  0 vpt2 neg V hpt2 0 V 0 vpt2 V
  hpt2 neg 0 V closepath stroke} def
/TriUE {stroke [] 0 setdash vpt 1.12 mul add M
  hpt neg vpt -1.62 mul V
  hpt 2 mul 0 V
  hpt neg vpt 1.62 mul V closepath stroke} def
/TriDE {stroke [] 0 setdash vpt 1.12 mul sub M
  hpt neg vpt 1.62 mul V
  hpt 2 mul 0 V
  hpt neg vpt -1.62 mul V closepath stroke} def
/PentE {stroke [] 0 setdash gsave
  translate 0 hpt M 4 {72 rotate 0 hpt L} repeat
  closepath stroke grestore} def
/CircE {stroke [] 0 setdash 
  hpt 0 360 arc stroke} def
/Opaque {gsave closepath 1 setgray fill grestore 0 setgray closepath} def
/DiaW {stroke [] 0 setdash vpt add M
  hpt neg vpt neg V hpt vpt neg V
  hpt vpt V hpt neg vpt V Opaque stroke} def
/BoxW {stroke [] 0 setdash exch hpt sub exch vpt add M
  0 vpt2 neg V hpt2 0 V 0 vpt2 V
  hpt2 neg 0 V Opaque stroke} def
/TriUW {stroke [] 0 setdash vpt 1.12 mul add M
  hpt neg vpt -1.62 mul V
  hpt 2 mul 0 V
  hpt neg vpt 1.62 mul V Opaque stroke} def
/TriDW {stroke [] 0 setdash vpt 1.12 mul sub M
  hpt neg vpt 1.62 mul V
  hpt 2 mul 0 V
  hpt neg vpt -1.62 mul V Opaque stroke} def
/PentW {stroke [] 0 setdash gsave
  translate 0 hpt M 4 {72 rotate 0 hpt L} repeat
  Opaque stroke grestore} def
/CircW {stroke [] 0 setdash 
  hpt 0 360 arc Opaque stroke} def
/BoxFill {gsave Rec 1 setgray fill grestore} def
/Density {
  /Fillden exch def
  currentrgbcolor
  /ColB exch def /ColG exch def /ColR exch def
  /ColR ColR Fillden mul Fillden sub 1 add def
  /ColG ColG Fillden mul Fillden sub 1 add def
  /ColB ColB Fillden mul Fillden sub 1 add def
  ColR ColG ColB setrgbcolor} def
/BoxColFill {gsave Rec PolyFill} def
/PolyFill {gsave Density fill grestore grestore} def
/h {rlineto rlineto rlineto closepath gsave fill grestore stroke} bind def
%
% PostScript Level 1 Pattern Fill routine for rectangles
% Usage: x y w h s a XX PatternFill
%	x,y = lower left corner of box to be filled
%	w,h = width and height of box
%	  a = angle in degrees between lines and x-axis
%	 XX = 0/1 for no/yes cross-hatch
%
/PatternFill {gsave /PFa [ 9 2 roll ] def
  PFa 0 get PFa 2 get 2 div add PFa 1 get PFa 3 get 2 div add translate
  PFa 2 get -2 div PFa 3 get -2 div PFa 2 get PFa 3 get Rec
  TransparentPatterns {} {gsave 1 setgray fill grestore} ifelse
  clip
  currentlinewidth 0.5 mul setlinewidth
  /PFs PFa 2 get dup mul PFa 3 get dup mul add sqrt def
  0 0 M PFa 5 get rotate PFs -2 div dup translate
  0 1 PFs PFa 4 get div 1 add floor cvi
	{PFa 4 get mul 0 M 0 PFs V} for
  0 PFa 6 get ne {
	0 1 PFs PFa 4 get div 1 add floor cvi
	{PFa 4 get mul 0 2 1 roll M PFs 0 V} for
 } if
  stroke grestore} def
%
/languagelevel where
 {pop languagelevel} {1} ifelse
dup 2 lt
	{/InterpretLevel1 true def
	 /InterpretLevel3 false def}
	{/InterpretLevel1 Level1 def
	 2 gt
	    {/InterpretLevel3 Level3 def}
	    {/InterpretLevel3 false def}
	 ifelse }
 ifelse
%
% PostScript level 2 pattern fill definitions
%
/Level2PatternFill {
/Tile8x8 {/PaintType 2 /PatternType 1 /TilingType 1 /BBox [0 0 8 8] /XStep 8 /YStep 8}
	bind def
/KeepColor {currentrgbcolor [/Pattern /DeviceRGB] setcolorspace} bind def
<< Tile8x8
 /PaintProc {0.5 setlinewidth pop 0 0 M 8 8 L 0 8 M 8 0 L stroke} 
>> matrix makepattern
/Pat1 exch def
<< Tile8x8
 /PaintProc {0.5 setlinewidth pop 0 0 M 8 8 L 0 8 M 8 0 L stroke
	0 4 M 4 8 L 8 4 L 4 0 L 0 4 L stroke}
>> matrix makepattern
/Pat2 exch def
<< Tile8x8
 /PaintProc {0.5 setlinewidth pop 0 0 M 0 8 L
	8 8 L 8 0 L 0 0 L fill}
>> matrix makepattern
/Pat3 exch def
<< Tile8x8
 /PaintProc {0.5 setlinewidth pop -4 8 M 8 -4 L
	0 12 M 12 0 L stroke}
>> matrix makepattern
/Pat4 exch def
<< Tile8x8
 /PaintProc {0.5 setlinewidth pop -4 0 M 8 12 L
	0 -4 M 12 8 L stroke}
>> matrix makepattern
/Pat5 exch def
<< Tile8x8
 /PaintProc {0.5 setlinewidth pop -2 8 M 4 -4 L
	0 12 M 8 -4 L 4 12 M 10 0 L stroke}
>> matrix makepattern
/Pat6 exch def
<< Tile8x8
 /PaintProc {0.5 setlinewidth pop -2 0 M 4 12 L
	0 -4 M 8 12 L 4 -4 M 10 8 L stroke}
>> matrix makepattern
/Pat7 exch def
<< Tile8x8
 /PaintProc {0.5 setlinewidth pop 8 -2 M -4 4 L
	12 0 M -4 8 L 12 4 M 0 10 L stroke}
>> matrix makepattern
/Pat8 exch def
<< Tile8x8
 /PaintProc {0.5 setlinewidth pop 0 -2 M 12 4 L
	-4 0 M 12 8 L -4 4 M 8 10 L stroke}
>> matrix makepattern
/Pat9 exch def
/Pattern1 {PatternBgnd KeepColor Pat1 setpattern} bind def
/Pattern2 {PatternBgnd KeepColor Pat2 setpattern} bind def
/Pattern3 {PatternBgnd KeepColor Pat3 setpattern} bind def
/Pattern4 {PatternBgnd KeepColor Landscape {Pat5} {Pat4} ifelse setpattern} bind def
/Pattern5 {PatternBgnd KeepColor Landscape {Pat4} {Pat5} ifelse setpattern} bind def
/Pattern6 {PatternBgnd KeepColor Landscape {Pat9} {Pat6} ifelse setpattern} bind def
/Pattern7 {PatternBgnd KeepColor Landscape {Pat8} {Pat7} ifelse setpattern} bind def
} def
%
%
%End of PostScript Level 2 code
%
/PatternBgnd {
  TransparentPatterns {} {gsave 1 setgray fill grestore} ifelse
} def
%
% Substitute for Level 2 pattern fill codes with
% grayscale if Level 2 support is not selected.
%
/Level1PatternFill {
/Pattern1 {0.250 Density} bind def
/Pattern2 {0.500 Density} bind def
/Pattern3 {0.750 Density} bind def
/Pattern4 {0.125 Density} bind def
/Pattern5 {0.375 Density} bind def
/Pattern6 {0.625 Density} bind def
/Pattern7 {0.875 Density} bind def
} def
%
% Now test for support of Level 2 code
%
Level1 {Level1PatternFill} {Level2PatternFill} ifelse
%
/Symbol-Oblique /Symbol findfont [1 0 .167 1 0 0] makefont
dup length dict begin {1 index /FID eq {pop pop} {def} ifelse} forall
currentdict end definefont pop
%
Level1 SuppressPDFMark or 
{} {
/SDict 10 dict def
systemdict /pdfmark known not {
  userdict /pdfmark systemdict /cleartomark get put
} if
SDict begin [
  /Title (df-nn.tex)
  /Subject (gnuplot plot)
  /Creator (gnuplot 5.2 patchlevel 6)
%  /Producer (gnuplot)
%  /Keywords ()
  /CreationDate (Mon Feb 11 20:10:16 2019)
  /DOCINFO pdfmark
end
} ifelse
%
% Support for boxed text - Ethan A Merritt Sep 2016
%
/InitTextBox { userdict /TBy2 3 -1 roll put userdict /TBx2 3 -1 roll put
           userdict /TBy1 3 -1 roll put userdict /TBx1 3 -1 roll put
	   /Boxing true def } def
/ExtendTextBox { dup type /stringtype eq
    { Boxing { gsave dup false charpath pathbbox
      dup TBy2 gt {userdict /TBy2 3 -1 roll put} {pop} ifelse
      dup TBx2 gt {userdict /TBx2 3 -1 roll put} {pop} ifelse
      dup TBy1 lt {userdict /TBy1 3 -1 roll put} {pop} ifelse
      dup TBx1 lt {userdict /TBx1 3 -1 roll put} {pop} ifelse
      grestore } if }
    {} ifelse} def
/PopTextBox { newpath TBx1 TBxmargin sub TBy1 TBymargin sub M
               TBx1 TBxmargin sub TBy2 TBymargin add L
	       TBx2 TBxmargin add TBy2 TBymargin add L
	       TBx2 TBxmargin add TBy1 TBymargin sub L closepath } def
/DrawTextBox { PopTextBox stroke /Boxing false def} def
/FillTextBox { gsave PopTextBox fill grestore /Boxing false def} def
0 0 0 0 InitTextBox
/TBxmargin 20 def
/TBymargin 20 def
/Boxing false def
/textshow { ExtendTextBox Gshow } def
%
end
%%EndProlog
%%Page: 1 1
gnudict begin
gsave
doclip
50 50 translate
0.050 0.050 scale
0 setgray
newpath
1.000 UL
LTb
LCb setrgbcolor
[] 0 setdash
1296 5555 M
63 0 V
3392 0 R
-63 0 V
stroke
LTb
1296 6403 M
63 0 V
3392 0 R
-63 0 V
stroke
1296 7251 M
63 0 V
3392 0 R
-63 0 V
stroke
1296 5385 M
0 63 V
0 2312 R
0 -63 V
stroke
1987 5385 M
0 63 V
0 2312 R
0 -63 V
stroke
2678 5385 M
0 63 V
0 2312 R
0 -63 V
stroke
3369 5385 M
0 63 V
0 2312 R
0 -63 V
stroke
4060 5385 M
0 63 V
0 2312 R
0 -63 V
stroke
4751 5385 M
0 63 V
0 2312 R
0 -63 V
stroke
1.000 UL
LTb
1296 7760 N
0 -2375 V
3455 0 V
0 2375 V
-3455 0 V
Z stroke
1.000 UP
1.000 UL
LTb
1.000 UL
LTb
3236 7367 N
0 330 V
1383 0 V
0 -330 V
-1383 0 V
Z stroke
% Begin plot #1
15.000 UL
LTb
0.90 0.12 0.06 C
1642 6363 Pnt
1987 6324 Pnt
2333 6286 Pnt
2678 6250 Pnt
3024 6216 Pnt
3369 6184 Pnt
3715 6153 Pnt
4060 6124 Pnt
4406 6096 Pnt
LTw
% End plot #1
% Begin plot #2
3.000 UL
LTb
LCb setrgbcolor
[] 0 setdash
0.90 0.12 0.06 C
1642 6363 M
345 -39 V
346 -38 V
345 -36 V
346 -34 V
345 -32 V
346 -31 V
345 -29 V
346 -28 V
stroke
LTw
% End plot #2
% Begin plot #3
15.000 UL
LTb
LCb setrgbcolor
[] 0 setdash
0.34 0.71 0.91 C
1642 5568 Pnt
1987 5568 Pnt
2333 5567 Pnt
2678 5566 Pnt
3024 5566 Pnt
3369 5565 Pnt
3715 5565 Pnt
4060 5564 Pnt
4406 5564 Pnt
LTw
% End plot #3
% Begin plot #4
3.000 UL
LTb
LCb setrgbcolor
[] 0 setdash
0.34 0.71 0.91 C
1642 5568 M
345 0 V
346 -1 V
345 -1 V
346 0 V
345 -1 V
346 0 V
345 -1 V
346 0 V
stroke
LTw
% End plot #4
% Begin plot #5
3.000 UL
LTb
LCb setrgbcolor
LT2
0.00 0.00 0.00 C
1296 7251 M
35 0 V
35 0 V
35 0 V
35 0 V
34 0 V
35 0 V
35 0 V
35 0 V
35 0 V
35 0 V
35 0 V
35 0 V
35 0 V
35 0 V
34 0 V
35 0 V
35 0 V
35 0 V
35 0 V
35 0 V
35 0 V
35 0 V
35 0 V
35 0 V
34 0 V
35 0 V
35 0 V
35 0 V
35 0 V
35 0 V
35 0 V
35 0 V
35 0 V
35 0 V
34 0 V
35 0 V
35 0 V
35 0 V
35 0 V
35 0 V
35 0 V
35 0 V
35 0 V
35 0 V
34 0 V
35 0 V
35 0 V
35 0 V
35 0 V
35 0 V
35 0 V
35 0 V
35 0 V
35 0 V
34 0 V
35 0 V
35 0 V
35 0 V
35 0 V
35 0 V
35 0 V
35 0 V
35 0 V
35 0 V
34 0 V
35 0 V
35 0 V
35 0 V
35 0 V
35 0 V
35 0 V
35 0 V
35 0 V
35 0 V
34 0 V
35 0 V
35 0 V
35 0 V
35 0 V
35 0 V
35 0 V
35 0 V
35 0 V
35 0 V
34 0 V
35 0 V
35 0 V
35 0 V
35 0 V
35 0 V
35 0 V
35 0 V
35 0 V
35 0 V
34 0 V
35 0 V
35 0 V
35 0 V
35 0 V
stroke
LTw
% End plot #5
LCw setrgbcolor
1.000 3236 7367 1383 330 BoxColFill
1.000 UL
LTb
LCb setrgbcolor
[] 0 setdash
3236 7367 N
0 330 V
1383 0 V
0 -330 V
-1383 0 V
Z stroke
% Begin plot #6
15.000 UL
LTb
0.90 0.12 0.06 C
LTw
% End plot #6
% Begin plot #7
3.000 UL
LTb
LCb setrgbcolor
[] 0 setdash
0.90 0.12 0.06 C
LCb setrgbcolor
3.000 UL
LTb
0.90 0.12 0.06 C
3896 7614 M
591 0 V
stroke
LTw
% End plot #7
% Begin plot #8
15.000 UL
LTb
LCb setrgbcolor
[] 0 setdash
0.34 0.71 0.91 C
LTw
% End plot #8
% Begin plot #9
3.000 UL
LTb
LCb setrgbcolor
[] 0 setdash
0.34 0.71 0.91 C
LCb setrgbcolor
3.000 UL
LTb
0.34 0.71 0.91 C
3896 7449 M
591 0 V
stroke
LTw
% End plot #9
% Begin plot #10
3.000 UL
LTb
LCb setrgbcolor
LT2
0.00 0.00 0.00 C
LTw
% End plot #10
2.000 UL
LTb
LCb setrgbcolor
[] 0 setdash
1.000 UL
LTb
1296 7760 N
0 -2375 V
3455 0 V
0 2375 V
-3455 0 V
Z stroke
1.000 UP
1.000 UL
LTb
1.000 UL
LTb
4752 5555 M
63 0 V
3392 0 R
-63 0 V
stroke
4752 6403 M
63 0 V
3392 0 R
-63 0 V
stroke
4752 7251 M
63 0 V
3392 0 R
-63 0 V
stroke
4752 5385 M
0 63 V
0 2312 R
0 -63 V
stroke
5443 5385 M
0 63 V
0 2312 R
0 -63 V
stroke
6134 5385 M
0 63 V
0 2312 R
0 -63 V
stroke
6825 5385 M
0 63 V
0 2312 R
0 -63 V
stroke
7516 5385 M
0 63 V
0 2312 R
0 -63 V
stroke
8207 5385 M
0 63 V
0 2312 R
0 -63 V
stroke
1.000 UL
LTb
4752 7760 N
0 -2375 V
3455 0 V
0 2375 V
-3455 0 V
Z stroke
1.000 UP
1.000 UL
LTb
1.000 UL
LTb
6692 7367 N
0 330 V
1383 0 V
0 -330 V
-1383 0 V
Z stroke
% Begin plot #1
15.000 UL
LTb
0.90 0.12 0.06 C
5136 7277 Pnt
5520 7277 Pnt
5904 7277 Pnt
6288 7277 Pnt
6671 7277 Pnt
7055 7277 Pnt
7439 7277 Pnt
7823 7277 Pnt
LTw
% End plot #1
% Begin plot #2
3.000 UL
LTb
LCb setrgbcolor
[] 0 setdash
0.90 0.12 0.06 C
5136 7277 M
384 0 V
384 0 V
384 0 V
383 0 V
384 0 V
384 0 V
384 0 V
stroke
LTw
% End plot #2
% Begin plot #3
15.000 UL
LTb
LCb setrgbcolor
[] 0 setdash
0.34 0.71 0.91 C
5136 7040 Pnt
5520 7042 Pnt
5904 7043 Pnt
6288 7044 Pnt
6671 7044 Pnt
7055 7043 Pnt
7439 7041 Pnt
7823 7039 Pnt
LTw
% End plot #3
% Begin plot #4
3.000 UL
LTb
LCb setrgbcolor
[] 0 setdash
0.34 0.71 0.91 C
5136 7040 M
384 2 V
384 1 V
384 1 V
383 0 V
384 -1 V
384 -2 V
384 -2 V
stroke
LTw
% End plot #4
% Begin plot #5
3.000 UL
LTb
LCb setrgbcolor
LT2
0.00 0.00 0.00 C
4752 7251 M
35 0 V
35 0 V
35 0 V
35 0 V
34 0 V
35 0 V
35 0 V
35 0 V
35 0 V
35 0 V
35 0 V
35 0 V
35 0 V
35 0 V
34 0 V
35 0 V
35 0 V
35 0 V
35 0 V
35 0 V
35 0 V
35 0 V
35 0 V
35 0 V
34 0 V
35 0 V
35 0 V
35 0 V
35 0 V
35 0 V
35 0 V
35 0 V
35 0 V
35 0 V
34 0 V
35 0 V
35 0 V
35 0 V
35 0 V
35 0 V
35 0 V
35 0 V
35 0 V
35 0 V
34 0 V
35 0 V
35 0 V
35 0 V
35 0 V
35 0 V
35 0 V
35 0 V
35 0 V
35 0 V
34 0 V
35 0 V
35 0 V
35 0 V
35 0 V
35 0 V
35 0 V
35 0 V
35 0 V
35 0 V
34 0 V
35 0 V
35 0 V
35 0 V
35 0 V
35 0 V
35 0 V
35 0 V
35 0 V
35 0 V
34 0 V
35 0 V
35 0 V
35 0 V
35 0 V
35 0 V
35 0 V
35 0 V
35 0 V
35 0 V
34 0 V
35 0 V
35 0 V
35 0 V
35 0 V
35 0 V
35 0 V
35 0 V
35 0 V
35 0 V
34 0 V
35 0 V
35 0 V
35 0 V
35 0 V
stroke
LTw
% End plot #5
LCw setrgbcolor
1.000 6692 7367 1383 330 BoxColFill
1.000 UL
LTb
LCb setrgbcolor
[] 0 setdash
6692 7367 N
0 330 V
1383 0 V
0 -330 V
-1383 0 V
Z stroke
% Begin plot #6
15.000 UL
LTb
0.90 0.12 0.06 C
LTw
% End plot #6
% Begin plot #7
3.000 UL
LTb
LCb setrgbcolor
[] 0 setdash
0.90 0.12 0.06 C
LCb setrgbcolor
3.000 UL
LTb
0.90 0.12 0.06 C
7352 7614 M
591 0 V
stroke
LTw
% End plot #7
% Begin plot #8
15.000 UL
LTb
LCb setrgbcolor
[] 0 setdash
0.34 0.71 0.91 C
LTw
% End plot #8
% Begin plot #9
3.000 UL
LTb
LCb setrgbcolor
[] 0 setdash
0.34 0.71 0.91 C
LCb setrgbcolor
3.000 UL
LTb
0.34 0.71 0.91 C
7352 7449 M
591 0 V
stroke
LTw
% End plot #9
% Begin plot #10
3.000 UL
LTb
LCb setrgbcolor
LT2
0.00 0.00 0.00 C
LTw
% End plot #10
2.000 UL
LTb
LCb setrgbcolor
[] 0 setdash
1.000 UL
LTb
4752 7760 N
0 -2375 V
3455 0 V
0 2375 V
-3455 0 V
Z stroke
1.000 UP
1.000 UL
LTb
1.000 UL
LTb
1296 3179 M
63 0 V
3392 0 R
-63 0 V
stroke
1296 4027 M
63 0 V
3392 0 R
-63 0 V
stroke
1296 4875 M
63 0 V
3392 0 R
-63 0 V
stroke
1296 3009 M
0 63 V
0 2312 R
0 -63 V
stroke
1987 3009 M
0 63 V
0 2312 R
0 -63 V
stroke
2678 3009 M
0 63 V
0 2312 R
0 -63 V
stroke
3369 3009 M
0 63 V
0 2312 R
0 -63 V
stroke
4060 3009 M
0 63 V
0 2312 R
0 -63 V
stroke
4751 3009 M
0 63 V
0 2312 R
0 -63 V
stroke
1.000 UL
LTb
1296 5384 N
0 -2375 V
3455 0 V
0 2375 V
-3455 0 V
Z stroke
1.000 UP
1.000 UL
LTb
1.000 UL
LTb
3236 4991 N
0 330 V
1383 0 V
0 -330 V
-1383 0 V
Z stroke
% Begin plot #1
15.000 UL
LTb
0.90 0.12 0.06 C
1642 4740 Pnt
1987 4732 Pnt
2333 4724 Pnt
2678 4716 Pnt
3024 4708 Pnt
3369 4700 Pnt
3715 4692 Pnt
4060 4684 Pnt
4406 4676 Pnt
LTw
% End plot #1
% Begin plot #2
3.000 UL
LTb
LCb setrgbcolor
[] 0 setdash
0.90 0.12 0.06 C
1642 4740 M
345 -8 V
346 -8 V
345 -8 V
346 -8 V
345 -8 V
346 -8 V
345 -8 V
346 -8 V
stroke
LTw
% End plot #2
% Begin plot #3
15.000 UL
LTb
LCb setrgbcolor
[] 0 setdash
0.34 0.71 0.91 C
1642 4222 Pnt
1987 4217 Pnt
2333 4211 Pnt
2678 4205 Pnt
3024 4200 Pnt
3369 4194 Pnt
3715 4189 Pnt
4060 4183 Pnt
4406 4178 Pnt
LTw
% End plot #3
% Begin plot #4
3.000 UL
LTb
LCb setrgbcolor
[] 0 setdash
0.34 0.71 0.91 C
1642 4222 M
345 -5 V
346 -6 V
345 -6 V
346 -5 V
345 -6 V
346 -5 V
345 -6 V
346 -5 V
stroke
LTw
% End plot #4
% Begin plot #5
3.000 UL
LTb
LCb setrgbcolor
LT2
0.00 0.00 0.00 C
1296 4875 M
35 0 V
35 0 V
35 0 V
35 0 V
34 0 V
35 0 V
35 0 V
35 0 V
35 0 V
35 0 V
35 0 V
35 0 V
35 0 V
35 0 V
34 0 V
35 0 V
35 0 V
35 0 V
35 0 V
35 0 V
35 0 V
35 0 V
35 0 V
35 0 V
34 0 V
35 0 V
35 0 V
35 0 V
35 0 V
35 0 V
35 0 V
35 0 V
35 0 V
35 0 V
34 0 V
35 0 V
35 0 V
35 0 V
35 0 V
35 0 V
35 0 V
35 0 V
35 0 V
35 0 V
34 0 V
35 0 V
35 0 V
35 0 V
35 0 V
35 0 V
35 0 V
35 0 V
35 0 V
35 0 V
34 0 V
35 0 V
35 0 V
35 0 V
35 0 V
35 0 V
35 0 V
35 0 V
35 0 V
35 0 V
34 0 V
35 0 V
35 0 V
35 0 V
35 0 V
35 0 V
35 0 V
35 0 V
35 0 V
35 0 V
34 0 V
35 0 V
35 0 V
35 0 V
35 0 V
35 0 V
35 0 V
35 0 V
35 0 V
35 0 V
34 0 V
35 0 V
35 0 V
35 0 V
35 0 V
35 0 V
35 0 V
35 0 V
35 0 V
35 0 V
34 0 V
35 0 V
35 0 V
35 0 V
35 0 V
stroke
LTw
% End plot #5
LCw setrgbcolor
1.000 3236 4991 1383 330 BoxColFill
1.000 UL
LTb
LCb setrgbcolor
[] 0 setdash
3236 4991 N
0 330 V
1383 0 V
0 -330 V
-1383 0 V
Z stroke
% Begin plot #6
15.000 UL
LTb
0.90 0.12 0.06 C
LTw
% End plot #6
% Begin plot #7
3.000 UL
LTb
LCb setrgbcolor
[] 0 setdash
0.90 0.12 0.06 C
LCb setrgbcolor
3.000 UL
LTb
0.90 0.12 0.06 C
3896 5238 M
591 0 V
stroke
LTw
% End plot #7
% Begin plot #8
15.000 UL
LTb
LCb setrgbcolor
[] 0 setdash
0.34 0.71 0.91 C
LTw
% End plot #8
% Begin plot #9
3.000 UL
LTb
LCb setrgbcolor
[] 0 setdash
0.34 0.71 0.91 C
LCb setrgbcolor
3.000 UL
LTb
0.34 0.71 0.91 C
3896 5073 M
591 0 V
stroke
LTw
% End plot #9
% Begin plot #10
3.000 UL
LTb
LCb setrgbcolor
LT2
0.00 0.00 0.00 C
LTw
% End plot #10
2.000 UL
LTb
LCb setrgbcolor
[] 0 setdash
1.000 UL
LTb
1296 5384 N
0 -2375 V
3455 0 V
0 2375 V
-3455 0 V
Z stroke
1.000 UP
1.000 UL
LTb
1.000 UL
LTb
4752 3179 M
63 0 V
3392 0 R
-63 0 V
stroke
4752 4027 M
63 0 V
3392 0 R
-63 0 V
stroke
4752 4875 M
63 0 V
3392 0 R
-63 0 V
stroke
4752 3009 M
0 63 V
0 2312 R
0 -63 V
stroke
5443 3009 M
0 63 V
0 2312 R
0 -63 V
stroke
6134 3009 M
0 63 V
0 2312 R
0 -63 V
stroke
6825 3009 M
0 63 V
0 2312 R
0 -63 V
stroke
7516 3009 M
0 63 V
0 2312 R
0 -63 V
stroke
8207 3009 M
0 63 V
0 2312 R
0 -63 V
stroke
1.000 UL
LTb
4752 5384 N
0 -2375 V
3455 0 V
0 2375 V
-3455 0 V
Z stroke
1.000 UP
1.000 UL
LTb
1.000 UL
LTb
6692 4991 N
0 330 V
1383 0 V
0 -330 V
-1383 0 V
Z stroke
% Begin plot #1
15.000 UL
LTb
0.90 0.12 0.06 C
5136 4901 Pnt
5520 4901 Pnt
5904 4901 Pnt
6288 4901 Pnt
6671 4901 Pnt
7055 4901 Pnt
7439 4901 Pnt
7823 4901 Pnt
LTw
% End plot #1
% Begin plot #2
3.000 UL
LTb
LCb setrgbcolor
[] 0 setdash
0.90 0.12 0.06 C
5136 4901 M
384 0 V
384 0 V
384 0 V
383 0 V
384 0 V
384 0 V
384 0 V
stroke
LTw
% End plot #2
% Begin plot #3
15.000 UL
LTb
LCb setrgbcolor
[] 0 setdash
0.34 0.71 0.91 C
5136 4716 Pnt
5520 4715 Pnt
5904 4714 Pnt
6288 4713 Pnt
6671 4711 Pnt
7055 4709 Pnt
7439 4706 Pnt
7823 4703 Pnt
LTw
% End plot #3
% Begin plot #4
3.000 UL
LTb
LCb setrgbcolor
[] 0 setdash
0.34 0.71 0.91 C
5136 4716 M
384 -1 V
384 -1 V
384 -1 V
383 -2 V
384 -2 V
384 -3 V
384 -3 V
stroke
LTw
% End plot #4
% Begin plot #5
3.000 UL
LTb
LCb setrgbcolor
LT2
0.00 0.00 0.00 C
4752 4875 M
35 0 V
35 0 V
35 0 V
35 0 V
34 0 V
35 0 V
35 0 V
35 0 V
35 0 V
35 0 V
35 0 V
35 0 V
35 0 V
35 0 V
34 0 V
35 0 V
35 0 V
35 0 V
35 0 V
35 0 V
35 0 V
35 0 V
35 0 V
35 0 V
34 0 V
35 0 V
35 0 V
35 0 V
35 0 V
35 0 V
35 0 V
35 0 V
35 0 V
35 0 V
34 0 V
35 0 V
35 0 V
35 0 V
35 0 V
35 0 V
35 0 V
35 0 V
35 0 V
35 0 V
34 0 V
35 0 V
35 0 V
35 0 V
35 0 V
35 0 V
35 0 V
35 0 V
35 0 V
35 0 V
34 0 V
35 0 V
35 0 V
35 0 V
35 0 V
35 0 V
35 0 V
35 0 V
35 0 V
35 0 V
34 0 V
35 0 V
35 0 V
35 0 V
35 0 V
35 0 V
35 0 V
35 0 V
35 0 V
35 0 V
34 0 V
35 0 V
35 0 V
35 0 V
35 0 V
35 0 V
35 0 V
35 0 V
35 0 V
35 0 V
34 0 V
35 0 V
35 0 V
35 0 V
35 0 V
35 0 V
35 0 V
35 0 V
35 0 V
35 0 V
34 0 V
35 0 V
35 0 V
35 0 V
35 0 V
stroke
LTw
% End plot #5
LCw setrgbcolor
1.000 6692 4991 1383 330 BoxColFill
1.000 UL
LTb
LCb setrgbcolor
[] 0 setdash
6692 4991 N
0 330 V
1383 0 V
0 -330 V
-1383 0 V
Z stroke
% Begin plot #6
15.000 UL
LTb
0.90 0.12 0.06 C
LTw
% End plot #6
% Begin plot #7
3.000 UL
LTb
LCb setrgbcolor
[] 0 setdash
0.90 0.12 0.06 C
LCb setrgbcolor
3.000 UL
LTb
0.90 0.12 0.06 C
7352 5238 M
591 0 V
stroke
LTw
% End plot #7
% Begin plot #8
15.000 UL
LTb
LCb setrgbcolor
[] 0 setdash
0.34 0.71 0.91 C
LTw
% End plot #8
% Begin plot #9
3.000 UL
LTb
LCb setrgbcolor
[] 0 setdash
0.34 0.71 0.91 C
LCb setrgbcolor
3.000 UL
LTb
0.34 0.71 0.91 C
7352 5073 M
591 0 V
stroke
LTw
% End plot #9
% Begin plot #10
3.000 UL
LTb
LCb setrgbcolor
LT2
0.00 0.00 0.00 C
LTw
% End plot #10
2.000 UL
LTb
LCb setrgbcolor
[] 0 setdash
1.000 UL
LTb
4752 5384 N
0 -2375 V
3455 0 V
0 2375 V
-3455 0 V
Z stroke
1.000 UP
1.000 UL
LTb
1.000 UL
LTb
1296 803 M
63 0 V
3392 0 R
-63 0 V
stroke
1296 1651 M
63 0 V
3392 0 R
-63 0 V
stroke
1296 2500 M
63 0 V
3392 0 R
-63 0 V
stroke
1642 633 M
0 63 V
0 2313 R
0 -63 V
stroke
2333 633 M
0 63 V
0 2313 R
0 -63 V
stroke
3024 633 M
0 63 V
0 2313 R
0 -63 V
stroke
3715 633 M
0 63 V
0 2313 R
0 -63 V
stroke
4406 633 M
0 63 V
0 2313 R
0 -63 V
stroke
1.000 UL
LTb
1296 3009 N
0 -2376 V
3455 0 V
0 2376 V
-3455 0 V
Z stroke
1.000 UP
1.000 UL
LTb
1.000 UL
LTb
3236 2616 N
0 330 V
1383 0 V
0 -330 V
-1383 0 V
Z stroke
% Begin plot #1
15.000 UL
LTb
0.90 0.12 0.06 C
1642 2500 Pnt
1987 2499 Pnt
2333 2498 Pnt
2678 2497 Pnt
3024 2497 Pnt
3369 2496 Pnt
3715 2495 Pnt
4060 2494 Pnt
4406 2493 Pnt
LTw
% End plot #1
% Begin plot #2
3.000 UL
LTb
LCb setrgbcolor
[] 0 setdash
0.90 0.12 0.06 C
1642 2500 M
345 -1 V
346 -1 V
345 -1 V
346 0 V
345 -1 V
346 -1 V
345 -1 V
346 -1 V
stroke
LTw
% End plot #2
% Begin plot #3
15.000 UL
LTb
LCb setrgbcolor
[] 0 setdash
0.34 0.71 0.91 C
1642 2476 Pnt
1987 2475 Pnt
2333 2474 Pnt
2678 2473 Pnt
3024 2472 Pnt
3369 2472 Pnt
3715 2471 Pnt
4060 2470 Pnt
4406 2469 Pnt
LTw
% End plot #3
% Begin plot #4
3.000 UL
LTb
LCb setrgbcolor
[] 0 setdash
0.34 0.71 0.91 C
1642 2476 M
345 -1 V
346 -1 V
345 -1 V
346 -1 V
345 0 V
346 -1 V
345 -1 V
346 -1 V
stroke
LTw
% End plot #4
% Begin plot #5
3.000 UL
LTb
LCb setrgbcolor
LT2
0.00 0.00 0.00 C
1296 2500 M
35 0 V
35 0 V
35 0 V
35 0 V
34 0 V
35 0 V
35 0 V
35 0 V
35 0 V
35 0 V
35 0 V
35 0 V
35 0 V
35 0 V
34 0 V
35 0 V
35 0 V
35 0 V
35 0 V
35 0 V
35 0 V
35 0 V
35 0 V
35 0 V
34 0 V
35 0 V
35 0 V
35 0 V
35 0 V
35 0 V
35 0 V
35 0 V
35 0 V
35 0 V
34 0 V
35 0 V
35 0 V
35 0 V
35 0 V
35 0 V
35 0 V
35 0 V
35 0 V
35 0 V
34 0 V
35 0 V
35 0 V
35 0 V
35 0 V
35 0 V
35 0 V
35 0 V
35 0 V
35 0 V
34 0 V
35 0 V
35 0 V
35 0 V
35 0 V
35 0 V
35 0 V
35 0 V
35 0 V
35 0 V
34 0 V
35 0 V
35 0 V
35 0 V
35 0 V
35 0 V
35 0 V
35 0 V
35 0 V
35 0 V
34 0 V
35 0 V
35 0 V
35 0 V
35 0 V
35 0 V
35 0 V
35 0 V
35 0 V
35 0 V
34 0 V
35 0 V
35 0 V
35 0 V
35 0 V
35 0 V
35 0 V
35 0 V
35 0 V
35 0 V
34 0 V
35 0 V
35 0 V
35 0 V
35 0 V
stroke
LTw
% End plot #5
LCw setrgbcolor
1.000 3236 2616 1383 330 BoxColFill
1.000 UL
LTb
LCb setrgbcolor
[] 0 setdash
3236 2616 N
0 330 V
1383 0 V
0 -330 V
-1383 0 V
Z stroke
% Begin plot #6
15.000 UL
LTb
0.90 0.12 0.06 C
LTw
% End plot #6
% Begin plot #7
3.000 UL
LTb
LCb setrgbcolor
[] 0 setdash
0.90 0.12 0.06 C
LCb setrgbcolor
3.000 UL
LTb
0.90 0.12 0.06 C
3896 2863 M
591 0 V
stroke
LTw
% End plot #7
% Begin plot #8
15.000 UL
LTb
LCb setrgbcolor
[] 0 setdash
0.34 0.71 0.91 C
LTw
% End plot #8
% Begin plot #9
3.000 UL
LTb
LCb setrgbcolor
[] 0 setdash
0.34 0.71 0.91 C
LCb setrgbcolor
3.000 UL
LTb
0.34 0.71 0.91 C
3896 2698 M
591 0 V
stroke
LTw
% End plot #9
% Begin plot #10
3.000 UL
LTb
LCb setrgbcolor
LT2
0.00 0.00 0.00 C
LTw
% End plot #10
2.000 UL
LTb
LCb setrgbcolor
[] 0 setdash
1.000 UL
LTb
1296 3009 N
0 -2376 V
3455 0 V
0 2376 V
-3455 0 V
Z stroke
1.000 UP
1.000 UL
LTb
1.000 UL
LTb
4752 803 M
63 0 V
3392 0 R
-63 0 V
stroke
4752 1651 M
63 0 V
3392 0 R
-63 0 V
stroke
4752 2500 M
63 0 V
3392 0 R
-63 0 V
stroke
5098 633 M
0 63 V
0 2313 R
0 -63 V
stroke
5789 633 M
0 63 V
0 2313 R
0 -63 V
stroke
6480 633 M
0 63 V
0 2313 R
0 -63 V
stroke
7171 633 M
0 63 V
0 2313 R
0 -63 V
stroke
7862 633 M
0 63 V
0 2313 R
0 -63 V
stroke
1.000 UL
LTb
4752 3009 N
0 -2376 V
3455 0 V
0 2376 V
-3455 0 V
Z stroke
1.000 UP
1.000 UL
LTb
1.000 UL
LTb
6692 2616 N
0 330 V
1383 0 V
0 -330 V
-1383 0 V
Z stroke
% Begin plot #1
15.000 UL
LTb
0.90 0.12 0.06 C
5136 2526 Pnt
5520 2526 Pnt
5904 2526 Pnt
6288 2526 Pnt
6671 2526 Pnt
7055 2525 Pnt
7439 2525 Pnt
7823 2523 Pnt
LTw
% End plot #1
% Begin plot #2
3.000 UL
LTb
LCb setrgbcolor
[] 0 setdash
0.90 0.12 0.06 C
5136 2526 M
384 0 V
384 0 V
384 0 V
383 0 V
384 -1 V
384 0 V
384 -2 V
stroke
LTw
% End plot #2
% Begin plot #3
15.000 UL
LTb
LCb setrgbcolor
[] 0 setdash
0.34 0.71 0.91 C
5136 2360 Pnt
5520 2362 Pnt
5904 2363 Pnt
6288 2363 Pnt
6671 2363 Pnt
7055 2361 Pnt
7439 2360 Pnt
7823 2357 Pnt
LTw
% End plot #3
% Begin plot #4
3.000 UL
LTb
LCb setrgbcolor
[] 0 setdash
0.34 0.71 0.91 C
5136 2360 M
384 2 V
384 1 V
384 0 V
383 0 V
384 -2 V
384 -1 V
384 -3 V
stroke
LTw
% End plot #4
% Begin plot #5
3.000 UL
LTb
LCb setrgbcolor
LT2
0.00 0.00 0.00 C
4752 2500 M
35 0 V
35 0 V
35 0 V
35 0 V
34 0 V
35 0 V
35 0 V
35 0 V
35 0 V
35 0 V
35 0 V
35 0 V
35 0 V
35 0 V
34 0 V
35 0 V
35 0 V
35 0 V
35 0 V
35 0 V
35 0 V
35 0 V
35 0 V
35 0 V
34 0 V
35 0 V
35 0 V
35 0 V
35 0 V
35 0 V
35 0 V
35 0 V
35 0 V
35 0 V
34 0 V
35 0 V
35 0 V
35 0 V
35 0 V
35 0 V
35 0 V
35 0 V
35 0 V
35 0 V
34 0 V
35 0 V
35 0 V
35 0 V
35 0 V
35 0 V
35 0 V
35 0 V
35 0 V
35 0 V
34 0 V
35 0 V
35 0 V
35 0 V
35 0 V
35 0 V
35 0 V
35 0 V
35 0 V
35 0 V
34 0 V
35 0 V
35 0 V
35 0 V
35 0 V
35 0 V
35 0 V
35 0 V
35 0 V
35 0 V
34 0 V
35 0 V
35 0 V
35 0 V
35 0 V
35 0 V
35 0 V
35 0 V
35 0 V
35 0 V
34 0 V
35 0 V
35 0 V
35 0 V
35 0 V
35 0 V
35 0 V
35 0 V
35 0 V
35 0 V
34 0 V
35 0 V
35 0 V
35 0 V
35 0 V
stroke
LTw
% End plot #5
LCw setrgbcolor
1.000 6692 2616 1383 330 BoxColFill
1.000 UL
LTb
LCb setrgbcolor
[] 0 setdash
6692 2616 N
0 330 V
1383 0 V
0 -330 V
-1383 0 V
Z stroke
% Begin plot #6
15.000 UL
LTb
0.90 0.12 0.06 C
LTw
% End plot #6
% Begin plot #7
3.000 UL
LTb
LCb setrgbcolor
[] 0 setdash
0.90 0.12 0.06 C
LCb setrgbcolor
3.000 UL
LTb
0.90 0.12 0.06 C
7352 2863 M
591 0 V
stroke
LTw
% End plot #7
% Begin plot #8
15.000 UL
LTb
LCb setrgbcolor
[] 0 setdash
0.34 0.71 0.91 C
LTw
% End plot #8
% Begin plot #9
3.000 UL
LTb
LCb setrgbcolor
[] 0 setdash
0.34 0.71 0.91 C
LCb setrgbcolor
3.000 UL
LTb
0.34 0.71 0.91 C
7352 2698 M
591 0 V
stroke
LTw
% End plot #9
% Begin plot #10
3.000 UL
LTb
LCb setrgbcolor
LT2
0.00 0.00 0.00 C
LTw
% End plot #10
2.000 UL
LTb
LCb setrgbcolor
[] 0 setdash
1.000 UL
LTb
4752 3009 N
0 -2376 V
3455 0 V
0 2376 V
-3455 0 V
Z stroke
1.000 UP
1.000 UL
LTb
stroke
grestore
end
showpage
%%Trailer
