# Number of points:  40000
# Noise:  0.3
#
# -- OLS simple --
#
#
# Max order	R2	MSE
1	0.351405887574037	0.11218697793065303
2	0.38635638568360386	0.10614160890098752
3	0.4364263821883395	0.09748102829248585
4	0.4584054014245613	0.0936793290498445
5	0.4692297728364899	0.09180704329602979
6	0.4736848167554969	0.09103645672386325
7	0.47673821492513213	0.09050831206989915
